"FILE","LINE","TITLE","START_TIME","SUCCESS_TIME","FOLLOW","AllCusLOOP"
"/www/ERP_crm/cronjob/create_follow_news.php","117","เริ่มต้นการสร้างข้อมูล Followup ","2012-12-29 11:06:43","-","0","0"
"/www/ERP_crm/cronjob/create_follow_news.php","2543","สิ้นสุดการสร้างข้อมูล Followup ","-","2012-12-29 11:19:29","0","0"
"/www/ERP_crm/cronjob/create_follow_news.php","117","เริ่มต้นการสร้างข้อมูล Followup ","2012-12-29 11:24:40","-","0","0"
"/www/ERP_crm/cronjob/create_follow_news.php","2543","สิ้นสุดการสร้างข้อมูล Followup ","-","2012-12-29 11:36:17","0","0"
"/www/ERP_crm/cronjob/create_follow_news.php","117","เริ่มต้นการสร้างข้อมูล Followup ","2012-12-29 12:54:36","-","0","0"
"/www/ERP_crm/cronjob/create_follow_news.php","2543","สิ้นสุดการสร้างข้อมูล Followup ","-","2012-12-29 13:05:21","0","0"
"/www/ERP_crm/cronjob/create_follow_news.php","117","เริ่มต้นการสร้างข้อมูล Followup ","2012-12-29 13:12:57","-","0","0"
"/www/ERP_crm/cronjob/create_follow_news.php","2543","สิ้นสุดการสร้างข้อมูล Followup ","-","2012-12-29 13:24:29","0","0"
