"FILE","LINE","TITLE","START_TIME","ERROR_TIME","Num","MYSQL","SQL"
"/www/CRM/create_follow_news.php","328","ข้อผิดพลาดที่พบขณะรันสคริปต์","2012-04-20 12:15:33","2012-04-20 12:15:33","0","<font color='#ff0000'>Table 'OU.follow_field_pattern' doesn't exist</font>","SELECT follow_main_event.id, follow_main_event.pattern_id_ref, follow_main_event.follow_type,
		follow_main_event.follow_up_activities, follow_field_pattern.id, follow_field_pattern.pattern_name,
		follow_field_pattern.field_name, follow_field_pattern.field_cus_name, follow_field_pattern.field_vehicle_name,
		follow_field_pattern.field_expire_date, follow_field_pattern.`table_name`, follow_field_pattern.db_name,
		follow_field_pattern.`status` FROM main_crm.follow_main_event
		Inner Join follow_field_pattern ON main_crm.follow_main_event.pattern_id_ref = 
		main_crm.follow_field_pattern.id WHERE follow_main_event.status <> '99' "
"/www/CRM/create_follow_news.php","328","ข้อผิดพลาดที่พบขณะรันสคริปต์","2012-04-20 12:15:44","2012-04-20 12:15:44","0","<font color='#ff0000'>Table 'OU.follow_field_pattern' doesn't exist</font>","SELECT follow_main_event.id, follow_main_event.pattern_id_ref, follow_main_event.follow_type,
		follow_main_event.follow_up_activities, follow_field_pattern.id, follow_field_pattern.pattern_name,
		follow_field_pattern.field_name, follow_field_pattern.field_cus_name, follow_field_pattern.field_vehicle_name,
		follow_field_pattern.field_expire_date, follow_field_pattern.`table_name`, follow_field_pattern.db_name,
		follow_field_pattern.`status` FROM main_crm.follow_main_event
		Inner Join follow_field_pattern ON main_crm.follow_main_event.pattern_id_ref = 
		main_crm.follow_field_pattern.id WHERE follow_main_event.status <> '99' "
"/www/CRM/create_follow_news.php","330","ข้อผิดพลาดที่พบขณะรันสคริปต์","2012-04-20 12:18:53","2012-04-20 12:18:53","0","<font color='#ff0000'>Table 'OU.follow_field_pattern' doesn't exist</font>","SELECT follow_main_event.id, follow_main_event.pattern_id_ref, follow_main_event.follow_type,
		follow_main_event.follow_up_activities, follow_field_pattern.id, follow_field_pattern.pattern_name,
		follow_field_pattern.field_name, follow_field_pattern.field_cus_name, follow_field_pattern.field_vehicle_name,
		follow_field_pattern.field_expire_date, follow_field_pattern.`table_name`, follow_field_pattern.db_name,
		follow_field_pattern.`status` FROM main_crm.follow_main_event
		Inner Join follow_field_pattern ON main_crm.follow_main_event.pattern_id_ref = 
		main_crm.follow_field_pattern.id WHERE follow_main_event.status <> '99' "
"/www/CRM/create_follow_news.php","323","ข้อผิดพลาดที่พบขณะรันสคริปต์","2012-04-20 12:20:35","2012-04-20 12:20:35","0","<font color='#ff0000'>Table 'OU.follow_field_pattern' doesn't exist</font>","SELECT follow_main_event.id, follow_main_event.pattern_id_ref, follow_main_event.follow_type,
		follow_main_event.follow_up_activities, follow_field_pattern.id, follow_field_pattern.pattern_name,
		follow_field_pattern.field_name, follow_field_pattern.field_cus_name, follow_field_pattern.field_vehicle_name,
		follow_field_pattern.field_expire_date, follow_field_pattern.`table_name`, follow_field_pattern.db_name,
		follow_field_pattern.`status` FROM main_crm.follow_main_event
		Inner Join follow_field_pattern ON main_crm.follow_main_event.pattern_id_ref = 
		main_crm.follow_field_pattern.id WHERE follow_main_event.status <> '99' "
"/www/CRM/create_follow_news.php","399","ข้อผิดพลาดที่พบขณะรันสคริปต์","2012-04-20 18:25:26","2012-04-20 18:25:26","0","<font color='#ff0000'>Unknown column 'xxx' in 'where clause'</font>","SELECT DATE_FORMAT(Booking_Date,'%Y-%m-%d') AS DATE_VAL FROM new_icmba.Booking   WHERE xxx <> ''   LIMIT 5"
"/www/CRM/create_follow_news.php","404","ข้อผิดพลาดที่พบขณะรันสคริปต์","2012-04-20 18:42:21","2012-04-20 18:42:21","0","<font color='#ff0000'>You have an error in your SQL syntax; check the manual that corresponds to your MySQL server version for the right syntax to use near 'AND IF(DATE_ADD(DATE_FORMAT(Booking_Date,'%Y-%m-%d'), INTERVAL 2 day)>=NOW()) FR' at line 3</font>","SELECT DATE_FORMAT(Booking_Date,'%Y-%m-%d') AS DATE_VAL, 
					DATE_ADD(DATE_FORMAT(Booking_Date,'%Y-%m-%d'), INTERVAL 2 day) AS STOP_DATE,
					AND IF(DATE_ADD(DATE_FORMAT(Booking_Date,'%Y-%m-%d'), INTERVAL 2 day)>=NOW()) FROM new_icmba.Booking    LIMIT 5"
"/www/CRM/create_follow_news.php","404","ข้อผิดพลาดที่พบขณะรันสคริปต์","2012-04-20 18:45:09","2012-04-20 18:45:09","0","<font color='#ff0000'>You have an error in your SQL syntax; check the manual that corresponds to your MySQL server version for the right syntax to use near ') LIMIT 5' at line 3</font>","SELECT DATE_FORMAT(Booking_Date,'%Y-%m-%d') AS DATE_VAL, 
					DATE_ADD(DATE_FORMAT(Booking_Date,'%Y-%m-%d'), INTERVAL 2 day) AS STOP_DATE
					FROM new_icmba.Booking    WHERE IF(DATE_ADD(DATE_FORMAT(Booking_Date,'%Y-%m-%d'), INTERVAL 2 day)>=NOW()) LIMIT 5"
"/www/CRM/create_follow_news.php","404","ข้อผิดพลาดที่พบขณะรันสคริปต์","2012-04-20 18:48:31","2012-04-20 18:48:31","0","<font color='#ff0000'>You have an error in your SQL syntax; check the manual that corresponds to your MySQL server version for the right syntax to use near 'PRIMARY KEY LIMIT 5' at line 3</font>","SELECT DATE_FORMAT(Booking_Date,'%Y-%m-%d') AS DATE_VAL, 
					DATE_ADD(DATE_FORMAT(Booking_Date,'%Y-%m-%d'), INTERVAL 2 day) AS STOP_DATE
					FROM new_icmba.Booking    WHERE DATE_ADD(DATE_FORMAT(Booking_Date,'%Y-%m-%d'), INTERVAL 2 day)>=NOW() ORDER BY PRIMARY KEY LIMIT 5"
"/www/CRM/create_follow_news.php","404","ข้อผิดพลาดที่พบขณะรันสคริปต์","2012-04-20 18:51:11","2012-04-20 18:51:11","0","<font color='#ff0000'>Unknown column 'Booking.constraint_type' in 'order clause'</font>","SELECT DATE_FORMAT(Booking_Date,'%Y-%m-%d') AS DATE_VAL, 
					DATE_ADD(DATE_FORMAT(Booking_Date,'%Y-%m-%d'), INTERVAL 2 day) AS STOP_DATE
					FROM new_icmba.Booking    WHERE DATE_ADD(DATE_FORMAT(Booking_Date,'%Y-%m-%d'), INTERVAL 2 day)>=NOW() ORDER BY Booking.constraint_type='PRIMARY KEY' LIMIT 5"
