FollowDate,PersonName,CompanyName,FollowType,FollowPeriod,ScName,ActionDate,DealerName,BranchName,VIN,InterestMarketName,Engine,DeliveryDate,Address,Phone,Remark,ContactDetail,SQ1Score,SQ2Score,StatusId,FollowUpStatus,ModelGroup,IsUnContact,UnContactReason,IsReferral,IsRePurchase,IsAdditional,SalesOppNo,ActionDealerName,ActionBranchName,ActionScName
2014-08-08,กาญจนา นรารักษ์,,เพื่อซื้อทดแทน,82M  ,J1118 : วสันต์ สลีอ่อน,8/2/2014,40140100 : บริษัท อีซูซุเชียงราย (2002) จำกัด,เชียงราย (สนญ.),MP1TFR86H7T223334   ,SLX2.5 HR ABS,EY8377,10/1/2007,เลขที่ 56 หมู่ที่ 11 ต.เวียง อ.เทิง จ.เชียงราย 57160,53669266,,remark,,,2,เสร็จสมบูรณ์,PICKUP    ,,,,,,,40140100 : บริษัท อีซูซุเชียงราย (2002) จำกัด,เชียงราย (สนญ.),J0107 : พิบูลย์ศักดิ์ พิมสาร
2014-08-11,การะเกด โกลละสุต,,สร้างความสัมพันธ์,40M  ,J0853 : ชัยวัฒน์ อุปมูล,8/2/2014,40140100 : บริษัท อีซูซุเชียงราย (2002) จำกัด,เชียงราย (สนญ.),MP1TFR86HBT172004   ,SLX2.5 HR ABS,BA3247,4/1/2011,เลขที่ 104 หมู่ที่ 4 ต.ครึ่ง อ.เชียงของ จ.เชียงราย 57140,899541909,,remark,,,2,เสร็จสมบูรณ์,PICKUP    ,,,,,,,40140100 : บริษัท อีซูซุเชียงราย (2002) จำกัด,เชียงราย (สนญ.),J1180 : อนุสรณ์ ใจดก
2014-08-02,กิ่งดาว  ธนานนทพันธ์,,เพื่อซื้อทดแทน,58M  ,J1118 : วสันต์ สลีอ่อน,8/4/2014,40140100 : บริษัท อีซูซุเชียงราย (2002) จำกัด,เชียงราย (สนญ.),MP1TFR86H9T167355   ,SPARK 2.5 AIR (PS),GP8379,10/1/2009,เลขที่ 116 หมู่ที่ 11 ต.แม่สรวย อ.แม่สรวย จ.เชียงราย 57180,810258806,,remark,,,2,เสร็จสมบูรณ์,PICKUP    ,,,,,,,40140100 : บริษัท อีซูซุเชียงราย (2002) จำกัด,เทิง,J0107 : พิบูลย์ศักดิ์ พิมสาร
2014-08-09,  กิติพงศ์ เป็นแผ่น,,เพื่อซื้อทดแทน,88M  ,J1118 : วสันต์ สลีอ่อน,8/4/2014,40140100 : บริษัท อีซูซุเชียงราย (2002) จำกัด,เชียงราย (สนญ.),MP1TFR86H7T183305   ,SLX2.5 HR ABS,ES0239,3/30/2007,เลขที่ 76 หมู่ที่ 12 ต.เวียง อ.เทิง จ.เชียงราย 57160,897569042,,remark,,,2,เสร็จสมบูรณ์,PICKUP    ,,,,,,,40140100 : บริษัท อีซูซุเชียงราย (2002) จำกัด,เทิง,J0107 : พิบูลย์ศักดิ์ พิมสาร
