"FILE","LINE","TITLE","START_TIME","ERROR_TIME","Num","MYSQL","SQL"
"/www/CRM/create_follow_news.php","1312","ข้อผิดพลาดที่พบขณะรันสคริปต์","2012-05-24 17:10:53","2012-05-24 17:10:53","0","<font color='#ff0000'>You have an error in your SQL syntax; check the manual that corresponds to your MySQL server version for the right syntax to use near ')' at line 2</font>","SELECT * FROM main_crm.follow_event_responsible WHERE 
					main_event_id = '4' AND resps_bu IN () "
