"FILE","LINE","TITLE","START_TIME","SUCCESS_TIME","FOLLOW","AllCusLOOP"
"/CRM/create_follow_news.php","129","เริ่มต้นการสร้างข้อมูล Followup ","2012-04-26 09:08:48","-","0","0"
"/CRM/create_follow_news.php","129","เริ่มต้นการสร้างข้อมูล Followup ","2012-04-26 09:52:19","-","0","0"
"/CRM/create_follow_news.php","129","เริ่มต้นการสร้างข้อมูล Followup ","2012-04-26 11:38:09","-","0","0"
