"FILE","LINE","TITLE","START_TIME","SUCCESS_TIME","FOLLOW","AllCusLOOP"
"/www/ERP_crm/cronjob/create_follow_news.php","127","เริ่มต้นการสร้างข้อมูล Followup ","2013-03-19 10:45:24","-","0","0"
"/www/ERP_crm/cronjob/create_follow_news.php","1524","primary_field เริ่มต้นการสร้างข้อมูล Followup ","2013-03-19 10:45:24","-","0","0"
"/www/ERP_crm/cronjob/create_follow_news.php","1563","arr_source chk_exits_follow_cus  TEST TEST TESTเริ่มต้นการสร้างข้อมูล Followup ","2013-03-19 10:45:24","-","0","0"
"/www/ERP_crm/cronjob/create_follow_news.php","1524","primary_field เริ่มต้นการสร้างข้อมูล Followup ","2013-03-19 10:45:24","-","0","0"
"/www/ERP_crm/cronjob/create_follow_news.php","1563","arr_source chk_exits_follow_cus  TEST TEST TESTเริ่มต้นการสร้างข้อมูล Followup ","2013-03-19 10:45:24","-","0","0"
"/www/ERP_crm/cronjob/create_follow_news.php","1524","primary_field เริ่มต้นการสร้างข้อมูล Followup ","2013-03-19 10:45:24","-","0","0"
"/www/ERP_crm/cronjob/create_follow_news.php","1563","arr_source chk_exits_follow_cus  TEST TEST TESTเริ่มต้นการสร้างข้อมูล Followup ","2013-03-19 10:45:24","-","0","0"
"/www/ERP_crm/cronjob/create_follow_news.php","1524","primary_field เริ่มต้นการสร้างข้อมูล Followup ","2013-03-19 10:45:24","-","0","0"
"/www/ERP_crm/cronjob/create_follow_news.php","1563","arr_source chk_exits_follow_cus  TEST TEST TESTเริ่มต้นการสร้างข้อมูล Followup ","2013-03-19 10:45:24","-","0","0"
"/www/ERP_crm/cronjob/create_follow_news.php","1524","primary_field เริ่มต้นการสร้างข้อมูล Followup ","2013-03-19 10:45:24","-","0","0"
"/www/ERP_crm/cronjob/create_follow_news.php","1563","arr_source chk_exits_follow_cus  TEST TEST TESTเริ่มต้นการสร้างข้อมูล Followup ","2013-03-19 10:45:24","-","0","0"
"/www/ERP_crm/cronjob/create_follow_news.php","1524","primary_field เริ่มต้นการสร้างข้อมูล Followup ","2013-03-19 10:45:24","-","0","0"
"/www/ERP_crm/cronjob/create_follow_news.php","1563","arr_source chk_exits_follow_cus  TEST TEST TESTเริ่มต้นการสร้างข้อมูล Followup ","2013-03-19 10:45:24","-","0","0"
"/www/ERP_crm/cronjob/create_follow_news.php","1524","primary_field เริ่มต้นการสร้างข้อมูล Followup ","2013-03-19 10:45:24","-","0","0"
"/www/ERP_crm/cronjob/create_follow_news.php","1563","arr_source chk_exits_follow_cus  TEST TEST TESTเริ่มต้นการสร้างข้อมูล Followup ","2013-03-19 10:45:24","-","0","0"
"/www/ERP_crm/cronjob/create_follow_news.php","1524","primary_field เริ่มต้นการสร้างข้อมูล Followup ","2013-03-19 10:45:24","-","0","0"
"/www/ERP_crm/cronjob/create_follow_news.php","1563","arr_source chk_exits_follow_cus  TEST TEST TESTเริ่มต้นการสร้างข้อมูล Followup ","2013-03-19 10:45:24","-","0","0"
"/www/ERP_crm/cronjob/create_follow_news.php","2284","primary_field เริ่มต้นการสร้างข้อมูล Followup ","2013-03-19 10:45:24","-","0","0"
"/www/ERP_crm/cronjob/create_follow_news.php","2312","arr_source chk_exits_follow_cus  TEST TEST TESTเริ่มต้นการสร้างข้อมูล Followup ","2013-03-19 10:45:24","-","0","0"
"/www/ERP_crm/cronjob/create_follow_news.php","2284","primary_field เริ่มต้นการสร้างข้อมูล Followup ","2013-03-19 10:45:24","-","0","0"
"/www/ERP_crm/cronjob/create_follow_news.php","2312","arr_source chk_exits_follow_cus  TEST TEST TESTเริ่มต้นการสร้างข้อมูล Followup ","2013-03-19 10:45:24","-","0","0"
"/www/ERP_crm/cronjob/create_follow_news.php","2719","สิ้นสุดการสร้างข้อมูล Followup ","-","2013-03-19 10:51:26","8108","0"
"/www/ERP_crm/cronjob/create_follow_news.php","127","เริ่มต้นการสร้างข้อมูล Followup ","2013-03-19 12:57:45","-","0","0"
"/www/ERP_crm/cronjob/create_follow_news.php","1524","primary_field เริ่มต้นการสร้างข้อมูล Followup ","2013-03-19 12:57:45","-","0","0"
"/www/ERP_crm/cronjob/create_follow_news.php","1563","arr_source chk_exits_follow_cus  TEST TEST TESTเริ่มต้นการสร้างข้อมูล Followup ","2013-03-19 12:57:45","-","0","0"
"/www/ERP_crm/cronjob/create_follow_news.php","1524","primary_field เริ่มต้นการสร้างข้อมูล Followup ","2013-03-19 12:57:45","-","0","0"
"/www/ERP_crm/cronjob/create_follow_news.php","1563","arr_source chk_exits_follow_cus  TEST TEST TESTเริ่มต้นการสร้างข้อมูล Followup ","2013-03-19 12:57:45","-","0","0"
"/www/ERP_crm/cronjob/create_follow_news.php","1524","primary_field เริ่มต้นการสร้างข้อมูล Followup ","2013-03-19 12:57:45","-","0","0"
"/www/ERP_crm/cronjob/create_follow_news.php","1563","arr_source chk_exits_follow_cus  TEST TEST TESTเริ่มต้นการสร้างข้อมูล Followup ","2013-03-19 12:57:45","-","0","0"
"/www/ERP_crm/cronjob/create_follow_news.php","1524","primary_field เริ่มต้นการสร้างข้อมูล Followup ","2013-03-19 12:57:45","-","0","0"
"/www/ERP_crm/cronjob/create_follow_news.php","1563","arr_source chk_exits_follow_cus  TEST TEST TESTเริ่มต้นการสร้างข้อมูล Followup ","2013-03-19 12:57:45","-","0","0"
"/www/ERP_crm/cronjob/create_follow_news.php","1524","primary_field เริ่มต้นการสร้างข้อมูล Followup ","2013-03-19 12:57:45","-","0","0"
"/www/ERP_crm/cronjob/create_follow_news.php","1563","arr_source chk_exits_follow_cus  TEST TEST TESTเริ่มต้นการสร้างข้อมูล Followup ","2013-03-19 12:57:45","-","0","0"
"/www/ERP_crm/cronjob/create_follow_news.php","1524","primary_field เริ่มต้นการสร้างข้อมูล Followup ","2013-03-19 12:57:45","-","0","0"
"/www/ERP_crm/cronjob/create_follow_news.php","1563","arr_source chk_exits_follow_cus  TEST TEST TESTเริ่มต้นการสร้างข้อมูล Followup ","2013-03-19 12:57:45","-","0","0"
"/www/ERP_crm/cronjob/create_follow_news.php","1524","primary_field เริ่มต้นการสร้างข้อมูล Followup ","2013-03-19 12:57:45","-","0","0"
"/www/ERP_crm/cronjob/create_follow_news.php","1563","arr_source chk_exits_follow_cus  TEST TEST TESTเริ่มต้นการสร้างข้อมูล Followup ","2013-03-19 12:57:45","-","0","0"
"/www/ERP_crm/cronjob/create_follow_news.php","1524","primary_field เริ่มต้นการสร้างข้อมูล Followup ","2013-03-19 12:57:45","-","0","0"
"/www/ERP_crm/cronjob/create_follow_news.php","1563","arr_source chk_exits_follow_cus  TEST TEST TESTเริ่มต้นการสร้างข้อมูล Followup ","2013-03-19 12:57:45","-","0","0"
"/www/ERP_crm/cronjob/create_follow_news.php","2284","primary_field เริ่มต้นการสร้างข้อมูล Followup ","2013-03-19 12:57:45","-","0","0"
"/www/ERP_crm/cronjob/create_follow_news.php","2312","arr_source chk_exits_follow_cus  TEST TEST TESTเริ่มต้นการสร้างข้อมูล Followup ","2013-03-19 12:57:45","-","0","0"
"/www/ERP_crm/cronjob/create_follow_news.php","2284","primary_field เริ่มต้นการสร้างข้อมูล Followup ","2013-03-19 12:57:45","-","0","0"
"/www/ERP_crm/cronjob/create_follow_news.php","2312","arr_source chk_exits_follow_cus  TEST TEST TESTเริ่มต้นการสร้างข้อมูล Followup ","2013-03-19 12:57:45","-","0","0"
"/www/ERP_crm/cronjob/create_follow_news.php","2719","สิ้นสุดการสร้างข้อมูล Followup ","-","2013-03-19 13:04:07","8108","0"
"/www/ERP_crm/cronjob/create_follow_news.php","127","เริ่มต้นการสร้างข้อมูล Followup ","2013-03-19 15:26:46","-","0","0"
"/www/ERP_crm/cronjob/create_follow_news.php","1524","primary_field เริ่มต้นการสร้างข้อมูล Followup ","2013-03-19 15:26:46","-","0","0"
"/www/ERP_crm/cronjob/create_follow_news.php","1563","arr_source chk_exits_follow_cus  TEST TEST TESTเริ่มต้นการสร้างข้อมูล Followup ","2013-03-19 15:26:46","-","0","0"
"/www/ERP_crm/cronjob/create_follow_news.php","1524","primary_field เริ่มต้นการสร้างข้อมูล Followup ","2013-03-19 15:26:46","-","0","0"
"/www/ERP_crm/cronjob/create_follow_news.php","1563","arr_source chk_exits_follow_cus  TEST TEST TESTเริ่มต้นการสร้างข้อมูล Followup ","2013-03-19 15:26:46","-","0","0"
"/www/ERP_crm/cronjob/create_follow_news.php","1524","primary_field เริ่มต้นการสร้างข้อมูล Followup ","2013-03-19 15:26:46","-","0","0"
"/www/ERP_crm/cronjob/create_follow_news.php","1563","arr_source chk_exits_follow_cus  TEST TEST TESTเริ่มต้นการสร้างข้อมูล Followup ","2013-03-19 15:26:46","-","0","0"
"/www/ERP_crm/cronjob/create_follow_news.php","1524","primary_field เริ่มต้นการสร้างข้อมูล Followup ","2013-03-19 15:26:46","-","0","0"
"/www/ERP_crm/cronjob/create_follow_news.php","1563","arr_source chk_exits_follow_cus  TEST TEST TESTเริ่มต้นการสร้างข้อมูล Followup ","2013-03-19 15:26:46","-","0","0"
"/www/ERP_crm/cronjob/create_follow_news.php","1524","primary_field เริ่มต้นการสร้างข้อมูล Followup ","2013-03-19 15:26:46","-","0","0"
"/www/ERP_crm/cronjob/create_follow_news.php","1563","arr_source chk_exits_follow_cus  TEST TEST TESTเริ่มต้นการสร้างข้อมูล Followup ","2013-03-19 15:26:46","-","0","0"
"/www/ERP_crm/cronjob/create_follow_news.php","1524","primary_field เริ่มต้นการสร้างข้อมูล Followup ","2013-03-19 15:26:46","-","0","0"
"/www/ERP_crm/cronjob/create_follow_news.php","1563","arr_source chk_exits_follow_cus  TEST TEST TESTเริ่มต้นการสร้างข้อมูล Followup ","2013-03-19 15:26:46","-","0","0"
"/www/ERP_crm/cronjob/create_follow_news.php","1524","primary_field เริ่มต้นการสร้างข้อมูล Followup ","2013-03-19 15:26:46","-","0","0"
"/www/ERP_crm/cronjob/create_follow_news.php","1563","arr_source chk_exits_follow_cus  TEST TEST TESTเริ่มต้นการสร้างข้อมูล Followup ","2013-03-19 15:26:46","-","0","0"
"/www/ERP_crm/cronjob/create_follow_news.php","1524","primary_field เริ่มต้นการสร้างข้อมูล Followup ","2013-03-19 15:26:46","-","0","0"
"/www/ERP_crm/cronjob/create_follow_news.php","1563","arr_source chk_exits_follow_cus  TEST TEST TESTเริ่มต้นการสร้างข้อมูล Followup ","2013-03-19 15:26:46","-","0","0"
"/www/ERP_crm/cronjob/create_follow_news.php","2284","primary_field เริ่มต้นการสร้างข้อมูล Followup ","2013-03-19 15:26:46","-","0","0"
"/www/ERP_crm/cronjob/create_follow_news.php","2312","arr_source chk_exits_follow_cus  TEST TEST TESTเริ่มต้นการสร้างข้อมูล Followup ","2013-03-19 15:26:46","-","0","0"
"/www/ERP_crm/cronjob/create_follow_news.php","2284","primary_field เริ่มต้นการสร้างข้อมูล Followup ","2013-03-19 15:26:46","-","0","0"
"/www/ERP_crm/cronjob/create_follow_news.php","2312","arr_source chk_exits_follow_cus  TEST TEST TESTเริ่มต้นการสร้างข้อมูล Followup ","2013-03-19 15:26:46","-","0","0"
"/www/ERP_crm/cronjob/create_follow_news.php","2719","สิ้นสุดการสร้างข้อมูล Followup ","-","2013-03-19 15:32:40","8109","0"
