"FILE","LINE","TITLE","START_TIME","SUCCESS_TIME","FOLLOW","AllCusLOOP"
"/www/ERP_crm/cronjob/create_follow_news.php","182","เริ่มต้นการสร้างข้อมูล Followup ","2016-03-23 00:00:02","-","0","0"
"/www/ERP_crm/cronjob/create_follow_news.php","1529","BEGIN TESTLOG ","2016-03-23 00:00:02","-","0","0"
"/www/ERP_crm/cronjob/create_follow_news.php","1561","END TESTLOG ","2016-03-23 00:00:02","-","0","0"
"/www/ERP_crm/cronjob/create_follow_news.php","1575","create_follow TRUE ","2016-03-23 00:00:02","-","0","0"
"/www/ERP_crm/cronjob/create_follow_news.php","1617","SELECT follow_main_event.id AS main_event_id, follow_main_event.pattern_id_ref, follow_main_event.follow_type,follow_main_event.follow_tracking_type, follow_main_event.follow_up_activities, follow_main_event.cal_format,follow_main_event.start_value , follow_main_event.start_unit, follow_main_event.stop_value, follow_main_event.stop_unit,follow_main_event.cal_value,follow_main_event.cal_unit, follow_main_event.remind_type,follow_main_event.field_name_specificate,follow_main_event.field_code_specificate, follow_main_event.remind_value,follow_main_event.remind_unit,follow_main_event.activity_period_type, follow_field_pattern.id AS pattern_id, follow_field_pattern.pattern_name, follow_field_pattern.field_name, follow_field_pattern.field_primary, follow_field_pattern.field_cus_name, follow_field_pattern.field_vehicle_name, follow_main_event.field_expire_date, follow_main_event.TIS_Event_Group, follow_main_event.TIS_Event_Period, follow_main_event.TIS_Event_PeriodCode, follow_main_event.send_to_tis, follow_field_pattern.`table_name`, follow_field_pattern.db_name, follow_main_event.next_event, follow_field_pattern.`status` FROM ERP_crm.follow_main_event Inner Join ERP_crm.follow_field_pattern ON ERP_crm.follow_main_event.pattern_id_ref = ERP_crm.follow_field_pattern.id WHERE follow_main_event.status NOT IN('99','10') ORDER BY `follow_main_event`.`id` DESC >> 60","2016-03-23 00:00:02","-","0","0"
"/www/ERP_crm/cronjob/create_follow_news.php","1675","BEGIN SQL MAIN 0","2016-03-23 00:00:02","-","0","0"
"/www/ERP_crm/cronjob/create_follow_news.php","1712","BEGIN SQL CHECK 1","2016-03-23 00:00:02","-","0","0"
"/www/ERP_crm/cronjob/create_follow_news.php","1736","BEGIN SQL CHECK 2","2016-03-23 00:00:02","-","0","0"
"/www/ERP_crm/cronjob/create_follow_news.php","1761","BEGIN SQL CHECK 3","2016-03-23 00:00:02","-","0","0"
"/www/ERP_crm/cronjob/create_follow_news.php","1778","BEGIN SQL CHECK 4","2016-03-23 00:00:02","-","0","0"
"/www/ERP_crm/cronjob/create_follow_news.php","1794","BEGIN SQL CHECK 5","2016-03-23 00:00:02","-","0","0"
"/www/ERP_crm/cronjob/create_follow_news.php","1838","BEGIN SQL CHECK 6 >> 1","2016-03-23 00:00:02","-","0","0"
"/www/ERP_crm/cronjob/create_follow_news.php","1878","primary_field เริ่มต้นการสร้างข้อมูล Followup ","2016-03-23 00:00:02","-","0","0"
"/www/ERP_crm/cronjob/create_follow_news.php","1902","arr_source chk_exits_follow_cus  TEST TEST TESTเริ่มต้นการสร้างข้อมูล Followup ","2016-03-23 00:00:02","-","0","0"
"/www/ERP_crm/cronjob/create_follow_news.php","1937","get_field_type","2016-03-23 00:00:02","-","0","0"
"/www/ERP_crm/cronjob/create_follow_news.php","1963","field_date_format","2016-03-23 00:00:02","-","0","0"
"/www/ERP_crm/cronjob/create_follow_news.php","1981","field_date_type","2016-03-23 00:00:02","-","0","0"
"/www/ERP_crm/cronjob/create_follow_news.php","1675","BEGIN SQL MAIN 1","2016-03-23 00:00:02","-","0","0"
"/www/ERP_crm/cronjob/create_follow_news.php","1712","BEGIN SQL CHECK 1","2016-03-23 00:00:02","-","0","0"
"/www/ERP_crm/cronjob/create_follow_news.php","1736","BEGIN SQL CHECK 2","2016-03-23 00:00:02","-","0","0"
"/www/ERP_crm/cronjob/create_follow_news.php","1761","BEGIN SQL CHECK 3","2016-03-23 00:00:02","-","0","0"
"/www/ERP_crm/cronjob/create_follow_news.php","1778","BEGIN SQL CHECK 4","2016-03-23 00:00:02","-","0","0"
"/www/ERP_crm/cronjob/create_follow_news.php","1794","BEGIN SQL CHECK 5","2016-03-23 00:00:02","-","0","0"
"/www/ERP_crm/cronjob/create_follow_news.php","1838","BEGIN SQL CHECK 6 >> 1","2016-03-23 00:00:02","-","0","0"
"/www/ERP_crm/cronjob/create_follow_news.php","1878","primary_field เริ่มต้นการสร้างข้อมูล Followup ","2016-03-23 00:00:02","-","0","0"
"/www/ERP_crm/cronjob/create_follow_news.php","1902","arr_source chk_exits_follow_cus  TEST TEST TESTเริ่มต้นการสร้างข้อมูล Followup ","2016-03-23 00:00:02","-","0","0"
"/www/ERP_crm/cronjob/create_follow_news.php","1937","get_field_type","2016-03-23 00:00:02","-","0","0"
"/www/ERP_crm/cronjob/create_follow_news.php","1963","field_date_format","2016-03-23 00:00:02","-","0","0"
"/www/ERP_crm/cronjob/create_follow_news.php","1981","field_date_type","2016-03-23 00:00:02","-","0","0"
"/www/ERP_crm/cronjob/create_follow_news.php","1675","BEGIN SQL MAIN 2","2016-03-23 00:00:02","-","0","0"
"/www/ERP_crm/cronjob/create_follow_news.php","1712","BEGIN SQL CHECK 1","2016-03-23 00:00:02","-","0","0"
"/www/ERP_crm/cronjob/create_follow_news.php","1736","BEGIN SQL CHECK 2","2016-03-23 00:00:02","-","0","0"
"/www/ERP_crm/cronjob/create_follow_news.php","1761","BEGIN SQL CHECK 3","2016-03-23 00:00:02","-","0","0"
"/www/ERP_crm/cronjob/create_follow_news.php","1778","BEGIN SQL CHECK 4","2016-03-23 00:00:02","-","0","0"
"/www/ERP_crm/cronjob/create_follow_news.php","1794","BEGIN SQL CHECK 5","2016-03-23 00:00:02","-","0","0"
"/www/ERP_crm/cronjob/create_follow_news.php","1838","BEGIN SQL CHECK 6 >> 1","2016-03-23 00:00:02","-","0","0"
"/www/ERP_crm/cronjob/create_follow_news.php","1878","primary_field เริ่มต้นการสร้างข้อมูล Followup ","2016-03-23 00:00:02","-","0","0"
"/www/ERP_crm/cronjob/create_follow_news.php","1902","arr_source chk_exits_follow_cus  TEST TEST TESTเริ่มต้นการสร้างข้อมูล Followup ","2016-03-23 00:00:02","-","0","0"
"/www/ERP_crm/cronjob/create_follow_news.php","1937","get_field_type","2016-03-23 00:00:02","-","0","0"
"/www/ERP_crm/cronjob/create_follow_news.php","1963","field_date_format","2016-03-23 00:00:02","-","0","0"
"/www/ERP_crm/cronjob/create_follow_news.php","1981","field_date_type","2016-03-23 00:00:02","-","0","0"
"/www/ERP_crm/cronjob/create_follow_news.php","1675","BEGIN SQL MAIN 3","2016-03-23 00:00:02","-","0","0"
"/www/ERP_crm/cronjob/create_follow_news.php","1712","BEGIN SQL CHECK 1","2016-03-23 00:00:02","-","0","0"
"/www/ERP_crm/cronjob/create_follow_news.php","1736","BEGIN SQL CHECK 2","2016-03-23 00:00:02","-","0","0"
"/www/ERP_crm/cronjob/create_follow_news.php","1761","BEGIN SQL CHECK 3","2016-03-23 00:00:02","-","0","0"
"/www/ERP_crm/cronjob/create_follow_news.php","1778","BEGIN SQL CHECK 4","2016-03-23 00:00:02","-","0","0"
"/www/ERP_crm/cronjob/create_follow_news.php","1794","BEGIN SQL CHECK 5","2016-03-23 00:00:02","-","0","0"
"/www/ERP_crm/cronjob/create_follow_news.php","1838","BEGIN SQL CHECK 6 >> 2","2016-03-23 00:00:02","-","0","0"
"/www/ERP_crm/cronjob/create_follow_news.php","1675","BEGIN SQL MAIN 4","2016-03-23 00:00:02","-","0","0"
"/www/ERP_crm/cronjob/create_follow_news.php","1712","BEGIN SQL CHECK 1","2016-03-23 00:00:02","-","0","0"
"/www/ERP_crm/cronjob/create_follow_news.php","1736","BEGIN SQL CHECK 2","2016-03-23 00:00:02","-","0","0"
"/www/ERP_crm/cronjob/create_follow_news.php","1761","BEGIN SQL CHECK 3","2016-03-23 00:00:02","-","0","0"
"/www/ERP_crm/cronjob/create_follow_news.php","1778","BEGIN SQL CHECK 4","2016-03-23 00:00:02","-","0","0"
"/www/ERP_crm/cronjob/create_follow_news.php","1794","BEGIN SQL CHECK 5","2016-03-23 00:00:02","-","0","0"
"/www/ERP_crm/cronjob/create_follow_news.php","1838","BEGIN SQL CHECK 6 >> 2","2016-03-23 00:00:02","-","0","0"
"/www/ERP_crm/cronjob/create_follow_news.php","1675","BEGIN SQL MAIN 5","2016-03-23 00:00:02","-","0","0"
"/www/ERP_crm/cronjob/create_follow_news.php","1712","BEGIN SQL CHECK 1","2016-03-23 00:00:02","-","0","0"
"/www/ERP_crm/cronjob/create_follow_news.php","1736","BEGIN SQL CHECK 2","2016-03-23 00:00:02","-","0","0"
"/www/ERP_crm/cronjob/create_follow_news.php","1761","BEGIN SQL CHECK 3","2016-03-23 00:00:02","-","0","0"
"/www/ERP_crm/cronjob/create_follow_news.php","1778","BEGIN SQL CHECK 4","2016-03-23 00:00:02","-","0","0"
"/www/ERP_crm/cronjob/create_follow_news.php","1794","BEGIN SQL CHECK 5","2016-03-23 00:00:02","-","0","0"
"/www/ERP_crm/cronjob/create_follow_news.php","1838","BEGIN SQL CHECK 6 >> 2","2016-03-23 00:00:02","-","0","0"
"/www/ERP_crm/cronjob/create_follow_news.php","1675","BEGIN SQL MAIN 6","2016-03-23 00:00:02","-","0","0"
"/www/ERP_crm/cronjob/create_follow_news.php","1712","BEGIN SQL CHECK 1","2016-03-23 00:00:02","-","0","0"
"/www/ERP_crm/cronjob/create_follow_news.php","1736","BEGIN SQL CHECK 2","2016-03-23 00:00:02","-","0","0"
"/www/ERP_crm/cronjob/create_follow_news.php","1761","BEGIN SQL CHECK 3","2016-03-23 00:00:02","-","0","0"
"/www/ERP_crm/cronjob/create_follow_news.php","1778","BEGIN SQL CHECK 4","2016-03-23 00:00:02","-","0","0"
"/www/ERP_crm/cronjob/create_follow_news.php","1794","BEGIN SQL CHECK 5","2016-03-23 00:00:02","-","0","0"
"/www/ERP_crm/cronjob/create_follow_news.php","1838","BEGIN SQL CHECK 6 >> 3","2016-03-23 00:00:02","-","0","0"
"/www/ERP_crm/cronjob/create_follow_news.php","2733","primary_field เริ่มต้นการสร้างข้อมูล Followup ","2016-03-23 00:00:02","-","0","0"
"/www/ERP_crm/cronjob/create_follow_news.php","2757","arr_source chk_exits_follow_cus  TEST TEST TESTเริ่มต้นการสร้างข้อมูล Followup ","2016-03-23 00:00:02","-","0","0"
"/www/ERP_crm/cronjob/create_follow_news.php","1675","BEGIN SQL MAIN 7","2016-03-23 00:00:02","-","0","0"
"/www/ERP_crm/cronjob/create_follow_news.php","1712","BEGIN SQL CHECK 1","2016-03-23 00:00:02","-","0","0"
"/www/ERP_crm/cronjob/create_follow_news.php","1736","BEGIN SQL CHECK 2","2016-03-23 00:00:02","-","0","0"
"/www/ERP_crm/cronjob/create_follow_news.php","1761","BEGIN SQL CHECK 3","2016-03-23 00:00:02","-","0","0"
"/www/ERP_crm/cronjob/create_follow_news.php","1778","BEGIN SQL CHECK 4","2016-03-23 00:00:02","-","0","0"
"/www/ERP_crm/cronjob/create_follow_news.php","1794","BEGIN SQL CHECK 5","2016-03-23 00:00:02","-","0","0"
"/www/ERP_crm/cronjob/create_follow_news.php","1838","BEGIN SQL CHECK 6 >> 2","2016-03-23 00:00:02","-","0","0"
"/www/ERP_crm/cronjob/create_follow_news.php","1675","BEGIN SQL MAIN 8","2016-03-23 00:00:02","-","0","0"
"/www/ERP_crm/cronjob/create_follow_news.php","1712","BEGIN SQL CHECK 1","2016-03-23 00:00:02","-","0","0"
"/www/ERP_crm/cronjob/create_follow_news.php","1736","BEGIN SQL CHECK 2","2016-03-23 00:00:02","-","0","0"
"/www/ERP_crm/cronjob/create_follow_news.php","1761","BEGIN SQL CHECK 3","2016-03-23 00:00:02","-","0","0"
"/www/ERP_crm/cronjob/create_follow_news.php","1778","BEGIN SQL CHECK 4","2016-03-23 00:00:02","-","0","0"
"/www/ERP_crm/cronjob/create_follow_news.php","1794","BEGIN SQL CHECK 5","2016-03-23 00:00:02","-","0","0"
"/www/ERP_crm/cronjob/create_follow_news.php","1838","BEGIN SQL CHECK 6 >> 2","2016-03-23 00:00:02","-","0","0"
"/www/ERP_crm/cronjob/create_follow_news.php","1675","BEGIN SQL MAIN 9","2016-03-23 00:00:02","-","0","0"
"/www/ERP_crm/cronjob/create_follow_news.php","1712","BEGIN SQL CHECK 1","2016-03-23 00:00:02","-","0","0"
"/www/ERP_crm/cronjob/create_follow_news.php","1736","BEGIN SQL CHECK 2","2016-03-23 00:00:02","-","0","0"
"/www/ERP_crm/cronjob/create_follow_news.php","1761","BEGIN SQL CHECK 3","2016-03-23 00:00:02","-","0","0"
"/www/ERP_crm/cronjob/create_follow_news.php","1778","BEGIN SQL CHECK 4","2016-03-23 00:00:02","-","0","0"
"/www/ERP_crm/cronjob/create_follow_news.php","1794","BEGIN SQL CHECK 5","2016-03-23 00:00:02","-","0","0"
"/www/ERP_crm/cronjob/create_follow_news.php","1838","BEGIN SQL CHECK 6 >> 2","2016-03-23 00:00:02","-","0","0"
"/www/ERP_crm/cronjob/create_follow_news.php","1675","BEGIN SQL MAIN 10","2016-03-23 00:00:02","-","0","0"
"/www/ERP_crm/cronjob/create_follow_news.php","1712","BEGIN SQL CHECK 1","2016-03-23 00:00:02","-","0","0"
"/www/ERP_crm/cronjob/create_follow_news.php","1736","BEGIN SQL CHECK 2","2016-03-23 00:00:02","-","0","0"
"/www/ERP_crm/cronjob/create_follow_news.php","1761","BEGIN SQL CHECK 3","2016-03-23 00:00:02","-","0","0"
"/www/ERP_crm/cronjob/create_follow_news.php","1778","BEGIN SQL CHECK 4","2016-03-23 00:00:02","-","0","0"
"/www/ERP_crm/cronjob/create_follow_news.php","1794","BEGIN SQL CHECK 5","2016-03-23 00:00:02","-","0","0"
"/www/ERP_crm/cronjob/create_follow_news.php","1838","BEGIN SQL CHECK 6 >> 2","2016-03-23 00:00:02","-","0","0"
"/www/ERP_crm/cronjob/create_follow_news.php","1675","BEGIN SQL MAIN 11","2016-03-23 00:00:02","-","0","0"
"/www/ERP_crm/cronjob/create_follow_news.php","1712","BEGIN SQL CHECK 1","2016-03-23 00:00:02","-","0","0"
"/www/ERP_crm/cronjob/create_follow_news.php","1736","BEGIN SQL CHECK 2","2016-03-23 00:00:02","-","0","0"
"/www/ERP_crm/cronjob/create_follow_news.php","1761","BEGIN SQL CHECK 3","2016-03-23 00:00:02","-","0","0"
"/www/ERP_crm/cronjob/create_follow_news.php","1778","BEGIN SQL CHECK 4","2016-03-23 00:00:02","-","0","0"
"/www/ERP_crm/cronjob/create_follow_news.php","1794","BEGIN SQL CHECK 5","2016-03-23 00:00:02","-","0","0"
"/www/ERP_crm/cronjob/create_follow_news.php","1838","BEGIN SQL CHECK 6 >> 2","2016-03-23 00:00:02","-","0","0"
"/www/ERP_crm/cronjob/create_follow_news.php","1675","BEGIN SQL MAIN 12","2016-03-23 00:00:02","-","0","0"
"/www/ERP_crm/cronjob/create_follow_news.php","1712","BEGIN SQL CHECK 1","2016-03-23 00:00:02","-","0","0"
"/www/ERP_crm/cronjob/create_follow_news.php","1736","BEGIN SQL CHECK 2","2016-03-23 00:00:02","-","0","0"
"/www/ERP_crm/cronjob/create_follow_news.php","1761","BEGIN SQL CHECK 3","2016-03-23 00:00:02","-","0","0"
"/www/ERP_crm/cronjob/create_follow_news.php","1778","BEGIN SQL CHECK 4","2016-03-23 00:00:02","-","0","0"
"/www/ERP_crm/cronjob/create_follow_news.php","1794","BEGIN SQL CHECK 5","2016-03-23 00:00:02","-","0","0"
"/www/ERP_crm/cronjob/create_follow_news.php","1838","BEGIN SQL CHECK 6 >> 2","2016-03-23 00:00:02","-","0","0"
"/www/ERP_crm/cronjob/create_follow_news.php","1675","BEGIN SQL MAIN 13","2016-03-23 00:00:02","-","0","0"
"/www/ERP_crm/cronjob/create_follow_news.php","1712","BEGIN SQL CHECK 1","2016-03-23 00:00:02","-","0","0"
"/www/ERP_crm/cronjob/create_follow_news.php","1736","BEGIN SQL CHECK 2","2016-03-23 00:00:02","-","0","0"
"/www/ERP_crm/cronjob/create_follow_news.php","1761","BEGIN SQL CHECK 3","2016-03-23 00:00:02","-","0","0"
"/www/ERP_crm/cronjob/create_follow_news.php","1778","BEGIN SQL CHECK 4","2016-03-23 00:00:02","-","0","0"
"/www/ERP_crm/cronjob/create_follow_news.php","1794","BEGIN SQL CHECK 5","2016-03-23 00:00:02","-","0","0"
"/www/ERP_crm/cronjob/create_follow_news.php","1838","BEGIN SQL CHECK 6 >> 2","2016-03-23 00:00:02","-","0","0"
"/www/ERP_crm/cronjob/create_follow_news.php","1675","BEGIN SQL MAIN 14","2016-03-23 00:00:02","-","0","0"
"/www/ERP_crm/cronjob/create_follow_news.php","1712","BEGIN SQL CHECK 1","2016-03-23 00:00:02","-","0","0"
"/www/ERP_crm/cronjob/create_follow_news.php","1736","BEGIN SQL CHECK 2","2016-03-23 00:00:02","-","0","0"
"/www/ERP_crm/cronjob/create_follow_news.php","1761","BEGIN SQL CHECK 3","2016-03-23 00:00:02","-","0","0"
"/www/ERP_crm/cronjob/create_follow_news.php","1778","BEGIN SQL CHECK 4","2016-03-23 00:00:02","-","0","0"
"/www/ERP_crm/cronjob/create_follow_news.php","1794","BEGIN SQL CHECK 5","2016-03-23 00:00:02","-","0","0"
"/www/ERP_crm/cronjob/create_follow_news.php","1838","BEGIN SQL CHECK 6 >> 2","2016-03-23 00:00:02","-","0","0"
"/www/ERP_crm/cronjob/create_follow_news.php","1675","BEGIN SQL MAIN 15","2016-03-23 00:00:02","-","0","0"
"/www/ERP_crm/cronjob/create_follow_news.php","1712","BEGIN SQL CHECK 1","2016-03-23 00:00:02","-","0","0"
"/www/ERP_crm/cronjob/create_follow_news.php","1736","BEGIN SQL CHECK 2","2016-03-23 00:00:02","-","0","0"
"/www/ERP_crm/cronjob/create_follow_news.php","1761","BEGIN SQL CHECK 3","2016-03-23 00:00:02","-","0","0"
"/www/ERP_crm/cronjob/create_follow_news.php","1778","BEGIN SQL CHECK 4","2016-03-23 00:00:02","-","0","0"
"/www/ERP_crm/cronjob/create_follow_news.php","1794","BEGIN SQL CHECK 5","2016-03-23 00:00:02","-","0","0"
"/www/ERP_crm/cronjob/create_follow_news.php","1838","BEGIN SQL CHECK 6 >> 2","2016-03-23 00:00:02","-","0","0"
"/www/ERP_crm/cronjob/create_follow_news.php","1675","BEGIN SQL MAIN 16","2016-03-23 00:00:02","-","0","0"
"/www/ERP_crm/cronjob/create_follow_news.php","1712","BEGIN SQL CHECK 1","2016-03-23 00:00:02","-","0","0"
"/www/ERP_crm/cronjob/create_follow_news.php","1736","BEGIN SQL CHECK 2","2016-03-23 00:00:02","-","0","0"
"/www/ERP_crm/cronjob/create_follow_news.php","1761","BEGIN SQL CHECK 3","2016-03-23 00:00:02","-","0","0"
"/www/ERP_crm/cronjob/create_follow_news.php","1778","BEGIN SQL CHECK 4","2016-03-23 00:00:02","-","0","0"
"/www/ERP_crm/cronjob/create_follow_news.php","1794","BEGIN SQL CHECK 5","2016-03-23 00:00:02","-","0","0"
"/www/ERP_crm/cronjob/create_follow_news.php","1838","BEGIN SQL CHECK 6 >> 2","2016-03-23 00:00:02","-","0","0"
"/www/ERP_crm/cronjob/create_follow_news.php","1675","BEGIN SQL MAIN 17","2016-03-23 00:00:02","-","0","0"
"/www/ERP_crm/cronjob/create_follow_news.php","1712","BEGIN SQL CHECK 1","2016-03-23 00:00:02","-","0","0"
"/www/ERP_crm/cronjob/create_follow_news.php","1736","BEGIN SQL CHECK 2","2016-03-23 00:00:02","-","0","0"
"/www/ERP_crm/cronjob/create_follow_news.php","1761","BEGIN SQL CHECK 3","2016-03-23 00:00:02","-","0","0"
"/www/ERP_crm/cronjob/create_follow_news.php","1778","BEGIN SQL CHECK 4","2016-03-23 00:00:02","-","0","0"
"/www/ERP_crm/cronjob/create_follow_news.php","1794","BEGIN SQL CHECK 5","2016-03-23 00:00:02","-","0","0"
"/www/ERP_crm/cronjob/create_follow_news.php","1838","BEGIN SQL CHECK 6 >> 2","2016-03-23 00:00:02","-","0","0"
"/www/ERP_crm/cronjob/create_follow_news.php","1675","BEGIN SQL MAIN 18","2016-03-23 00:00:02","-","0","0"
"/www/ERP_crm/cronjob/create_follow_news.php","1712","BEGIN SQL CHECK 1","2016-03-23 00:00:02","-","0","0"
"/www/ERP_crm/cronjob/create_follow_news.php","1736","BEGIN SQL CHECK 2","2016-03-23 00:00:02","-","0","0"
"/www/ERP_crm/cronjob/create_follow_news.php","1761","BEGIN SQL CHECK 3","2016-03-23 00:00:02","-","0","0"
"/www/ERP_crm/cronjob/create_follow_news.php","1778","BEGIN SQL CHECK 4","2016-03-23 00:00:02","-","0","0"
"/www/ERP_crm/cronjob/create_follow_news.php","1794","BEGIN SQL CHECK 5","2016-03-23 00:00:02","-","0","0"
"/www/ERP_crm/cronjob/create_follow_news.php","1838","BEGIN SQL CHECK 6 >> 2","2016-03-23 00:00:02","-","0","0"
"/www/ERP_crm/cronjob/create_follow_news.php","1675","BEGIN SQL MAIN 19","2016-03-23 00:00:02","-","0","0"
"/www/ERP_crm/cronjob/create_follow_news.php","1712","BEGIN SQL CHECK 1","2016-03-23 00:00:02","-","0","0"
"/www/ERP_crm/cronjob/create_follow_news.php","1736","BEGIN SQL CHECK 2","2016-03-23 00:00:02","-","0","0"
"/www/ERP_crm/cronjob/create_follow_news.php","1761","BEGIN SQL CHECK 3","2016-03-23 00:00:02","-","0","0"
"/www/ERP_crm/cronjob/create_follow_news.php","1778","BEGIN SQL CHECK 4","2016-03-23 00:00:02","-","0","0"
"/www/ERP_crm/cronjob/create_follow_news.php","1794","BEGIN SQL CHECK 5","2016-03-23 00:00:02","-","0","0"
"/www/ERP_crm/cronjob/create_follow_news.php","1838","BEGIN SQL CHECK 6 >> 2","2016-03-23 00:00:02","-","0","0"
"/www/ERP_crm/cronjob/create_follow_news.php","1675","BEGIN SQL MAIN 20","2016-03-23 00:00:02","-","0","0"
"/www/ERP_crm/cronjob/create_follow_news.php","1712","BEGIN SQL CHECK 1","2016-03-23 00:00:02","-","0","0"
"/www/ERP_crm/cronjob/create_follow_news.php","1736","BEGIN SQL CHECK 2","2016-03-23 00:00:02","-","0","0"
"/www/ERP_crm/cronjob/create_follow_news.php","1761","BEGIN SQL CHECK 3","2016-03-23 00:00:02","-","0","0"
"/www/ERP_crm/cronjob/create_follow_news.php","1778","BEGIN SQL CHECK 4","2016-03-23 00:00:02","-","0","0"
"/www/ERP_crm/cronjob/create_follow_news.php","1794","BEGIN SQL CHECK 5","2016-03-23 00:00:02","-","0","0"
"/www/ERP_crm/cronjob/create_follow_news.php","1838","BEGIN SQL CHECK 6 >> 2","2016-03-23 00:00:02","-","0","0"
"/www/ERP_crm/cronjob/create_follow_news.php","1675","BEGIN SQL MAIN 21","2016-03-23 00:00:02","-","0","0"
"/www/ERP_crm/cronjob/create_follow_news.php","1712","BEGIN SQL CHECK 1","2016-03-23 00:00:02","-","0","0"
"/www/ERP_crm/cronjob/create_follow_news.php","1736","BEGIN SQL CHECK 2","2016-03-23 00:00:02","-","0","0"
"/www/ERP_crm/cronjob/create_follow_news.php","1761","BEGIN SQL CHECK 3","2016-03-23 00:00:02","-","0","0"
"/www/ERP_crm/cronjob/create_follow_news.php","1778","BEGIN SQL CHECK 4","2016-03-23 00:00:02","-","0","0"
"/www/ERP_crm/cronjob/create_follow_news.php","1794","BEGIN SQL CHECK 5","2016-03-23 00:00:02","-","0","0"
"/www/ERP_crm/cronjob/create_follow_news.php","1838","BEGIN SQL CHECK 6 >> 2","2016-03-23 00:00:02","-","0","0"
"/www/ERP_crm/cronjob/create_follow_news.php","1675","BEGIN SQL MAIN 22","2016-03-23 00:00:02","-","0","0"
"/www/ERP_crm/cronjob/create_follow_news.php","1712","BEGIN SQL CHECK 1","2016-03-23 00:00:02","-","0","0"
"/www/ERP_crm/cronjob/create_follow_news.php","1736","BEGIN SQL CHECK 2","2016-03-23 00:00:02","-","0","0"
"/www/ERP_crm/cronjob/create_follow_news.php","1761","BEGIN SQL CHECK 3","2016-03-23 00:00:02","-","0","0"
"/www/ERP_crm/cronjob/create_follow_news.php","1778","BEGIN SQL CHECK 4","2016-03-23 00:00:02","-","0","0"
"/www/ERP_crm/cronjob/create_follow_news.php","1794","BEGIN SQL CHECK 5","2016-03-23 00:00:02","-","0","0"
"/www/ERP_crm/cronjob/create_follow_news.php","1838","BEGIN SQL CHECK 6 >> 2","2016-03-23 00:00:02","-","0","0"
"/www/ERP_crm/cronjob/create_follow_news.php","1675","BEGIN SQL MAIN 23","2016-03-23 00:00:02","-","0","0"
"/www/ERP_crm/cronjob/create_follow_news.php","1712","BEGIN SQL CHECK 1","2016-03-23 00:00:02","-","0","0"
"/www/ERP_crm/cronjob/create_follow_news.php","1736","BEGIN SQL CHECK 2","2016-03-23 00:00:02","-","0","0"
"/www/ERP_crm/cronjob/create_follow_news.php","1761","BEGIN SQL CHECK 3","2016-03-23 00:00:02","-","0","0"
"/www/ERP_crm/cronjob/create_follow_news.php","1778","BEGIN SQL CHECK 4","2016-03-23 00:00:02","-","0","0"
"/www/ERP_crm/cronjob/create_follow_news.php","1794","BEGIN SQL CHECK 5","2016-03-23 00:00:02","-","0","0"
"/www/ERP_crm/cronjob/create_follow_news.php","1838","BEGIN SQL CHECK 6 >> 2","2016-03-23 00:00:02","-","0","0"
"/www/ERP_crm/cronjob/create_follow_news.php","1675","BEGIN SQL MAIN 24","2016-03-23 00:00:02","-","0","0"
"/www/ERP_crm/cronjob/create_follow_news.php","1712","BEGIN SQL CHECK 1","2016-03-23 00:00:02","-","0","0"
"/www/ERP_crm/cronjob/create_follow_news.php","1736","BEGIN SQL CHECK 2","2016-03-23 00:00:02","-","0","0"
"/www/ERP_crm/cronjob/create_follow_news.php","1761","BEGIN SQL CHECK 3","2016-03-23 00:00:02","-","0","0"
"/www/ERP_crm/cronjob/create_follow_news.php","1778","BEGIN SQL CHECK 4","2016-03-23 00:00:02","-","0","0"
"/www/ERP_crm/cronjob/create_follow_news.php","1794","BEGIN SQL CHECK 5","2016-03-23 00:00:02","-","0","0"
"/www/ERP_crm/cronjob/create_follow_news.php","1838","BEGIN SQL CHECK 6 >> 2","2016-03-23 00:00:02","-","0","0"
"/www/ERP_crm/cronjob/create_follow_news.php","1675","BEGIN SQL MAIN 25","2016-03-23 00:00:02","-","0","0"
"/www/ERP_crm/cronjob/create_follow_news.php","1712","BEGIN SQL CHECK 1","2016-03-23 00:00:02","-","0","0"
"/www/ERP_crm/cronjob/create_follow_news.php","1736","BEGIN SQL CHECK 2","2016-03-23 00:00:02","-","0","0"
"/www/ERP_crm/cronjob/create_follow_news.php","1761","BEGIN SQL CHECK 3","2016-03-23 00:00:02","-","0","0"
"/www/ERP_crm/cronjob/create_follow_news.php","1778","BEGIN SQL CHECK 4","2016-03-23 00:00:02","-","0","0"
"/www/ERP_crm/cronjob/create_follow_news.php","1794","BEGIN SQL CHECK 5","2016-03-23 00:00:02","-","0","0"
"/www/ERP_crm/cronjob/create_follow_news.php","1838","BEGIN SQL CHECK 6 >> 2","2016-03-23 00:00:02","-","0","0"
"/www/ERP_crm/cronjob/create_follow_news.php","1675","BEGIN SQL MAIN 26","2016-03-23 00:00:02","-","0","0"
"/www/ERP_crm/cronjob/create_follow_news.php","1712","BEGIN SQL CHECK 1","2016-03-23 00:00:02","-","0","0"
"/www/ERP_crm/cronjob/create_follow_news.php","1736","BEGIN SQL CHECK 2","2016-03-23 00:00:02","-","0","0"
"/www/ERP_crm/cronjob/create_follow_news.php","1761","BEGIN SQL CHECK 3","2016-03-23 00:00:02","-","0","0"
"/www/ERP_crm/cronjob/create_follow_news.php","1778","BEGIN SQL CHECK 4","2016-03-23 00:00:02","-","0","0"
"/www/ERP_crm/cronjob/create_follow_news.php","1794","BEGIN SQL CHECK 5","2016-03-23 00:00:02","-","0","0"
"/www/ERP_crm/cronjob/create_follow_news.php","1838","BEGIN SQL CHECK 6 >> 2","2016-03-23 00:00:02","-","0","0"
"/www/ERP_crm/cronjob/create_follow_news.php","1675","BEGIN SQL MAIN 27","2016-03-23 00:00:02","-","0","0"
"/www/ERP_crm/cronjob/create_follow_news.php","1712","BEGIN SQL CHECK 1","2016-03-23 00:00:02","-","0","0"
"/www/ERP_crm/cronjob/create_follow_news.php","1736","BEGIN SQL CHECK 2","2016-03-23 00:00:02","-","0","0"
"/www/ERP_crm/cronjob/create_follow_news.php","1761","BEGIN SQL CHECK 3","2016-03-23 00:00:02","-","0","0"
"/www/ERP_crm/cronjob/create_follow_news.php","1778","BEGIN SQL CHECK 4","2016-03-23 00:00:02","-","0","0"
"/www/ERP_crm/cronjob/create_follow_news.php","1794","BEGIN SQL CHECK 5","2016-03-23 00:00:02","-","0","0"
"/www/ERP_crm/cronjob/create_follow_news.php","1838","BEGIN SQL CHECK 6 >> 2","2016-03-23 00:00:02","-","0","0"
"/www/ERP_crm/cronjob/create_follow_news.php","1675","BEGIN SQL MAIN 28","2016-03-23 00:00:02","-","0","0"
"/www/ERP_crm/cronjob/create_follow_news.php","1712","BEGIN SQL CHECK 1","2016-03-23 00:00:02","-","0","0"
"/www/ERP_crm/cronjob/create_follow_news.php","1736","BEGIN SQL CHECK 2","2016-03-23 00:00:02","-","0","0"
"/www/ERP_crm/cronjob/create_follow_news.php","1761","BEGIN SQL CHECK 3","2016-03-23 00:00:02","-","0","0"
"/www/ERP_crm/cronjob/create_follow_news.php","1778","BEGIN SQL CHECK 4","2016-03-23 00:00:02","-","0","0"
"/www/ERP_crm/cronjob/create_follow_news.php","1794","BEGIN SQL CHECK 5","2016-03-23 00:00:02","-","0","0"
"/www/ERP_crm/cronjob/create_follow_news.php","1838","BEGIN SQL CHECK 6 >> 2","2016-03-23 00:00:02","-","0","0"
"/www/ERP_crm/cronjob/create_follow_news.php","1675","BEGIN SQL MAIN 29","2016-03-23 00:00:02","-","0","0"
"/www/ERP_crm/cronjob/create_follow_news.php","1712","BEGIN SQL CHECK 1","2016-03-23 00:00:02","-","0","0"
"/www/ERP_crm/cronjob/create_follow_news.php","1736","BEGIN SQL CHECK 2","2016-03-23 00:00:02","-","0","0"
"/www/ERP_crm/cronjob/create_follow_news.php","1761","BEGIN SQL CHECK 3","2016-03-23 00:00:02","-","0","0"
"/www/ERP_crm/cronjob/create_follow_news.php","1778","BEGIN SQL CHECK 4","2016-03-23 00:00:02","-","0","0"
"/www/ERP_crm/cronjob/create_follow_news.php","1794","BEGIN SQL CHECK 5","2016-03-23 00:00:02","-","0","0"
"/www/ERP_crm/cronjob/create_follow_news.php","1838","BEGIN SQL CHECK 6 >> 2","2016-03-23 00:00:02","-","0","0"
"/www/ERP_crm/cronjob/create_follow_news.php","1675","BEGIN SQL MAIN 30","2016-03-23 00:00:02","-","0","0"
"/www/ERP_crm/cronjob/create_follow_news.php","1712","BEGIN SQL CHECK 1","2016-03-23 00:00:02","-","0","0"
"/www/ERP_crm/cronjob/create_follow_news.php","1736","BEGIN SQL CHECK 2","2016-03-23 00:00:02","-","0","0"
"/www/ERP_crm/cronjob/create_follow_news.php","1761","BEGIN SQL CHECK 3","2016-03-23 00:00:02","-","0","0"
"/www/ERP_crm/cronjob/create_follow_news.php","1778","BEGIN SQL CHECK 4","2016-03-23 00:00:02","-","0","0"
"/www/ERP_crm/cronjob/create_follow_news.php","1794","BEGIN SQL CHECK 5","2016-03-23 00:00:02","-","0","0"
"/www/ERP_crm/cronjob/create_follow_news.php","1838","BEGIN SQL CHECK 6 >> 2","2016-03-23 00:00:02","-","0","0"
"/www/ERP_crm/cronjob/create_follow_news.php","1675","BEGIN SQL MAIN 31","2016-03-23 00:00:02","-","0","0"
"/www/ERP_crm/cronjob/create_follow_news.php","1712","BEGIN SQL CHECK 1","2016-03-23 00:00:02","-","0","0"
"/www/ERP_crm/cronjob/create_follow_news.php","1736","BEGIN SQL CHECK 2","2016-03-23 00:00:02","-","0","0"
"/www/ERP_crm/cronjob/create_follow_news.php","1761","BEGIN SQL CHECK 3","2016-03-23 00:00:02","-","0","0"
"/www/ERP_crm/cronjob/create_follow_news.php","1778","BEGIN SQL CHECK 4","2016-03-23 00:00:02","-","0","0"
"/www/ERP_crm/cronjob/create_follow_news.php","1794","BEGIN SQL CHECK 5","2016-03-23 00:00:02","-","0","0"
"/www/ERP_crm/cronjob/create_follow_news.php","1838","BEGIN SQL CHECK 6 >> 2","2016-03-23 00:00:02","-","0","0"
"/www/ERP_crm/cronjob/create_follow_news.php","1675","BEGIN SQL MAIN 32","2016-03-23 00:00:02","-","0","0"
"/www/ERP_crm/cronjob/create_follow_news.php","1712","BEGIN SQL CHECK 1","2016-03-23 00:00:02","-","0","0"
"/www/ERP_crm/cronjob/create_follow_news.php","1736","BEGIN SQL CHECK 2","2016-03-23 00:00:02","-","0","0"
"/www/ERP_crm/cronjob/create_follow_news.php","1761","BEGIN SQL CHECK 3","2016-03-23 00:00:02","-","0","0"
"/www/ERP_crm/cronjob/create_follow_news.php","1778","BEGIN SQL CHECK 4","2016-03-23 00:00:02","-","0","0"
"/www/ERP_crm/cronjob/create_follow_news.php","1794","BEGIN SQL CHECK 5","2016-03-23 00:00:02","-","0","0"
"/www/ERP_crm/cronjob/create_follow_news.php","1838","BEGIN SQL CHECK 6 >> 2","2016-03-23 00:00:02","-","0","0"
"/www/ERP_crm/cronjob/create_follow_news.php","1675","BEGIN SQL MAIN 33","2016-03-23 00:00:02","-","0","0"
"/www/ERP_crm/cronjob/create_follow_news.php","1712","BEGIN SQL CHECK 1","2016-03-23 00:00:02","-","0","0"
"/www/ERP_crm/cronjob/create_follow_news.php","1736","BEGIN SQL CHECK 2","2016-03-23 00:00:02","-","0","0"
"/www/ERP_crm/cronjob/create_follow_news.php","1761","BEGIN SQL CHECK 3","2016-03-23 00:00:02","-","0","0"
"/www/ERP_crm/cronjob/create_follow_news.php","1778","BEGIN SQL CHECK 4","2016-03-23 00:00:02","-","0","0"
"/www/ERP_crm/cronjob/create_follow_news.php","1794","BEGIN SQL CHECK 5","2016-03-23 00:00:02","-","0","0"
"/www/ERP_crm/cronjob/create_follow_news.php","1838","BEGIN SQL CHECK 6 >> 2","2016-03-23 00:00:02","-","0","0"
"/www/ERP_crm/cronjob/create_follow_news.php","1675","BEGIN SQL MAIN 34","2016-03-23 00:00:02","-","0","0"
"/www/ERP_crm/cronjob/create_follow_news.php","1712","BEGIN SQL CHECK 1","2016-03-23 00:00:02","-","0","0"
"/www/ERP_crm/cronjob/create_follow_news.php","1736","BEGIN SQL CHECK 2","2016-03-23 00:00:02","-","0","0"
"/www/ERP_crm/cronjob/create_follow_news.php","1761","BEGIN SQL CHECK 3","2016-03-23 00:00:02","-","0","0"
"/www/ERP_crm/cronjob/create_follow_news.php","1778","BEGIN SQL CHECK 4","2016-03-23 00:00:02","-","0","0"
"/www/ERP_crm/cronjob/create_follow_news.php","1794","BEGIN SQL CHECK 5","2016-03-23 00:00:02","-","0","0"
"/www/ERP_crm/cronjob/create_follow_news.php","1838","BEGIN SQL CHECK 6 >> 2","2016-03-23 00:00:02","-","0","0"
"/www/ERP_crm/cronjob/create_follow_news.php","1675","BEGIN SQL MAIN 35","2016-03-23 00:00:02","-","0","0"
"/www/ERP_crm/cronjob/create_follow_news.php","1712","BEGIN SQL CHECK 1","2016-03-23 00:00:02","-","0","0"
"/www/ERP_crm/cronjob/create_follow_news.php","1736","BEGIN SQL CHECK 2","2016-03-23 00:00:02","-","0","0"
"/www/ERP_crm/cronjob/create_follow_news.php","1761","BEGIN SQL CHECK 3","2016-03-23 00:00:02","-","0","0"
"/www/ERP_crm/cronjob/create_follow_news.php","1778","BEGIN SQL CHECK 4","2016-03-23 00:00:02","-","0","0"
"/www/ERP_crm/cronjob/create_follow_news.php","1794","BEGIN SQL CHECK 5","2016-03-23 00:00:02","-","0","0"
"/www/ERP_crm/cronjob/create_follow_news.php","1838","BEGIN SQL CHECK 6 >> 2","2016-03-23 00:00:02","-","0","0"
"/www/ERP_crm/cronjob/create_follow_news.php","1675","BEGIN SQL MAIN 36","2016-03-23 00:00:02","-","0","0"
"/www/ERP_crm/cronjob/create_follow_news.php","1712","BEGIN SQL CHECK 1","2016-03-23 00:00:02","-","0","0"
"/www/ERP_crm/cronjob/create_follow_news.php","1736","BEGIN SQL CHECK 2","2016-03-23 00:00:02","-","0","0"
"/www/ERP_crm/cronjob/create_follow_news.php","1761","BEGIN SQL CHECK 3","2016-03-23 00:00:02","-","0","0"
"/www/ERP_crm/cronjob/create_follow_news.php","1778","BEGIN SQL CHECK 4","2016-03-23 00:00:02","-","0","0"
"/www/ERP_crm/cronjob/create_follow_news.php","1794","BEGIN SQL CHECK 5","2016-03-23 00:00:02","-","0","0"
"/www/ERP_crm/cronjob/create_follow_news.php","1838","BEGIN SQL CHECK 6 >> 2","2016-03-23 00:00:02","-","0","0"
"/www/ERP_crm/cronjob/create_follow_news.php","1675","BEGIN SQL MAIN 37","2016-03-23 00:00:02","-","0","0"
"/www/ERP_crm/cronjob/create_follow_news.php","1712","BEGIN SQL CHECK 1","2016-03-23 00:00:02","-","0","0"
"/www/ERP_crm/cronjob/create_follow_news.php","1736","BEGIN SQL CHECK 2","2016-03-23 00:00:02","-","0","0"
"/www/ERP_crm/cronjob/create_follow_news.php","1761","BEGIN SQL CHECK 3","2016-03-23 00:00:02","-","0","0"
"/www/ERP_crm/cronjob/create_follow_news.php","1778","BEGIN SQL CHECK 4","2016-03-23 00:00:02","-","0","0"
"/www/ERP_crm/cronjob/create_follow_news.php","1794","BEGIN SQL CHECK 5","2016-03-23 00:00:02","-","0","0"
"/www/ERP_crm/cronjob/create_follow_news.php","1838","BEGIN SQL CHECK 6 >> 2","2016-03-23 00:00:02","-","0","0"
"/www/ERP_crm/cronjob/create_follow_news.php","1675","BEGIN SQL MAIN 38","2016-03-23 00:00:02","-","0","0"
"/www/ERP_crm/cronjob/create_follow_news.php","1712","BEGIN SQL CHECK 1","2016-03-23 00:00:02","-","0","0"
"/www/ERP_crm/cronjob/create_follow_news.php","1736","BEGIN SQL CHECK 2","2016-03-23 00:00:02","-","0","0"
"/www/ERP_crm/cronjob/create_follow_news.php","1761","BEGIN SQL CHECK 3","2016-03-23 00:00:02","-","0","0"
"/www/ERP_crm/cronjob/create_follow_news.php","1778","BEGIN SQL CHECK 4","2016-03-23 00:00:02","-","0","0"
"/www/ERP_crm/cronjob/create_follow_news.php","1794","BEGIN SQL CHECK 5","2016-03-23 00:00:02","-","0","0"
"/www/ERP_crm/cronjob/create_follow_news.php","1838","BEGIN SQL CHECK 6 >> 2","2016-03-23 00:00:02","-","0","0"
"/www/ERP_crm/cronjob/create_follow_news.php","1675","BEGIN SQL MAIN 39","2016-03-23 00:00:02","-","0","0"
"/www/ERP_crm/cronjob/create_follow_news.php","1712","BEGIN SQL CHECK 1","2016-03-23 00:00:02","-","0","0"
"/www/ERP_crm/cronjob/create_follow_news.php","1736","BEGIN SQL CHECK 2","2016-03-23 00:00:02","-","0","0"
"/www/ERP_crm/cronjob/create_follow_news.php","1761","BEGIN SQL CHECK 3","2016-03-23 00:00:02","-","0","0"
"/www/ERP_crm/cronjob/create_follow_news.php","1778","BEGIN SQL CHECK 4","2016-03-23 00:00:02","-","0","0"
"/www/ERP_crm/cronjob/create_follow_news.php","1794","BEGIN SQL CHECK 5","2016-03-23 00:00:02","-","0","0"
"/www/ERP_crm/cronjob/create_follow_news.php","1838","BEGIN SQL CHECK 6 >> 2","2016-03-23 00:00:02","-","0","0"
"/www/ERP_crm/cronjob/create_follow_news.php","1675","BEGIN SQL MAIN 40","2016-03-23 00:00:02","-","0","0"
"/www/ERP_crm/cronjob/create_follow_news.php","1712","BEGIN SQL CHECK 1","2016-03-23 00:00:02","-","0","0"
"/www/ERP_crm/cronjob/create_follow_news.php","1736","BEGIN SQL CHECK 2","2016-03-23 00:00:02","-","0","0"
"/www/ERP_crm/cronjob/create_follow_news.php","1761","BEGIN SQL CHECK 3","2016-03-23 00:00:02","-","0","0"
"/www/ERP_crm/cronjob/create_follow_news.php","1778","BEGIN SQL CHECK 4","2016-03-23 00:00:02","-","0","0"
"/www/ERP_crm/cronjob/create_follow_news.php","1794","BEGIN SQL CHECK 5","2016-03-23 00:00:02","-","0","0"
"/www/ERP_crm/cronjob/create_follow_news.php","1838","BEGIN SQL CHECK 6 >> 2","2016-03-23 00:00:02","-","0","0"
"/www/ERP_crm/cronjob/create_follow_news.php","1675","BEGIN SQL MAIN 41","2016-03-23 00:00:02","-","0","0"
"/www/ERP_crm/cronjob/create_follow_news.php","1712","BEGIN SQL CHECK 1","2016-03-23 00:00:02","-","0","0"
"/www/ERP_crm/cronjob/create_follow_news.php","1736","BEGIN SQL CHECK 2","2016-03-23 00:00:02","-","0","0"
"/www/ERP_crm/cronjob/create_follow_news.php","1761","BEGIN SQL CHECK 3","2016-03-23 00:00:02","-","0","0"
"/www/ERP_crm/cronjob/create_follow_news.php","1778","BEGIN SQL CHECK 4","2016-03-23 00:00:02","-","0","0"
"/www/ERP_crm/cronjob/create_follow_news.php","1794","BEGIN SQL CHECK 5","2016-03-23 00:00:02","-","0","0"
"/www/ERP_crm/cronjob/create_follow_news.php","1838","BEGIN SQL CHECK 6 >> 2","2016-03-23 00:00:02","-","0","0"
"/www/ERP_crm/cronjob/create_follow_news.php","1675","BEGIN SQL MAIN 42","2016-03-23 00:00:02","-","0","0"
"/www/ERP_crm/cronjob/create_follow_news.php","1712","BEGIN SQL CHECK 1","2016-03-23 00:00:02","-","0","0"
"/www/ERP_crm/cronjob/create_follow_news.php","1736","BEGIN SQL CHECK 2","2016-03-23 00:00:02","-","0","0"
"/www/ERP_crm/cronjob/create_follow_news.php","1761","BEGIN SQL CHECK 3","2016-03-23 00:00:02","-","0","0"
"/www/ERP_crm/cronjob/create_follow_news.php","1778","BEGIN SQL CHECK 4","2016-03-23 00:00:02","-","0","0"
"/www/ERP_crm/cronjob/create_follow_news.php","1794","BEGIN SQL CHECK 5","2016-03-23 00:00:02","-","0","0"
"/www/ERP_crm/cronjob/create_follow_news.php","1838","BEGIN SQL CHECK 6 >> 2","2016-03-23 00:00:02","-","0","0"
"/www/ERP_crm/cronjob/create_follow_news.php","1675","BEGIN SQL MAIN 43","2016-03-23 00:00:02","-","0","0"
"/www/ERP_crm/cronjob/create_follow_news.php","1712","BEGIN SQL CHECK 1","2016-03-23 00:00:02","-","0","0"
"/www/ERP_crm/cronjob/create_follow_news.php","1736","BEGIN SQL CHECK 2","2016-03-23 00:00:02","-","0","0"
"/www/ERP_crm/cronjob/create_follow_news.php","1761","BEGIN SQL CHECK 3","2016-03-23 00:00:02","-","0","0"
"/www/ERP_crm/cronjob/create_follow_news.php","1778","BEGIN SQL CHECK 4","2016-03-23 00:00:02","-","0","0"
"/www/ERP_crm/cronjob/create_follow_news.php","1794","BEGIN SQL CHECK 5","2016-03-23 00:00:02","-","0","0"
"/www/ERP_crm/cronjob/create_follow_news.php","1838","BEGIN SQL CHECK 6 >> 2","2016-03-23 00:00:02","-","0","0"
"/www/ERP_crm/cronjob/create_follow_news.php","1675","BEGIN SQL MAIN 44","2016-03-23 00:00:02","-","0","0"
"/www/ERP_crm/cronjob/create_follow_news.php","1712","BEGIN SQL CHECK 1","2016-03-23 00:00:02","-","0","0"
"/www/ERP_crm/cronjob/create_follow_news.php","1736","BEGIN SQL CHECK 2","2016-03-23 00:00:02","-","0","0"
"/www/ERP_crm/cronjob/create_follow_news.php","1761","BEGIN SQL CHECK 3","2016-03-23 00:00:02","-","0","0"
"/www/ERP_crm/cronjob/create_follow_news.php","1778","BEGIN SQL CHECK 4","2016-03-23 00:00:02","-","0","0"
"/www/ERP_crm/cronjob/create_follow_news.php","1794","BEGIN SQL CHECK 5","2016-03-23 00:00:02","-","0","0"
"/www/ERP_crm/cronjob/create_follow_news.php","1838","BEGIN SQL CHECK 6 >> 2","2016-03-23 00:00:02","-","0","0"
"/www/ERP_crm/cronjob/create_follow_news.php","1675","BEGIN SQL MAIN 45","2016-03-23 00:00:02","-","0","0"
"/www/ERP_crm/cronjob/create_follow_news.php","1712","BEGIN SQL CHECK 1","2016-03-23 00:00:02","-","0","0"
"/www/ERP_crm/cronjob/create_follow_news.php","1736","BEGIN SQL CHECK 2","2016-03-23 00:00:02","-","0","0"
"/www/ERP_crm/cronjob/create_follow_news.php","1761","BEGIN SQL CHECK 3","2016-03-23 00:00:02","-","0","0"
"/www/ERP_crm/cronjob/create_follow_news.php","1778","BEGIN SQL CHECK 4","2016-03-23 00:00:02","-","0","0"
"/www/ERP_crm/cronjob/create_follow_news.php","1794","BEGIN SQL CHECK 5","2016-03-23 00:00:02","-","0","0"
"/www/ERP_crm/cronjob/create_follow_news.php","1838","BEGIN SQL CHECK 6 >> 2","2016-03-23 00:00:02","-","0","0"
"/www/ERP_crm/cronjob/create_follow_news.php","1675","BEGIN SQL MAIN 46","2016-03-23 00:00:02","-","0","0"
"/www/ERP_crm/cronjob/create_follow_news.php","1712","BEGIN SQL CHECK 1","2016-03-23 00:00:02","-","0","0"
"/www/ERP_crm/cronjob/create_follow_news.php","1736","BEGIN SQL CHECK 2","2016-03-23 00:00:02","-","0","0"
"/www/ERP_crm/cronjob/create_follow_news.php","1761","BEGIN SQL CHECK 3","2016-03-23 00:00:02","-","0","0"
"/www/ERP_crm/cronjob/create_follow_news.php","1778","BEGIN SQL CHECK 4","2016-03-23 00:00:02","-","0","0"
"/www/ERP_crm/cronjob/create_follow_news.php","1794","BEGIN SQL CHECK 5","2016-03-23 00:00:02","-","0","0"
"/www/ERP_crm/cronjob/create_follow_news.php","1838","BEGIN SQL CHECK 6 >> 2","2016-03-23 00:00:02","-","0","0"
"/www/ERP_crm/cronjob/create_follow_news.php","1675","BEGIN SQL MAIN 47","2016-03-23 00:00:02","-","0","0"
"/www/ERP_crm/cronjob/create_follow_news.php","1712","BEGIN SQL CHECK 1","2016-03-23 00:00:02","-","0","0"
"/www/ERP_crm/cronjob/create_follow_news.php","1736","BEGIN SQL CHECK 2","2016-03-23 00:00:02","-","0","0"
"/www/ERP_crm/cronjob/create_follow_news.php","1761","BEGIN SQL CHECK 3","2016-03-23 00:00:02","-","0","0"
"/www/ERP_crm/cronjob/create_follow_news.php","1778","BEGIN SQL CHECK 4","2016-03-23 00:00:02","-","0","0"
"/www/ERP_crm/cronjob/create_follow_news.php","1794","BEGIN SQL CHECK 5","2016-03-23 00:00:02","-","0","0"
"/www/ERP_crm/cronjob/create_follow_news.php","1838","BEGIN SQL CHECK 6 >> 2","2016-03-23 00:00:02","-","0","0"
"/www/ERP_crm/cronjob/create_follow_news.php","1675","BEGIN SQL MAIN 48","2016-03-23 00:00:02","-","0","0"
"/www/ERP_crm/cronjob/create_follow_news.php","1712","BEGIN SQL CHECK 1","2016-03-23 00:00:02","-","0","0"
"/www/ERP_crm/cronjob/create_follow_news.php","1736","BEGIN SQL CHECK 2","2016-03-23 00:00:02","-","0","0"
"/www/ERP_crm/cronjob/create_follow_news.php","1761","BEGIN SQL CHECK 3","2016-03-23 00:00:02","-","0","0"
"/www/ERP_crm/cronjob/create_follow_news.php","1778","BEGIN SQL CHECK 4","2016-03-23 00:00:02","-","0","0"
"/www/ERP_crm/cronjob/create_follow_news.php","1794","BEGIN SQL CHECK 5","2016-03-23 00:00:02","-","0","0"
"/www/ERP_crm/cronjob/create_follow_news.php","1838","BEGIN SQL CHECK 6 >> 2","2016-03-23 00:00:02","-","0","0"
"/www/ERP_crm/cronjob/create_follow_news.php","1675","BEGIN SQL MAIN 49","2016-03-23 00:00:02","-","0","0"
"/www/ERP_crm/cronjob/create_follow_news.php","1712","BEGIN SQL CHECK 1","2016-03-23 00:00:02","-","0","0"
"/www/ERP_crm/cronjob/create_follow_news.php","1736","BEGIN SQL CHECK 2","2016-03-23 00:00:02","-","0","0"
"/www/ERP_crm/cronjob/create_follow_news.php","1761","BEGIN SQL CHECK 3","2016-03-23 00:00:02","-","0","0"
"/www/ERP_crm/cronjob/create_follow_news.php","1778","BEGIN SQL CHECK 4","2016-03-23 00:00:02","-","0","0"
"/www/ERP_crm/cronjob/create_follow_news.php","1794","BEGIN SQL CHECK 5","2016-03-23 00:00:02","-","0","0"
"/www/ERP_crm/cronjob/create_follow_news.php","1838","BEGIN SQL CHECK 6 >> 2","2016-03-23 00:00:02","-","0","0"
"/www/ERP_crm/cronjob/create_follow_news.php","1675","BEGIN SQL MAIN 50","2016-03-23 00:00:02","-","0","0"
"/www/ERP_crm/cronjob/create_follow_news.php","1712","BEGIN SQL CHECK 1","2016-03-23 00:00:02","-","0","0"
"/www/ERP_crm/cronjob/create_follow_news.php","1736","BEGIN SQL CHECK 2","2016-03-23 00:00:02","-","0","0"
"/www/ERP_crm/cronjob/create_follow_news.php","1761","BEGIN SQL CHECK 3","2016-03-23 00:00:02","-","0","0"
"/www/ERP_crm/cronjob/create_follow_news.php","1778","BEGIN SQL CHECK 4","2016-03-23 00:00:02","-","0","0"
"/www/ERP_crm/cronjob/create_follow_news.php","1794","BEGIN SQL CHECK 5","2016-03-23 00:00:02","-","0","0"
"/www/ERP_crm/cronjob/create_follow_news.php","1838","BEGIN SQL CHECK 6 >> 1","2016-03-23 00:00:02","-","0","0"
"/www/ERP_crm/cronjob/create_follow_news.php","1878","primary_field เริ่มต้นการสร้างข้อมูล Followup ","2016-03-23 00:00:02","-","0","0"
"/www/ERP_crm/cronjob/create_follow_news.php","1902","arr_source chk_exits_follow_cus  TEST TEST TESTเริ่มต้นการสร้างข้อมูล Followup ","2016-03-23 00:00:02","-","0","0"
"/www/ERP_crm/cronjob/create_follow_news.php","1937","get_field_type","2016-03-23 00:00:02","-","0","0"
"/www/ERP_crm/cronjob/create_follow_news.php","1963","field_date_format","2016-03-23 00:00:02","-","0","0"
"/www/ERP_crm/cronjob/create_follow_news.php","1981","field_date_type","2016-03-23 00:00:02","-","0","0"
"/www/ERP_crm/cronjob/create_follow_news.php","1675","BEGIN SQL MAIN 51","2016-03-23 00:00:02","-","0","0"
"/www/ERP_crm/cronjob/create_follow_news.php","1712","BEGIN SQL CHECK 1","2016-03-23 00:00:02","-","0","0"
"/www/ERP_crm/cronjob/create_follow_news.php","1736","BEGIN SQL CHECK 2","2016-03-23 00:00:02","-","0","0"
"/www/ERP_crm/cronjob/create_follow_news.php","1761","BEGIN SQL CHECK 3","2016-03-23 00:00:02","-","0","0"
"/www/ERP_crm/cronjob/create_follow_news.php","1778","BEGIN SQL CHECK 4","2016-03-23 00:00:02","-","0","0"
"/www/ERP_crm/cronjob/create_follow_news.php","1794","BEGIN SQL CHECK 5","2016-03-23 00:00:02","-","0","0"
"/www/ERP_crm/cronjob/create_follow_news.php","1838","BEGIN SQL CHECK 6 >> 1","2016-03-23 00:00:02","-","0","0"
"/www/ERP_crm/cronjob/create_follow_news.php","1878","primary_field เริ่มต้นการสร้างข้อมูล Followup ","2016-03-23 00:00:02","-","0","0"
"/www/ERP_crm/cronjob/create_follow_news.php","1902","arr_source chk_exits_follow_cus  TEST TEST TESTเริ่มต้นการสร้างข้อมูล Followup ","2016-03-23 00:00:02","-","0","0"
"/www/ERP_crm/cronjob/create_follow_news.php","1937","get_field_type","2016-03-23 00:00:02","-","0","0"
"/www/ERP_crm/cronjob/create_follow_news.php","1963","field_date_format","2016-03-23 00:00:02","-","0","0"
"/www/ERP_crm/cronjob/create_follow_news.php","1981","field_date_type","2016-03-23 00:00:02","-","0","0"
"/www/ERP_crm/cronjob/create_follow_news.php","1675","BEGIN SQL MAIN 52","2016-03-23 00:00:02","-","0","0"
"/www/ERP_crm/cronjob/create_follow_news.php","1712","BEGIN SQL CHECK 1","2016-03-23 00:00:02","-","0","0"
"/www/ERP_crm/cronjob/create_follow_news.php","1736","BEGIN SQL CHECK 2","2016-03-23 00:00:02","-","0","0"
"/www/ERP_crm/cronjob/create_follow_news.php","1761","BEGIN SQL CHECK 3","2016-03-23 00:00:02","-","0","0"
"/www/ERP_crm/cronjob/create_follow_news.php","1778","BEGIN SQL CHECK 4","2016-03-23 00:00:02","-","0","0"
"/www/ERP_crm/cronjob/create_follow_news.php","1794","BEGIN SQL CHECK 5","2016-03-23 00:00:02","-","0","0"
"/www/ERP_crm/cronjob/create_follow_news.php","1838","BEGIN SQL CHECK 6 >> 1","2016-03-23 00:00:02","-","0","0"
"/www/ERP_crm/cronjob/create_follow_news.php","1878","primary_field เริ่มต้นการสร้างข้อมูล Followup ","2016-03-23 00:00:02","-","0","0"
"/www/ERP_crm/cronjob/create_follow_news.php","1902","arr_source chk_exits_follow_cus  TEST TEST TESTเริ่มต้นการสร้างข้อมูล Followup ","2016-03-23 00:00:02","-","0","0"
"/www/ERP_crm/cronjob/create_follow_news.php","1937","get_field_type","2016-03-23 00:00:02","-","0","0"
"/www/ERP_crm/cronjob/create_follow_news.php","1963","field_date_format","2016-03-23 00:00:02","-","0","0"
"/www/ERP_crm/cronjob/create_follow_news.php","1981","field_date_type","2016-03-23 00:00:02","-","0","0"
"/www/ERP_crm/cronjob/create_follow_news.php","1675","BEGIN SQL MAIN 53","2016-03-23 00:00:02","-","0","0"
"/www/ERP_crm/cronjob/create_follow_news.php","1712","BEGIN SQL CHECK 1","2016-03-23 00:00:02","-","0","0"
"/www/ERP_crm/cronjob/create_follow_news.php","1736","BEGIN SQL CHECK 2","2016-03-23 00:00:02","-","0","0"
"/www/ERP_crm/cronjob/create_follow_news.php","1761","BEGIN SQL CHECK 3","2016-03-23 00:00:02","-","0","0"
"/www/ERP_crm/cronjob/create_follow_news.php","1778","BEGIN SQL CHECK 4","2016-03-23 00:00:02","-","0","0"
"/www/ERP_crm/cronjob/create_follow_news.php","1794","BEGIN SQL CHECK 5","2016-03-23 00:00:02","-","0","0"
"/www/ERP_crm/cronjob/create_follow_news.php","1838","BEGIN SQL CHECK 6 >> 1","2016-03-23 00:00:02","-","0","0"
"/www/ERP_crm/cronjob/create_follow_news.php","1878","primary_field เริ่มต้นการสร้างข้อมูล Followup ","2016-03-23 00:00:02","-","0","0"
"/www/ERP_crm/cronjob/create_follow_news.php","1902","arr_source chk_exits_follow_cus  TEST TEST TESTเริ่มต้นการสร้างข้อมูล Followup ","2016-03-23 00:00:02","-","0","0"
"/www/ERP_crm/cronjob/create_follow_news.php","1937","get_field_type","2016-03-23 00:00:02","-","0","0"
"/www/ERP_crm/cronjob/create_follow_news.php","1963","field_date_format","2016-03-23 00:00:02","-","0","0"
"/www/ERP_crm/cronjob/create_follow_news.php","1981","field_date_type","2016-03-23 00:00:02","-","0","0"
"/www/ERP_crm/cronjob/create_follow_news.php","1675","BEGIN SQL MAIN 54","2016-03-23 00:00:02","-","0","0"
"/www/ERP_crm/cronjob/create_follow_news.php","1712","BEGIN SQL CHECK 1","2016-03-23 00:00:02","-","0","0"
"/www/ERP_crm/cronjob/create_follow_news.php","1736","BEGIN SQL CHECK 2","2016-03-23 00:00:02","-","0","0"
"/www/ERP_crm/cronjob/create_follow_news.php","1761","BEGIN SQL CHECK 3","2016-03-23 00:00:02","-","0","0"
"/www/ERP_crm/cronjob/create_follow_news.php","1778","BEGIN SQL CHECK 4","2016-03-23 00:00:02","-","0","0"
"/www/ERP_crm/cronjob/create_follow_news.php","1794","BEGIN SQL CHECK 5","2016-03-23 00:00:02","-","0","0"
"/www/ERP_crm/cronjob/create_follow_news.php","1838","BEGIN SQL CHECK 6 >> 1","2016-03-23 00:00:02","-","0","0"
"/www/ERP_crm/cronjob/create_follow_news.php","1878","primary_field เริ่มต้นการสร้างข้อมูล Followup ","2016-03-23 00:00:02","-","0","0"
"/www/ERP_crm/cronjob/create_follow_news.php","1902","arr_source chk_exits_follow_cus  TEST TEST TESTเริ่มต้นการสร้างข้อมูล Followup ","2016-03-23 00:00:02","-","0","0"
"/www/ERP_crm/cronjob/create_follow_news.php","1937","get_field_type","2016-03-23 00:00:02","-","0","0"
"/www/ERP_crm/cronjob/create_follow_news.php","1963","field_date_format","2016-03-23 00:00:02","-","0","0"
"/www/ERP_crm/cronjob/create_follow_news.php","1981","field_date_type","2016-03-23 00:00:02","-","0","0"
"/www/ERP_crm/cronjob/create_follow_news.php","1675","BEGIN SQL MAIN 55","2016-03-23 00:00:02","-","0","0"
"/www/ERP_crm/cronjob/create_follow_news.php","1712","BEGIN SQL CHECK 1","2016-03-23 00:00:02","-","0","0"
"/www/ERP_crm/cronjob/create_follow_news.php","1736","BEGIN SQL CHECK 2","2016-03-23 00:00:02","-","0","0"
"/www/ERP_crm/cronjob/create_follow_news.php","1761","BEGIN SQL CHECK 3","2016-03-23 00:00:02","-","0","0"
"/www/ERP_crm/cronjob/create_follow_news.php","1778","BEGIN SQL CHECK 4","2016-03-23 00:00:02","-","0","0"
"/www/ERP_crm/cronjob/create_follow_news.php","1794","BEGIN SQL CHECK 5","2016-03-23 00:00:02","-","0","0"
"/www/ERP_crm/cronjob/create_follow_news.php","1838","BEGIN SQL CHECK 6 >> 1","2016-03-23 00:00:02","-","0","0"
"/www/ERP_crm/cronjob/create_follow_news.php","1878","primary_field เริ่มต้นการสร้างข้อมูล Followup ","2016-03-23 00:00:02","-","0","0"
"/www/ERP_crm/cronjob/create_follow_news.php","1902","arr_source chk_exits_follow_cus  TEST TEST TESTเริ่มต้นการสร้างข้อมูล Followup ","2016-03-23 00:00:02","-","0","0"
"/www/ERP_crm/cronjob/create_follow_news.php","1937","get_field_type","2016-03-23 00:00:02","-","0","0"
"/www/ERP_crm/cronjob/create_follow_news.php","1963","field_date_format","2016-03-23 00:00:02","-","0","0"
"/www/ERP_crm/cronjob/create_follow_news.php","1981","field_date_type","2016-03-23 00:00:02","-","0","0"
"/www/ERP_crm/cronjob/create_follow_news.php","1675","BEGIN SQL MAIN 56","2016-03-23 00:00:02","-","0","0"
"/www/ERP_crm/cronjob/create_follow_news.php","1712","BEGIN SQL CHECK 1","2016-03-23 00:00:02","-","0","0"
"/www/ERP_crm/cronjob/create_follow_news.php","1736","BEGIN SQL CHECK 2","2016-03-23 00:00:02","-","0","0"
"/www/ERP_crm/cronjob/create_follow_news.php","1761","BEGIN SQL CHECK 3","2016-03-23 00:00:02","-","0","0"
"/www/ERP_crm/cronjob/create_follow_news.php","1778","BEGIN SQL CHECK 4","2016-03-23 00:00:02","-","0","0"
"/www/ERP_crm/cronjob/create_follow_news.php","1794","BEGIN SQL CHECK 5","2016-03-23 00:00:02","-","0","0"
"/www/ERP_crm/cronjob/create_follow_news.php","1838","BEGIN SQL CHECK 6 >> 1","2016-03-23 00:00:02","-","0","0"
"/www/ERP_crm/cronjob/create_follow_news.php","1878","primary_field เริ่มต้นการสร้างข้อมูล Followup ","2016-03-23 00:00:02","-","0","0"
"/www/ERP_crm/cronjob/create_follow_news.php","1902","arr_source chk_exits_follow_cus  TEST TEST TESTเริ่มต้นการสร้างข้อมูล Followup ","2016-03-23 00:00:02","-","0","0"
"/www/ERP_crm/cronjob/create_follow_news.php","1937","get_field_type","2016-03-23 00:00:02","-","0","0"
"/www/ERP_crm/cronjob/create_follow_news.php","1963","field_date_format","2016-03-23 00:00:02","-","0","0"
"/www/ERP_crm/cronjob/create_follow_news.php","1981","field_date_type","2016-03-23 00:00:02","-","0","0"
"/www/ERP_crm/cronjob/create_follow_news.php","1675","BEGIN SQL MAIN 57","2016-03-23 00:00:02","-","0","0"
"/www/ERP_crm/cronjob/create_follow_news.php","1712","BEGIN SQL CHECK 1","2016-03-23 00:00:02","-","0","0"
"/www/ERP_crm/cronjob/create_follow_news.php","1736","BEGIN SQL CHECK 2","2016-03-23 00:00:02","-","0","0"
"/www/ERP_crm/cronjob/create_follow_news.php","1761","BEGIN SQL CHECK 3","2016-03-23 00:00:02","-","0","0"
"/www/ERP_crm/cronjob/create_follow_news.php","1778","BEGIN SQL CHECK 4","2016-03-23 00:00:02","-","0","0"
"/www/ERP_crm/cronjob/create_follow_news.php","1794","BEGIN SQL CHECK 5","2016-03-23 00:00:02","-","0","0"
"/www/ERP_crm/cronjob/create_follow_news.php","1838","BEGIN SQL CHECK 6 >> 1","2016-03-23 00:00:02","-","0","0"
"/www/ERP_crm/cronjob/create_follow_news.php","1878","primary_field เริ่มต้นการสร้างข้อมูล Followup ","2016-03-23 00:00:02","-","0","0"
"/www/ERP_crm/cronjob/create_follow_news.php","1902","arr_source chk_exits_follow_cus  TEST TEST TESTเริ่มต้นการสร้างข้อมูล Followup ","2016-03-23 00:00:02","-","0","0"
"/www/ERP_crm/cronjob/create_follow_news.php","1937","get_field_type","2016-03-23 00:00:02","-","0","0"
"/www/ERP_crm/cronjob/create_follow_news.php","1963","field_date_format","2016-03-23 00:00:02","-","0","0"
"/www/ERP_crm/cronjob/create_follow_news.php","1981","field_date_type","2016-03-23 00:00:02","-","0","0"
"/www/ERP_crm/cronjob/create_follow_news.php","1675","BEGIN SQL MAIN 58","2016-03-23 00:00:02","-","0","0"
"/www/ERP_crm/cronjob/create_follow_news.php","1712","BEGIN SQL CHECK 1","2016-03-23 00:00:02","-","0","0"
"/www/ERP_crm/cronjob/create_follow_news.php","1736","BEGIN SQL CHECK 2","2016-03-23 00:00:02","-","0","0"
"/www/ERP_crm/cronjob/create_follow_news.php","1761","BEGIN SQL CHECK 3","2016-03-23 00:00:02","-","0","0"
"/www/ERP_crm/cronjob/create_follow_news.php","1778","BEGIN SQL CHECK 4","2016-03-23 00:00:02","-","0","0"
"/www/ERP_crm/cronjob/create_follow_news.php","1794","BEGIN SQL CHECK 5","2016-03-23 00:00:02","-","0","0"
"/www/ERP_crm/cronjob/create_follow_news.php","1838","BEGIN SQL CHECK 6 >> 3","2016-03-23 00:00:02","-","0","0"
"/www/ERP_crm/cronjob/create_follow_news.php","2733","primary_field เริ่มต้นการสร้างข้อมูล Followup ","2016-03-23 00:00:02","-","0","0"
"/www/ERP_crm/cronjob/create_follow_news.php","2757","arr_source chk_exits_follow_cus  TEST TEST TESTเริ่มต้นการสร้างข้อมูล Followup ","2016-03-23 00:00:02","-","0","0"
"/www/ERP_crm/cronjob/create_follow_news.php","1675","BEGIN SQL MAIN 59","2016-03-23 00:00:02","-","0","0"
"/www/ERP_crm/cronjob/create_follow_news.php","1712","BEGIN SQL CHECK 1","2016-03-23 00:00:02","-","0","0"
"/www/ERP_crm/cronjob/create_follow_news.php","1736","BEGIN SQL CHECK 2","2016-03-23 00:00:02","-","0","0"
"/www/ERP_crm/cronjob/create_follow_news.php","1761","BEGIN SQL CHECK 3","2016-03-23 00:00:02","-","0","0"
"/www/ERP_crm/cronjob/create_follow_news.php","1778","BEGIN SQL CHECK 4","2016-03-23 00:00:02","-","0","0"
"/www/ERP_crm/cronjob/create_follow_news.php","1794","BEGIN SQL CHECK 5","2016-03-23 00:00:02","-","0","0"
"/www/ERP_crm/cronjob/create_follow_news.php","1838","BEGIN SQL CHECK 6 >> 3","2016-03-23 00:00:02","-","0","0"
"/www/ERP_crm/cronjob/create_follow_news.php","2733","primary_field เริ่มต้นการสร้างข้อมูล Followup ","2016-03-23 00:00:02","-","0","0"
"/www/ERP_crm/cronjob/create_follow_news.php","2757","arr_source chk_exits_follow_cus  TEST TEST TESTเริ่มต้นการสร้างข้อมูล Followup ","2016-03-23 00:00:02","-","0","0"
"/www/ERP_crm/cronjob/create_follow_news.php","3222","สิ้นสุดการสร้างข้อมูล Followup ","-","2016-03-23 00:14:05","724","0"
