"FILE","LINE","TITLE","START_TIME","SUCCESS_TIME","FOLLOW","AllCusLOOP"
"/www/ERP_crm/cronjob/create_follow_news.php","117","เริ่มต้นการสร้างข้อมูล Followup ","2012-12-27 10:17:42","-","0","0"
"/www/ERP_crm/cronjob/create_follow_news.php","1450","primary_field เริ่มต้นการสร้างข้อมูล Followup ","2012-12-27 10:17:42","-","0","0"
"/www/ERP_crm/cronjob/create_follow_news.php","1488","arr_source chk_exits_follow_cus  TEST TEST TESTเริ่มต้นการสร้างข้อมูล Followup ","2012-12-27 10:17:42","-","0","0"
"/www/ERP_crm/cronjob/create_follow_news.php","2536","สิ้นสุดการสร้างข้อมูล Followup ","-","2012-12-27 10:17:56","583","0"
"/www/ERP_crm/cronjob/create_follow_news.php","117","เริ่มต้นการสร้างข้อมูล Followup ","2012-12-27 10:23:18","-","0","0"
"/www/ERP_crm/cronjob/create_follow_news.php","1450","primary_field เริ่มต้นการสร้างข้อมูล Followup ","2012-12-27 10:23:18","-","0","0"
"/www/ERP_crm/cronjob/create_follow_news.php","1488","arr_source chk_exits_follow_cus  TEST TEST TESTเริ่มต้นการสร้างข้อมูล Followup ","2012-12-27 10:23:18","-","0","0"
"/www/ERP_crm/cronjob/create_follow_news.php","2536","สิ้นสุดการสร้างข้อมูล Followup ","-","2012-12-27 10:23:32","583","0"
"/www/ERP_crm/cronjob/create_follow_news.php","117","เริ่มต้นการสร้างข้อมูล Followup ","2012-12-27 10:35:45","-","0","0"
"/www/ERP_crm/cronjob/create_follow_news.php","1450","primary_field เริ่มต้นการสร้างข้อมูล Followup ","2012-12-27 10:35:45","-","0","0"
"/www/ERP_crm/cronjob/create_follow_news.php","1488","arr_source chk_exits_follow_cus  TEST TEST TESTเริ่มต้นการสร้างข้อมูล Followup ","2012-12-27 10:35:45","-","0","0"
"/www/ERP_crm/cronjob/create_follow_news.php","2536","สิ้นสุดการสร้างข้อมูล Followup ","-","2012-12-27 10:35:59","583","0"
"/www/ERP_crm/cronjob/create_follow_news.php","117","เริ่มต้นการสร้างข้อมูล Followup ","2012-12-27 10:51:44","-","0","0"
"/www/ERP_crm/cronjob/create_follow_news.php","1450","primary_field เริ่มต้นการสร้างข้อมูล Followup ","2012-12-27 10:51:44","-","0","0"
"/www/ERP_crm/cronjob/create_follow_news.php","1488","arr_source chk_exits_follow_cus  TEST TEST TESTเริ่มต้นการสร้างข้อมูล Followup ","2012-12-27 10:51:44","-","0","0"
"/www/ERP_crm/cronjob/create_follow_news.php","2538","สิ้นสุดการสร้างข้อมูล Followup ","-","2012-12-27 10:51:56","583","0"
"/www/ERP_crm/cronjob/create_follow_news.php","117","เริ่มต้นการสร้างข้อมูล Followup ","2012-12-27 10:55:11","-","0","0"
"/www/ERP_crm/cronjob/create_follow_news.php","117","เริ่มต้นการสร้างข้อมูล Followup ","2012-12-27 11:07:48","-","0","0"
"/www/ERP_crm/cronjob/create_follow_news.php","117","เริ่มต้นการสร้างข้อมูล Followup ","2012-12-27 11:10:25","-","0","0"
"/www/ERP_crm/cronjob/create_follow_news.php","1450","primary_field เริ่มต้นการสร้างข้อมูล Followup ","2012-12-27 11:10:25","-","0","0"
"/www/ERP_crm/cronjob/create_follow_news.php","1488","arr_source chk_exits_follow_cus  TEST TEST TESTเริ่มต้นการสร้างข้อมูล Followup ","2012-12-27 11:10:25","-","0","0"
"/www/ERP_crm/cronjob/create_follow_news.php","2536","สิ้นสุดการสร้างข้อมูล Followup ","-","2012-12-27 11:10:28","5","0"
"/www/ERP_crm/cronjob/create_follow_news.php","117","เริ่มต้นการสร้างข้อมูล Followup ","2012-12-27 11:24:06","-","0","0"
"/www/ERP_crm/cronjob/create_follow_news.php","1457","primary_field เริ่มต้นการสร้างข้อมูล Followup ","2012-12-27 11:24:06","-","0","0"
"/www/ERP_crm/cronjob/create_follow_news.php","1495","arr_source chk_exits_follow_cus  TEST TEST TESTเริ่มต้นการสร้างข้อมูล Followup ","2012-12-27 11:24:06","-","0","0"
"/www/ERP_crm/cronjob/create_follow_news.php","2543","สิ้นสุดการสร้างข้อมูล Followup ","-","2012-12-27 11:25:10","583","0"
"/www/ERP_crm/cronjob/create_follow_news.php","117","เริ่มต้นการสร้างข้อมูล Followup ","2012-12-27 15:53:30","-","0","0"
"/www/ERP_crm/cronjob/create_follow_news.php","1457","primary_field เริ่มต้นการสร้างข้อมูล Followup ","2012-12-27 15:53:30","-","0","0"
"/www/ERP_crm/cronjob/create_follow_news.php","1495","arr_source chk_exits_follow_cus  TEST TEST TESTเริ่มต้นการสร้างข้อมูล Followup ","2012-12-27 15:53:30","-","0","0"
"/www/ERP_crm/cronjob/create_follow_news.php","2543","สิ้นสุดการสร้างข้อมูล Followup ","-","2012-12-27 15:55:42","583","0"
"/www/ERP_crm/cronjob/create_follow_news.php","117","เริ่มต้นการสร้างข้อมูล Followup ","2012-12-27 16:01:14","-","0","0"
"/www/ERP_crm/cronjob/create_follow_news.php","1457","primary_field เริ่มต้นการสร้างข้อมูล Followup ","2012-12-27 16:01:14","-","0","0"
"/www/ERP_crm/cronjob/create_follow_news.php","1495","arr_source chk_exits_follow_cus  TEST TEST TESTเริ่มต้นการสร้างข้อมูล Followup ","2012-12-27 16:01:14","-","0","0"
"/www/ERP_crm/cronjob/create_follow_news.php","2543","สิ้นสุดการสร้างข้อมูล Followup ","-","2012-12-27 16:04:44","583","0"
"/www/ERP_crm/cronjob/create_follow_news.php","117","เริ่มต้นการสร้างข้อมูล Followup ","2012-12-27 16:30:07","-","0","0"
"/www/ERP_crm/cronjob/create_follow_news.php","1457","primary_field เริ่มต้นการสร้างข้อมูล Followup ","2012-12-27 16:30:07","-","0","0"
"/www/ERP_crm/cronjob/create_follow_news.php","1495","arr_source chk_exits_follow_cus  TEST TEST TESTเริ่มต้นการสร้างข้อมูล Followup ","2012-12-27 16:30:07","-","0","0"
"/www/ERP_crm/cronjob/create_follow_news.php","2543","สิ้นสุดการสร้างข้อมูล Followup ","-","2012-12-27 16:33:12","583","0"
"/www/ERP_crm/cronjob/create_follow_news.php","117","เริ่มต้นการสร้างข้อมูล Followup ","2012-12-27 16:46:28","-","0","0"
"/www/ERP_crm/cronjob/create_follow_news.php","1457","primary_field เริ่มต้นการสร้างข้อมูล Followup ","2012-12-27 16:46:28","-","0","0"
"/www/ERP_crm/cronjob/create_follow_news.php","1495","arr_source chk_exits_follow_cus  TEST TEST TESTเริ่มต้นการสร้างข้อมูล Followup ","2012-12-27 16:46:28","-","0","0"
"/www/ERP_crm/cronjob/create_follow_news.php","2543","สิ้นสุดการสร้างข้อมูล Followup ","-","2012-12-27 16:50:51","583","0"
"/www/ERP_crm/cronjob/create_follow_news.php","117","เริ่มต้นการสร้างข้อมูล Followup ","2012-12-27 17:07:21","-","0","0"
"/www/ERP_crm/cronjob/create_follow_news.php","1457","primary_field เริ่มต้นการสร้างข้อมูล Followup ","2012-12-27 17:07:21","-","0","0"
"/www/ERP_crm/cronjob/create_follow_news.php","1495","arr_source chk_exits_follow_cus  TEST TEST TESTเริ่มต้นการสร้างข้อมูล Followup ","2012-12-27 17:07:21","-","0","0"
"/www/ERP_crm/cronjob/create_follow_news.php","2543","สิ้นสุดการสร้างข้อมูล Followup ","-","2012-12-27 17:11:34","583","0"
"/www/ERP_crm/cronjob/create_follow_news.php","117","เริ่มต้นการสร้างข้อมูล Followup ","2012-12-27 17:29:34","-","0","0"
"/www/ERP_crm/cronjob/create_follow_news.php","1457","primary_field เริ่มต้นการสร้างข้อมูล Followup ","2012-12-27 17:29:34","-","0","0"
"/www/ERP_crm/cronjob/create_follow_news.php","1495","arr_source chk_exits_follow_cus  TEST TEST TESTเริ่มต้นการสร้างข้อมูล Followup ","2012-12-27 17:29:34","-","0","0"
"/www/ERP_crm/cronjob/create_follow_news.php","2543","สิ้นสุดการสร้างข้อมูล Followup ","-","2012-12-27 17:33:55","583","0"
