"FILE","LINE","TITLE","START_TIME","SUCCESS_TIME","FOLLOW","AllCusLOOP"
"/www/ERP_crm/cronjob/create_follow_news.php","117","เริ่มต้นการสร้างข้อมูล Followup ","2012-12-14 11:09:02","-","0","0"
"/www/ERP_crm/cronjob/create_follow_news.php","1864","สิ้นสุดการสร้างข้อมูล Followup ","-","2012-12-14 11:09:21","0","0"
"/www/ERP_crm/cronjob/create_follow_news.php","117","เริ่มต้นการสร้างข้อมูล Followup ","2012-12-14 11:19:01","-","0","0"
"/www/ERP_crm/cronjob/create_follow_news.php","1864","สิ้นสุดการสร้างข้อมูล Followup ","-","2012-12-14 11:19:16","0","0"
"/www/ERP_crm/cronjob/create_follow_news.php","117","เริ่มต้นการสร้างข้อมูล Followup ","2012-12-14 11:31:01","-","0","0"
"/www/ERP_crm/cronjob/create_follow_news.php","1864","สิ้นสุดการสร้างข้อมูล Followup ","-","2012-12-14 11:31:15","0","0"
"/www/ERP_crm/cronjob/create_follow_news.php","117","เริ่มต้นการสร้างข้อมูล Followup ","2012-12-14 11:39:01","-","0","0"
"/www/ERP_crm/cronjob/create_follow_news.php","1864","สิ้นสุดการสร้างข้อมูล Followup ","-","2012-12-14 11:39:16","0","0"
"/www/ERP_crm/cronjob/create_follow_news.php","117","เริ่มต้นการสร้างข้อมูล Followup ","2012-12-14 15:09:01","-","0","0"
"/www/ERP_crm/cronjob/create_follow_news.php","1851","primary_field เริ่มต้นการสร้างข้อมูล Followup ","2012-12-14 15:09:01","-","0","0"
"/www/ERP_crm/cronjob/create_follow_news.php","1878","arr_source chk_exits_follow_cus  TEST TEST TESTเริ่มต้นการสร้างข้อมูล Followup ","2012-12-14 15:09:01","-","0","0"
"/www/ERP_crm/cronjob/create_follow_news.php","1851","primary_field เริ่มต้นการสร้างข้อมูล Followup ","2012-12-14 15:09:01","-","0","0"
"/www/ERP_crm/cronjob/create_follow_news.php","1878","arr_source chk_exits_follow_cus  TEST TEST TESTเริ่มต้นการสร้างข้อมูล Followup ","2012-12-14 15:09:01","-","0","0"
"/www/ERP_crm/cronjob/create_follow_news.php","1944","สิ้นสุดการสร้างข้อมูล Followup ","-","2012-12-14 15:09:15","0","0"
"/www/ERP_crm/cronjob/create_follow_news.php","117","เริ่มต้นการสร้างข้อมูล Followup ","2012-12-14 15:19:01","-","0","0"
"/www/ERP_crm/cronjob/create_follow_news.php","1852","primary_field เริ่มต้นการสร้างข้อมูล Followup ","2012-12-14 15:19:01","-","0","0"
"/www/ERP_crm/cronjob/create_follow_news.php","1879","arr_source chk_exits_follow_cus  TEST TEST TESTเริ่มต้นการสร้างข้อมูล Followup ","2012-12-14 15:19:01","-","0","0"
"/www/ERP_crm/cronjob/create_follow_news.php","1852","primary_field เริ่มต้นการสร้างข้อมูล Followup ","2012-12-14 15:19:01","-","0","0"
"/www/ERP_crm/cronjob/create_follow_news.php","1879","arr_source chk_exits_follow_cus  TEST TEST TESTเริ่มต้นการสร้างข้อมูล Followup ","2012-12-14 15:19:01","-","0","0"
"/www/ERP_crm/cronjob/create_follow_news.php","2005","สิ้นสุดการสร้างข้อมูล Followup ","-","2012-12-14 15:19:16","0","0"
"/www/ERP_crm/cronjob/create_follow_news.php","117","เริ่มต้นการสร้างข้อมูล Followup ","2012-12-14 15:31:01","-","0","0"
"/www/ERP_crm/cronjob/create_follow_news.php","117","เริ่มต้นการสร้างข้อมูล Followup ","2012-12-14 15:39:01","-","0","0"
"/www/ERP_crm/cronjob/create_follow_news.php","1871","primary_field เริ่มต้นการสร้างข้อมูล Followup ","2012-12-14 15:39:01","-","0","0"
"/www/ERP_crm/cronjob/create_follow_news.php","1898","arr_source chk_exits_follow_cus  TEST TEST TESTเริ่มต้นการสร้างข้อมูล Followup ","2012-12-14 15:39:01","-","0","0"
"/www/ERP_crm/cronjob/create_follow_news.php","1871","primary_field เริ่มต้นการสร้างข้อมูล Followup ","2012-12-14 15:39:01","-","0","0"
"/www/ERP_crm/cronjob/create_follow_news.php","1898","arr_source chk_exits_follow_cus  TEST TEST TESTเริ่มต้นการสร้างข้อมูล Followup ","2012-12-14 15:39:01","-","0","0"
"/www/ERP_crm/cronjob/create_follow_news.php","2124","สิ้นสุดการสร้างข้อมูล Followup ","-","2012-12-14 15:39:16","0","0"
"/www/ERP_crm/cronjob/create_follow_news.php","117","เริ่มต้นการสร้างข้อมูล Followup ","2012-12-14 16:10:24","-","0","0"
"/www/ERP_crm/cronjob/create_follow_news.php","1877","primary_field เริ่มต้นการสร้างข้อมูล Followup ","2012-12-14 16:10:24","-","0","0"
"/www/ERP_crm/cronjob/create_follow_news.php","1904","arr_source chk_exits_follow_cus  TEST TEST TESTเริ่มต้นการสร้างข้อมูล Followup ","2012-12-14 16:10:24","-","0","0"
"/www/ERP_crm/cronjob/create_follow_news.php","2130","สิ้นสุดการสร้างข้อมูล Followup ","-","2012-12-14 16:10:36","0","0"
"/www/ERP_crm/cronjob/create_follow_news.php","117","เริ่มต้นการสร้างข้อมูล Followup ","2012-12-14 16:11:46","-","0","0"
"/www/ERP_crm/cronjob/create_follow_news.php","1877","primary_field เริ่มต้นการสร้างข้อมูล Followup ","2012-12-14 16:11:46","-","0","0"
"/www/ERP_crm/cronjob/create_follow_news.php","1904","arr_source chk_exits_follow_cus  TEST TEST TESTเริ่มต้นการสร้างข้อมูล Followup ","2012-12-14 16:11:46","-","0","0"
"/www/ERP_crm/cronjob/create_follow_news.php","2130","สิ้นสุดการสร้างข้อมูล Followup ","-","2012-12-14 16:11:46","0","0"
"/www/ERP_crm/cronjob/create_follow_news.php","117","เริ่มต้นการสร้างข้อมูล Followup ","2012-12-14 16:28:07","-","0","0"
"/www/ERP_crm/cronjob/create_follow_news.php","1877","primary_field เริ่มต้นการสร้างข้อมูล Followup ","2012-12-14 16:28:07","-","0","0"
"/www/ERP_crm/cronjob/create_follow_news.php","1904","arr_source chk_exits_follow_cus  TEST TEST TESTเริ่มต้นการสร้างข้อมูล Followup ","2012-12-14 16:28:07","-","0","0"
"/www/ERP_crm/cronjob/create_follow_news.php","2134","สิ้นสุดการสร้างข้อมูล Followup ","-","2012-12-14 16:28:07","0","0"
"/www/ERP_crm/cronjob/create_follow_news.php","117","เริ่มต้นการสร้างข้อมูล Followup ","2012-12-14 16:48:36","-","0","0"
"/www/ERP_crm/cronjob/create_follow_news.php","1877","primary_field เริ่มต้นการสร้างข้อมูล Followup ","2012-12-14 16:48:36","-","0","0"
"/www/ERP_crm/cronjob/create_follow_news.php","1904","arr_source chk_exits_follow_cus  TEST TEST TESTเริ่มต้นการสร้างข้อมูล Followup ","2012-12-14 16:48:36","-","0","0"
"/www/ERP_crm/cronjob/create_follow_news.php","117","เริ่มต้นการสร้างข้อมูล Followup ","2012-12-14 16:50:29","-","0","0"
"/www/ERP_crm/cronjob/create_follow_news.php","1877","primary_field เริ่มต้นการสร้างข้อมูล Followup ","2012-12-14 16:50:29","-","0","0"
"/www/ERP_crm/cronjob/create_follow_news.php","1904","arr_source chk_exits_follow_cus  TEST TEST TESTเริ่มต้นการสร้างข้อมูล Followup ","2012-12-14 16:50:29","-","0","0"
"/www/ERP_crm/cronjob/create_follow_news.php","2138","สิ้นสุดการสร้างข้อมูล Followup ","-","2012-12-14 16:50:29","0","0"
"/www/ERP_crm/cronjob/create_follow_news.php","117","เริ่มต้นการสร้างข้อมูล Followup ","2012-12-14 17:07:35","-","0","0"
"/www/ERP_crm/cronjob/create_follow_news.php","1877","primary_field เริ่มต้นการสร้างข้อมูล Followup ","2012-12-14 17:07:35","-","0","0"
"/www/ERP_crm/cronjob/create_follow_news.php","1904","arr_source chk_exits_follow_cus  TEST TEST TESTเริ่มต้นการสร้างข้อมูล Followup ","2012-12-14 17:07:35","-","0","0"
"/www/ERP_crm/cronjob/create_follow_news.php","2138","สิ้นสุดการสร้างข้อมูล Followup ","-","2012-12-14 17:07:35","0","0"
"/www/ERP_crm/cronjob/create_follow_news.php","117","เริ่มต้นการสร้างข้อมูล Followup ","2012-12-14 17:13:04","-","0","0"
"/www/ERP_crm/cronjob/create_follow_news.php","1877","primary_field เริ่มต้นการสร้างข้อมูล Followup ","2012-12-14 17:13:04","-","0","0"
"/www/ERP_crm/cronjob/create_follow_news.php","1904","arr_source chk_exits_follow_cus  TEST TEST TESTเริ่มต้นการสร้างข้อมูล Followup ","2012-12-14 17:13:04","-","0","0"
"/www/ERP_crm/cronjob/create_follow_news.php","2139","สิ้นสุดการสร้างข้อมูล Followup ","-","2012-12-14 17:13:04","0","0"
"/www/ERP_crm/cronjob/create_follow_news.php","117","เริ่มต้นการสร้างข้อมูล Followup ","2012-12-14 17:14:28","-","0","0"
"/www/ERP_crm/cronjob/create_follow_news.php","1877","primary_field เริ่มต้นการสร้างข้อมูล Followup ","2012-12-14 17:14:28","-","0","0"
"/www/ERP_crm/cronjob/create_follow_news.php","1904","arr_source chk_exits_follow_cus  TEST TEST TESTเริ่มต้นการสร้างข้อมูล Followup ","2012-12-14 17:14:28","-","0","0"
"/www/ERP_crm/cronjob/create_follow_news.php","2139","สิ้นสุดการสร้างข้อมูล Followup ","-","2012-12-14 17:14:28","0","0"
"/www/ERP_crm/cronjob/create_follow_news.php","117","เริ่มต้นการสร้างข้อมูล Followup ","2012-12-14 17:19:30","-","0","0"
"/www/ERP_crm/cronjob/create_follow_news.php","1877","primary_field เริ่มต้นการสร้างข้อมูล Followup ","2012-12-14 17:19:30","-","0","0"
"/www/ERP_crm/cronjob/create_follow_news.php","1904","arr_source chk_exits_follow_cus  TEST TEST TESTเริ่มต้นการสร้างข้อมูล Followup ","2012-12-14 17:19:30","-","0","0"
"/www/ERP_crm/cronjob/create_follow_news.php","2139","สิ้นสุดการสร้างข้อมูล Followup ","-","2012-12-14 17:19:30","0","0"
"/www/ERP_crm/cronjob/create_follow_news.php","117","เริ่มต้นการสร้างข้อมูล Followup ","2012-12-14 18:01:16","-","0","0"
"/www/ERP_crm/cronjob/create_follow_news.php","1879","primary_field เริ่มต้นการสร้างข้อมูล Followup ","2012-12-14 18:01:16","-","0","0"
"/www/ERP_crm/cronjob/create_follow_news.php","1906","arr_source chk_exits_follow_cus  TEST TEST TESTเริ่มต้นการสร้างข้อมูล Followup ","2012-12-14 18:01:16","-","0","0"
"/www/ERP_crm/cronjob/create_follow_news.php","2167","สิ้นสุดการสร้างข้อมูล Followup ","-","2012-12-14 18:01:16","0","0"
"/www/ERP_crm/cronjob/create_follow_news.php","117","เริ่มต้นการสร้างข้อมูล Followup ","2012-12-14 18:04:17","-","0","0"
"/www/ERP_crm/cronjob/create_follow_news.php","1879","primary_field เริ่มต้นการสร้างข้อมูล Followup ","2012-12-14 18:04:17","-","0","0"
"/www/ERP_crm/cronjob/create_follow_news.php","1906","arr_source chk_exits_follow_cus  TEST TEST TESTเริ่มต้นการสร้างข้อมูล Followup ","2012-12-14 18:04:17","-","0","0"
"/www/ERP_crm/cronjob/create_follow_news.php","2170","สิ้นสุดการสร้างข้อมูล Followup ","-","2012-12-14 18:04:17","0","0"
"/www/ERP_crm/cronjob/create_follow_news.php","117","เริ่มต้นการสร้างข้อมูล Followup ","2012-12-14 18:05:22","-","0","0"
"/www/ERP_crm/cronjob/create_follow_news.php","1879","primary_field เริ่มต้นการสร้างข้อมูล Followup ","2012-12-14 18:05:22","-","0","0"
"/www/ERP_crm/cronjob/create_follow_news.php","1906","arr_source chk_exits_follow_cus  TEST TEST TESTเริ่มต้นการสร้างข้อมูล Followup ","2012-12-14 18:05:22","-","0","0"
"/www/ERP_crm/cronjob/create_follow_news.php","2171","สิ้นสุดการสร้างข้อมูล Followup ","-","2012-12-14 18:05:22","0","0"
"/www/ERP_crm/cronjob/create_follow_news.php","117","เริ่มต้นการสร้างข้อมูล Followup ","2012-12-14 18:06:47","-","0","0"
"/www/ERP_crm/cronjob/create_follow_news.php","1879","primary_field เริ่มต้นการสร้างข้อมูล Followup ","2012-12-14 18:06:47","-","0","0"
"/www/ERP_crm/cronjob/create_follow_news.php","1906","arr_source chk_exits_follow_cus  TEST TEST TESTเริ่มต้นการสร้างข้อมูล Followup ","2012-12-14 18:06:47","-","0","0"
"/www/ERP_crm/cronjob/create_follow_news.php","2174","สิ้นสุดการสร้างข้อมูล Followup ","-","2012-12-14 18:06:47","0","0"
"/www/ERP_crm/cronjob/create_follow_news.php","117","เริ่มต้นการสร้างข้อมูล Followup ","2012-12-14 18:08:06","-","0","0"
"/www/ERP_crm/cronjob/create_follow_news.php","1879","primary_field เริ่มต้นการสร้างข้อมูล Followup ","2012-12-14 18:08:06","-","0","0"
"/www/ERP_crm/cronjob/create_follow_news.php","1906","arr_source chk_exits_follow_cus  TEST TEST TESTเริ่มต้นการสร้างข้อมูล Followup ","2012-12-14 18:08:06","-","0","0"
"/www/ERP_crm/cronjob/create_follow_news.php","2181","สิ้นสุดการสร้างข้อมูล Followup ","-","2012-12-14 18:08:09","0","0"
"/www/ERP_crm/cronjob/create_follow_news.php","117","เริ่มต้นการสร้างข้อมูล Followup ","2012-12-14 18:10:04","-","0","0"
"/www/ERP_crm/cronjob/create_follow_news.php","1879","primary_field เริ่มต้นการสร้างข้อมูล Followup ","2012-12-14 18:10:04","-","0","0"
"/www/ERP_crm/cronjob/create_follow_news.php","1906","arr_source chk_exits_follow_cus  TEST TEST TESTเริ่มต้นการสร้างข้อมูล Followup ","2012-12-14 18:10:04","-","0","0"
"/www/ERP_crm/cronjob/create_follow_news.php","2180","สิ้นสุดการสร้างข้อมูล Followup ","-","2012-12-14 18:10:04","0","0"
"/www/ERP_crm/cronjob/create_follow_news.php","117","เริ่มต้นการสร้างข้อมูล Followup ","2012-12-14 18:18:22","-","0","0"
"/www/ERP_crm/cronjob/create_follow_news.php","1986","primary_field เริ่มต้นการสร้างข้อมูล Followup ","2012-12-14 18:18:22","-","0","0"
"/www/ERP_crm/cronjob/create_follow_news.php","2013","arr_source chk_exits_follow_cus  TEST TEST TESTเริ่มต้นการสร้างข้อมูล Followup ","2012-12-14 18:18:22","-","0","0"
"/www/ERP_crm/cronjob/create_follow_news.php","2289","สิ้นสุดการสร้างข้อมูล Followup ","-","2012-12-14 18:18:22","0","0"
"/www/ERP_crm/cronjob/create_follow_news.php","117","เริ่มต้นการสร้างข้อมูล Followup ","2012-12-14 18:19:18","-","0","0"
"/www/ERP_crm/cronjob/create_follow_news.php","1986","primary_field เริ่มต้นการสร้างข้อมูล Followup ","2012-12-14 18:19:18","-","0","0"
"/www/ERP_crm/cronjob/create_follow_news.php","2013","arr_source chk_exits_follow_cus  TEST TEST TESTเริ่มต้นการสร้างข้อมูล Followup ","2012-12-14 18:19:18","-","0","0"
"/www/ERP_crm/cronjob/create_follow_news.php","2289","สิ้นสุดการสร้างข้อมูล Followup ","-","2012-12-14 18:19:18","0","0"
"/www/ERP_crm/cronjob/create_follow_news.php","117","เริ่มต้นการสร้างข้อมูล Followup ","2012-12-14 18:22:54","-","0","0"
"/www/ERP_crm/cronjob/create_follow_news.php","1989","primary_field เริ่มต้นการสร้างข้อมูล Followup ","2012-12-14 18:22:54","-","0","0"
"/www/ERP_crm/cronjob/create_follow_news.php","2016","arr_source chk_exits_follow_cus  TEST TEST TESTเริ่มต้นการสร้างข้อมูล Followup ","2012-12-14 18:22:54","-","0","0"
"/www/ERP_crm/cronjob/create_follow_news.php","2292","สิ้นสุดการสร้างข้อมูล Followup ","-","2012-12-14 18:22:55","0","0"
"/www/ERP_crm/cronjob/create_follow_news.php","117","เริ่มต้นการสร้างข้อมูล Followup ","2012-12-14 18:25:50","-","0","0"
"/www/ERP_crm/cronjob/create_follow_news.php","1998","primary_field เริ่มต้นการสร้างข้อมูล Followup ","2012-12-14 18:25:50","-","0","0"
"/www/ERP_crm/cronjob/create_follow_news.php","2025","arr_source chk_exits_follow_cus  TEST TEST TESTเริ่มต้นการสร้างข้อมูล Followup ","2012-12-14 18:25:50","-","0","0"
"/www/ERP_crm/cronjob/create_follow_news.php","2301","สิ้นสุดการสร้างข้อมูล Followup ","-","2012-12-14 18:25:50","0","0"
"/www/ERP_crm/cronjob/create_follow_news.php","117","เริ่มต้นการสร้างข้อมูล Followup ","2012-12-14 18:28:14","-","0","0"
"/www/ERP_crm/cronjob/create_follow_news.php","1985","primary_field เริ่มต้นการสร้างข้อมูล Followup ","2012-12-14 18:28:14","-","0","0"
"/www/ERP_crm/cronjob/create_follow_news.php","2012","arr_source chk_exits_follow_cus  TEST TEST TESTเริ่มต้นการสร้างข้อมูล Followup ","2012-12-14 18:28:14","-","0","0"
"/www/ERP_crm/cronjob/create_follow_news.php","2293","สิ้นสุดการสร้างข้อมูล Followup ","-","2012-12-14 18:28:36","0","0"
"/www/ERP_crm/cronjob/create_follow_news.php","117","เริ่มต้นการสร้างข้อมูล Followup ","2012-12-14 18:29:08","-","0","0"
"/www/ERP_crm/cronjob/create_follow_news.php","1985","primary_field เริ่มต้นการสร้างข้อมูล Followup ","2012-12-14 18:29:08","-","0","0"
"/www/ERP_crm/cronjob/create_follow_news.php","2012","arr_source chk_exits_follow_cus  TEST TEST TESTเริ่มต้นการสร้างข้อมูล Followup ","2012-12-14 18:29:08","-","0","0"
"/www/ERP_crm/cronjob/create_follow_news.php","2293","สิ้นสุดการสร้างข้อมูล Followup ","-","2012-12-14 18:29:08","0","0"
"/www/ERP_crm/cronjob/create_follow_news.php","117","เริ่มต้นการสร้างข้อมูล Followup ","2012-12-14 18:32:45","-","0","0"
"/www/ERP_crm/cronjob/create_follow_news.php","1985","primary_field เริ่มต้นการสร้างข้อมูล Followup ","2012-12-14 18:32:45","-","0","0"
"/www/ERP_crm/cronjob/create_follow_news.php","2012","arr_source chk_exits_follow_cus  TEST TEST TESTเริ่มต้นการสร้างข้อมูล Followup ","2012-12-14 18:32:45","-","0","0"
"/www/ERP_crm/cronjob/create_follow_news.php","2293","สิ้นสุดการสร้างข้อมูล Followup ","-","2012-12-14 18:32:45","0","0"
"/www/ERP_crm/cronjob/create_follow_news.php","117","เริ่มต้นการสร้างข้อมูล Followup ","2012-12-14 18:34:09","-","0","0"
"/www/ERP_crm/cronjob/create_follow_news.php","1985","primary_field เริ่มต้นการสร้างข้อมูล Followup ","2012-12-14 18:34:09","-","0","0"
"/www/ERP_crm/cronjob/create_follow_news.php","2012","arr_source chk_exits_follow_cus  TEST TEST TESTเริ่มต้นการสร้างข้อมูล Followup ","2012-12-14 18:34:09","-","0","0"
"/www/ERP_crm/cronjob/create_follow_news.php","2298","สิ้นสุดการสร้างข้อมูล Followup ","-","2012-12-14 18:34:10","0","0"
"/www/ERP_crm/cronjob/create_follow_news.php","117","เริ่มต้นการสร้างข้อมูล Followup ","2012-12-14 18:34:54","-","0","0"
"/www/ERP_crm/cronjob/create_follow_news.php","1985","primary_field เริ่มต้นการสร้างข้อมูล Followup ","2012-12-14 18:34:54","-","0","0"
"/www/ERP_crm/cronjob/create_follow_news.php","2012","arr_source chk_exits_follow_cus  TEST TEST TESTเริ่มต้นการสร้างข้อมูล Followup ","2012-12-14 18:34:54","-","0","0"
"/www/ERP_crm/cronjob/create_follow_news.php","2299","สิ้นสุดการสร้างข้อมูล Followup ","-","2012-12-14 18:34:54","0","0"
"/www/ERP_crm/cronjob/create_follow_news.php","117","เริ่มต้นการสร้างข้อมูล Followup ","2012-12-14 18:36:46","-","0","0"
"/www/ERP_crm/cronjob/create_follow_news.php","1985","primary_field เริ่มต้นการสร้างข้อมูล Followup ","2012-12-14 18:36:46","-","0","0"
"/www/ERP_crm/cronjob/create_follow_news.php","2012","arr_source chk_exits_follow_cus  TEST TEST TESTเริ่มต้นการสร้างข้อมูล Followup ","2012-12-14 18:36:46","-","0","0"
"/www/ERP_crm/cronjob/create_follow_news.php","2306","สิ้นสุดการสร้างข้อมูล Followup ","-","2012-12-14 18:36:47","0","0"
"/www/ERP_crm/cronjob/create_follow_news.php","117","เริ่มต้นการสร้างข้อมูล Followup ","2012-12-14 18:38:04","-","0","0"
"/www/ERP_crm/cronjob/create_follow_news.php","1985","primary_field เริ่มต้นการสร้างข้อมูล Followup ","2012-12-14 18:38:04","-","0","0"
"/www/ERP_crm/cronjob/create_follow_news.php","2012","arr_source chk_exits_follow_cus  TEST TEST TESTเริ่มต้นการสร้างข้อมูล Followup ","2012-12-14 18:38:04","-","0","0"
"/www/ERP_crm/cronjob/create_follow_news.php","2307","สิ้นสุดการสร้างข้อมูล Followup ","-","2012-12-14 18:38:04","0","0"
"/www/ERP_crm/cronjob/create_follow_news.php","117","เริ่มต้นการสร้างข้อมูล Followup ","2012-12-14 18:42:13","-","0","0"
"/www/ERP_crm/cronjob/create_follow_news.php","1985","primary_field เริ่มต้นการสร้างข้อมูล Followup ","2012-12-14 18:42:13","-","0","0"
"/www/ERP_crm/cronjob/create_follow_news.php","2012","arr_source chk_exits_follow_cus  TEST TEST TESTเริ่มต้นการสร้างข้อมูล Followup ","2012-12-14 18:42:13","-","0","0"
"/www/ERP_crm/cronjob/create_follow_news.php","2307","สิ้นสุดการสร้างข้อมูล Followup ","-","2012-12-14 18:42:14","14","0"
