"FILE","LINE","TITLE","START_TIME","SUCCESS_TIME","FOLLOW","AllCusLOOP"
"/www/ERP_crm/cronjob/create_follow_news.php","117","เริ่มต้นการสร้างข้อมูล Followup ","2013-01-07 13:26:51","-","0","0"
"/www/ERP_crm/cronjob/create_follow_news.php","1493","primary_field เริ่มต้นการสร้างข้อมูล Followup ","2013-01-07 13:26:51","-","0","0"
"/www/ERP_crm/cronjob/create_follow_news.php","1531","arr_source chk_exits_follow_cus  TEST TEST TESTเริ่มต้นการสร้างข้อมูล Followup ","2013-01-07 13:26:51","-","0","0"
"/www/ERP_crm/cronjob/create_follow_news.php","1493","primary_field เริ่มต้นการสร้างข้อมูล Followup ","2013-01-07 13:26:51","-","0","0"
"/www/ERP_crm/cronjob/create_follow_news.php","1531","arr_source chk_exits_follow_cus  TEST TEST TESTเริ่มต้นการสร้างข้อมูล Followup ","2013-01-07 13:26:51","-","0","0"
"/www/ERP_crm/cronjob/create_follow_news.php","1493","primary_field เริ่มต้นการสร้างข้อมูล Followup ","2013-01-07 13:26:51","-","0","0"
"/www/ERP_crm/cronjob/create_follow_news.php","1531","arr_source chk_exits_follow_cus  TEST TEST TESTเริ่มต้นการสร้างข้อมูล Followup ","2013-01-07 13:26:51","-","0","0"
"/www/ERP_crm/cronjob/create_follow_news.php","1493","primary_field เริ่มต้นการสร้างข้อมูล Followup ","2013-01-07 13:26:51","-","0","0"
"/www/ERP_crm/cronjob/create_follow_news.php","1531","arr_source chk_exits_follow_cus  TEST TEST TESTเริ่มต้นการสร้างข้อมูล Followup ","2013-01-07 13:26:51","-","0","0"
"/www/ERP_crm/cronjob/create_follow_news.php","2579","สิ้นสุดการสร้างข้อมูล Followup ","-","2013-01-07 13:27:37","2779","0"
"/www/ERP_crm/cronjob/create_follow_news.php","117","เริ่มต้นการสร้างข้อมูล Followup ","2013-01-07 13:35:17","-","0","0"
"/www/ERP_crm/cronjob/create_follow_news.php","1493","primary_field เริ่มต้นการสร้างข้อมูล Followup ","2013-01-07 13:35:17","-","0","0"
"/www/ERP_crm/cronjob/create_follow_news.php","1531","arr_source chk_exits_follow_cus  TEST TEST TESTเริ่มต้นการสร้างข้อมูล Followup ","2013-01-07 13:35:17","-","0","0"
"/www/ERP_crm/cronjob/create_follow_news.php","1493","primary_field เริ่มต้นการสร้างข้อมูล Followup ","2013-01-07 13:35:17","-","0","0"
"/www/ERP_crm/cronjob/create_follow_news.php","1531","arr_source chk_exits_follow_cus  TEST TEST TESTเริ่มต้นการสร้างข้อมูล Followup ","2013-01-07 13:35:17","-","0","0"
"/www/ERP_crm/cronjob/create_follow_news.php","1493","primary_field เริ่มต้นการสร้างข้อมูล Followup ","2013-01-07 13:35:17","-","0","0"
"/www/ERP_crm/cronjob/create_follow_news.php","1531","arr_source chk_exits_follow_cus  TEST TEST TESTเริ่มต้นการสร้างข้อมูล Followup ","2013-01-07 13:35:17","-","0","0"
"/www/ERP_crm/cronjob/create_follow_news.php","1493","primary_field เริ่มต้นการสร้างข้อมูล Followup ","2013-01-07 13:35:17","-","0","0"
"/www/ERP_crm/cronjob/create_follow_news.php","1531","arr_source chk_exits_follow_cus  TEST TEST TESTเริ่มต้นการสร้างข้อมูล Followup ","2013-01-07 13:35:17","-","0","0"
"/www/ERP_crm/cronjob/create_follow_news.php","2579","สิ้นสุดการสร้างข้อมูล Followup ","-","2013-01-07 13:36:05","2779","0"
"/www/ERP_crm/cronjob/create_follow_news.php","117","เริ่มต้นการสร้างข้อมูล Followup ","2013-01-07 13:52:38","-","0","0"
"/www/ERP_crm/cronjob/create_follow_news.php","1493","primary_field เริ่มต้นการสร้างข้อมูล Followup ","2013-01-07 13:52:38","-","0","0"
"/www/ERP_crm/cronjob/create_follow_news.php","1531","arr_source chk_exits_follow_cus  TEST TEST TESTเริ่มต้นการสร้างข้อมูล Followup ","2013-01-07 13:52:38","-","0","0"
"/www/ERP_crm/cronjob/create_follow_news.php","1493","primary_field เริ่มต้นการสร้างข้อมูล Followup ","2013-01-07 13:52:38","-","0","0"
"/www/ERP_crm/cronjob/create_follow_news.php","1531","arr_source chk_exits_follow_cus  TEST TEST TESTเริ่มต้นการสร้างข้อมูล Followup ","2013-01-07 13:52:38","-","0","0"
"/www/ERP_crm/cronjob/create_follow_news.php","1493","primary_field เริ่มต้นการสร้างข้อมูล Followup ","2013-01-07 13:52:38","-","0","0"
"/www/ERP_crm/cronjob/create_follow_news.php","1531","arr_source chk_exits_follow_cus  TEST TEST TESTเริ่มต้นการสร้างข้อมูล Followup ","2013-01-07 13:52:38","-","0","0"
"/www/ERP_crm/cronjob/create_follow_news.php","1493","primary_field เริ่มต้นการสร้างข้อมูล Followup ","2013-01-07 13:52:38","-","0","0"
"/www/ERP_crm/cronjob/create_follow_news.php","1531","arr_source chk_exits_follow_cus  TEST TEST TESTเริ่มต้นการสร้างข้อมูล Followup ","2013-01-07 13:52:38","-","0","0"
"/www/ERP_crm/cronjob/create_follow_news.php","2579","สิ้นสุดการสร้างข้อมูล Followup ","-","2013-01-07 13:53:24","2779","0"
"/www/ERP_crm/cronjob/create_follow_news.php","117","เริ่มต้นการสร้างข้อมูล Followup ","2013-01-07 13:57:25","-","0","0"
"/www/ERP_crm/cronjob/create_follow_news.php","1493","primary_field เริ่มต้นการสร้างข้อมูล Followup ","2013-01-07 13:57:25","-","0","0"
"/www/ERP_crm/cronjob/create_follow_news.php","1531","arr_source chk_exits_follow_cus  TEST TEST TESTเริ่มต้นการสร้างข้อมูล Followup ","2013-01-07 13:57:25","-","0","0"
"/www/ERP_crm/cronjob/create_follow_news.php","1493","primary_field เริ่มต้นการสร้างข้อมูล Followup ","2013-01-07 13:57:25","-","0","0"
"/www/ERP_crm/cronjob/create_follow_news.php","1531","arr_source chk_exits_follow_cus  TEST TEST TESTเริ่มต้นการสร้างข้อมูล Followup ","2013-01-07 13:57:25","-","0","0"
"/www/ERP_crm/cronjob/create_follow_news.php","1493","primary_field เริ่มต้นการสร้างข้อมูล Followup ","2013-01-07 13:57:25","-","0","0"
"/www/ERP_crm/cronjob/create_follow_news.php","1531","arr_source chk_exits_follow_cus  TEST TEST TESTเริ่มต้นการสร้างข้อมูล Followup ","2013-01-07 13:57:25","-","0","0"
"/www/ERP_crm/cronjob/create_follow_news.php","1493","primary_field เริ่มต้นการสร้างข้อมูล Followup ","2013-01-07 13:57:25","-","0","0"
"/www/ERP_crm/cronjob/create_follow_news.php","1531","arr_source chk_exits_follow_cus  TEST TEST TESTเริ่มต้นการสร้างข้อมูล Followup ","2013-01-07 13:57:25","-","0","0"
"/www/ERP_crm/cronjob/create_follow_news.php","2579","สิ้นสุดการสร้างข้อมูล Followup ","-","2013-01-07 13:58:10","2779","0"
"/www/ERP_crm/cronjob/create_follow_news.php","117","เริ่มต้นการสร้างข้อมูล Followup ","2013-01-07 14:00:49","-","0","0"
"/www/ERP_crm/cronjob/create_follow_news.php","1493","primary_field เริ่มต้นการสร้างข้อมูล Followup ","2013-01-07 14:00:49","-","0","0"
"/www/ERP_crm/cronjob/create_follow_news.php","1531","arr_source chk_exits_follow_cus  TEST TEST TESTเริ่มต้นการสร้างข้อมูล Followup ","2013-01-07 14:00:49","-","0","0"
"/www/ERP_crm/cronjob/create_follow_news.php","1493","primary_field เริ่มต้นการสร้างข้อมูล Followup ","2013-01-07 14:00:49","-","0","0"
"/www/ERP_crm/cronjob/create_follow_news.php","1531","arr_source chk_exits_follow_cus  TEST TEST TESTเริ่มต้นการสร้างข้อมูล Followup ","2013-01-07 14:00:49","-","0","0"
"/www/ERP_crm/cronjob/create_follow_news.php","1493","primary_field เริ่มต้นการสร้างข้อมูล Followup ","2013-01-07 14:00:49","-","0","0"
"/www/ERP_crm/cronjob/create_follow_news.php","1531","arr_source chk_exits_follow_cus  TEST TEST TESTเริ่มต้นการสร้างข้อมูล Followup ","2013-01-07 14:00:49","-","0","0"
"/www/ERP_crm/cronjob/create_follow_news.php","1493","primary_field เริ่มต้นการสร้างข้อมูล Followup ","2013-01-07 14:00:49","-","0","0"
"/www/ERP_crm/cronjob/create_follow_news.php","1531","arr_source chk_exits_follow_cus  TEST TEST TESTเริ่มต้นการสร้างข้อมูล Followup ","2013-01-07 14:00:49","-","0","0"
"/www/ERP_crm/cronjob/create_follow_news.php","2579","สิ้นสุดการสร้างข้อมูล Followup ","-","2013-01-07 14:01:34","2779","0"
"/www/ERP_crm/cronjob/create_follow_news.php","117","เริ่มต้นการสร้างข้อมูล Followup ","2013-01-07 14:13:20","-","0","0"
"/www/ERP_crm/cronjob/create_follow_news.php","1493","primary_field เริ่มต้นการสร้างข้อมูล Followup ","2013-01-07 14:13:20","-","0","0"
"/www/ERP_crm/cronjob/create_follow_news.php","1531","arr_source chk_exits_follow_cus  TEST TEST TESTเริ่มต้นการสร้างข้อมูล Followup ","2013-01-07 14:13:20","-","0","0"
"/www/ERP_crm/cronjob/create_follow_news.php","1493","primary_field เริ่มต้นการสร้างข้อมูล Followup ","2013-01-07 14:13:20","-","0","0"
"/www/ERP_crm/cronjob/create_follow_news.php","1531","arr_source chk_exits_follow_cus  TEST TEST TESTเริ่มต้นการสร้างข้อมูล Followup ","2013-01-07 14:13:20","-","0","0"
"/www/ERP_crm/cronjob/create_follow_news.php","1493","primary_field เริ่มต้นการสร้างข้อมูล Followup ","2013-01-07 14:13:20","-","0","0"
"/www/ERP_crm/cronjob/create_follow_news.php","1531","arr_source chk_exits_follow_cus  TEST TEST TESTเริ่มต้นการสร้างข้อมูล Followup ","2013-01-07 14:13:20","-","0","0"
"/www/ERP_crm/cronjob/create_follow_news.php","1493","primary_field เริ่มต้นการสร้างข้อมูล Followup ","2013-01-07 14:13:20","-","0","0"
"/www/ERP_crm/cronjob/create_follow_news.php","1531","arr_source chk_exits_follow_cus  TEST TEST TESTเริ่มต้นการสร้างข้อมูล Followup ","2013-01-07 14:13:20","-","0","0"
"/www/ERP_crm/cronjob/create_follow_news.php","2579","สิ้นสุดการสร้างข้อมูล Followup ","-","2013-01-07 14:14:06","2779","0"
"/www/ERP_crm/cronjob/create_follow_news.php","117","เริ่มต้นการสร้างข้อมูล Followup ","2013-01-07 14:16:07","-","0","0"
"/www/ERP_crm/cronjob/create_follow_news.php","1493","primary_field เริ่มต้นการสร้างข้อมูล Followup ","2013-01-07 14:16:07","-","0","0"
"/www/ERP_crm/cronjob/create_follow_news.php","1531","arr_source chk_exits_follow_cus  TEST TEST TESTเริ่มต้นการสร้างข้อมูล Followup ","2013-01-07 14:16:07","-","0","0"
"/www/ERP_crm/cronjob/create_follow_news.php","1493","primary_field เริ่มต้นการสร้างข้อมูล Followup ","2013-01-07 14:16:07","-","0","0"
"/www/ERP_crm/cronjob/create_follow_news.php","1531","arr_source chk_exits_follow_cus  TEST TEST TESTเริ่มต้นการสร้างข้อมูล Followup ","2013-01-07 14:16:07","-","0","0"
"/www/ERP_crm/cronjob/create_follow_news.php","1493","primary_field เริ่มต้นการสร้างข้อมูล Followup ","2013-01-07 14:16:07","-","0","0"
"/www/ERP_crm/cronjob/create_follow_news.php","1531","arr_source chk_exits_follow_cus  TEST TEST TESTเริ่มต้นการสร้างข้อมูล Followup ","2013-01-07 14:16:07","-","0","0"
"/www/ERP_crm/cronjob/create_follow_news.php","1493","primary_field เริ่มต้นการสร้างข้อมูล Followup ","2013-01-07 14:16:07","-","0","0"
"/www/ERP_crm/cronjob/create_follow_news.php","1531","arr_source chk_exits_follow_cus  TEST TEST TESTเริ่มต้นการสร้างข้อมูล Followup ","2013-01-07 14:16:07","-","0","0"
"/www/ERP_crm/cronjob/create_follow_news.php","2579","สิ้นสุดการสร้างข้อมูล Followup ","-","2013-01-07 14:16:52","2779","0"
"/www/ERP_crm/cronjob/create_follow_news.php","117","เริ่มต้นการสร้างข้อมูล Followup ","2013-01-07 14:27:51","-","0","0"
"/www/ERP_crm/cronjob/create_follow_news.php","1493","primary_field เริ่มต้นการสร้างข้อมูล Followup ","2013-01-07 14:27:51","-","0","0"
"/www/ERP_crm/cronjob/create_follow_news.php","1531","arr_source chk_exits_follow_cus  TEST TEST TESTเริ่มต้นการสร้างข้อมูล Followup ","2013-01-07 14:27:51","-","0","0"
"/www/ERP_crm/cronjob/create_follow_news.php","1493","primary_field เริ่มต้นการสร้างข้อมูล Followup ","2013-01-07 14:27:51","-","0","0"
"/www/ERP_crm/cronjob/create_follow_news.php","1531","arr_source chk_exits_follow_cus  TEST TEST TESTเริ่มต้นการสร้างข้อมูล Followup ","2013-01-07 14:27:51","-","0","0"
"/www/ERP_crm/cronjob/create_follow_news.php","1493","primary_field เริ่มต้นการสร้างข้อมูล Followup ","2013-01-07 14:27:51","-","0","0"
"/www/ERP_crm/cronjob/create_follow_news.php","1531","arr_source chk_exits_follow_cus  TEST TEST TESTเริ่มต้นการสร้างข้อมูล Followup ","2013-01-07 14:27:51","-","0","0"
"/www/ERP_crm/cronjob/create_follow_news.php","1493","primary_field เริ่มต้นการสร้างข้อมูล Followup ","2013-01-07 14:27:51","-","0","0"
"/www/ERP_crm/cronjob/create_follow_news.php","1531","arr_source chk_exits_follow_cus  TEST TEST TESTเริ่มต้นการสร้างข้อมูล Followup ","2013-01-07 14:27:51","-","0","0"
"/www/ERP_crm/cronjob/create_follow_news.php","2579","สิ้นสุดการสร้างข้อมูล Followup ","-","2013-01-07 14:28:34","2779","0"
"/www/ERP_crm/cronjob/create_follow_news.php","117","เริ่มต้นการสร้างข้อมูล Followup ","2013-01-07 14:41:16","-","0","0"
"/www/ERP_crm/cronjob/create_follow_news.php","1493","primary_field เริ่มต้นการสร้างข้อมูล Followup ","2013-01-07 14:41:16","-","0","0"
"/www/ERP_crm/cronjob/create_follow_news.php","1531","arr_source chk_exits_follow_cus  TEST TEST TESTเริ่มต้นการสร้างข้อมูล Followup ","2013-01-07 14:41:16","-","0","0"
"/www/ERP_crm/cronjob/create_follow_news.php","1493","primary_field เริ่มต้นการสร้างข้อมูล Followup ","2013-01-07 14:41:16","-","0","0"
"/www/ERP_crm/cronjob/create_follow_news.php","1531","arr_source chk_exits_follow_cus  TEST TEST TESTเริ่มต้นการสร้างข้อมูล Followup ","2013-01-07 14:41:16","-","0","0"
"/www/ERP_crm/cronjob/create_follow_news.php","1493","primary_field เริ่มต้นการสร้างข้อมูล Followup ","2013-01-07 14:41:16","-","0","0"
"/www/ERP_crm/cronjob/create_follow_news.php","1531","arr_source chk_exits_follow_cus  TEST TEST TESTเริ่มต้นการสร้างข้อมูล Followup ","2013-01-07 14:41:16","-","0","0"
"/www/ERP_crm/cronjob/create_follow_news.php","1493","primary_field เริ่มต้นการสร้างข้อมูล Followup ","2013-01-07 14:41:16","-","0","0"
"/www/ERP_crm/cronjob/create_follow_news.php","1531","arr_source chk_exits_follow_cus  TEST TEST TESTเริ่มต้นการสร้างข้อมูล Followup ","2013-01-07 14:41:16","-","0","0"
"/www/ERP_crm/cronjob/create_follow_news.php","2579","สิ้นสุดการสร้างข้อมูล Followup ","-","2013-01-07 14:42:00","2779","0"
"/www/ERP_crm/cronjob/create_follow_news.php","117","เริ่มต้นการสร้างข้อมูล Followup ","2013-01-07 14:52:56","-","0","0"
"/www/ERP_crm/cronjob/create_follow_news.php","1493","primary_field เริ่มต้นการสร้างข้อมูล Followup ","2013-01-07 14:52:56","-","0","0"
"/www/ERP_crm/cronjob/create_follow_news.php","1531","arr_source chk_exits_follow_cus  TEST TEST TESTเริ่มต้นการสร้างข้อมูล Followup ","2013-01-07 14:52:56","-","0","0"
"/www/ERP_crm/cronjob/create_follow_news.php","1493","primary_field เริ่มต้นการสร้างข้อมูล Followup ","2013-01-07 14:52:56","-","0","0"
"/www/ERP_crm/cronjob/create_follow_news.php","1531","arr_source chk_exits_follow_cus  TEST TEST TESTเริ่มต้นการสร้างข้อมูล Followup ","2013-01-07 14:52:56","-","0","0"
"/www/ERP_crm/cronjob/create_follow_news.php","1493","primary_field เริ่มต้นการสร้างข้อมูล Followup ","2013-01-07 14:52:56","-","0","0"
"/www/ERP_crm/cronjob/create_follow_news.php","1531","arr_source chk_exits_follow_cus  TEST TEST TESTเริ่มต้นการสร้างข้อมูล Followup ","2013-01-07 14:52:56","-","0","0"
"/www/ERP_crm/cronjob/create_follow_news.php","1493","primary_field เริ่มต้นการสร้างข้อมูล Followup ","2013-01-07 14:52:56","-","0","0"
"/www/ERP_crm/cronjob/create_follow_news.php","1531","arr_source chk_exits_follow_cus  TEST TEST TESTเริ่มต้นการสร้างข้อมูล Followup ","2013-01-07 14:52:56","-","0","0"
"/www/ERP_crm/cronjob/create_follow_news.php","2579","สิ้นสุดการสร้างข้อมูล Followup ","-","2013-01-07 14:53:42","2779","0"
"/www/ERP_crm/cronjob/create_follow_news.php","117","เริ่มต้นการสร้างข้อมูล Followup ","2013-01-07 14:55:40","-","0","0"
"/www/ERP_crm/cronjob/create_follow_news.php","1493","primary_field เริ่มต้นการสร้างข้อมูล Followup ","2013-01-07 14:55:40","-","0","0"
"/www/ERP_crm/cronjob/create_follow_news.php","1531","arr_source chk_exits_follow_cus  TEST TEST TESTเริ่มต้นการสร้างข้อมูล Followup ","2013-01-07 14:55:40","-","0","0"
"/www/ERP_crm/cronjob/create_follow_news.php","1493","primary_field เริ่มต้นการสร้างข้อมูล Followup ","2013-01-07 14:55:40","-","0","0"
"/www/ERP_crm/cronjob/create_follow_news.php","1531","arr_source chk_exits_follow_cus  TEST TEST TESTเริ่มต้นการสร้างข้อมูล Followup ","2013-01-07 14:55:40","-","0","0"
"/www/ERP_crm/cronjob/create_follow_news.php","1493","primary_field เริ่มต้นการสร้างข้อมูล Followup ","2013-01-07 14:55:40","-","0","0"
"/www/ERP_crm/cronjob/create_follow_news.php","1531","arr_source chk_exits_follow_cus  TEST TEST TESTเริ่มต้นการสร้างข้อมูล Followup ","2013-01-07 14:55:40","-","0","0"
"/www/ERP_crm/cronjob/create_follow_news.php","1493","primary_field เริ่มต้นการสร้างข้อมูล Followup ","2013-01-07 14:55:40","-","0","0"
"/www/ERP_crm/cronjob/create_follow_news.php","1531","arr_source chk_exits_follow_cus  TEST TEST TESTเริ่มต้นการสร้างข้อมูล Followup ","2013-01-07 14:55:40","-","0","0"
"/www/ERP_crm/cronjob/create_follow_news.php","2579","สิ้นสุดการสร้างข้อมูล Followup ","-","2013-01-07 14:56:24","2779","0"
