"FILE","LINE","TITLE","START_TIME","SUCCESS_TIME","FOLLOW","AllCusLOOP"
"/www/ERP_crm/cronjob/create_follow_news.php","117","เริ่มต้นการสร้างข้อมูล Followup ","2012-12-19 10:37:31","-","0","0"
"/www/ERP_crm/cronjob/create_follow_news.php","1444","primary_field เริ่มต้นการสร้างข้อมูล Followup ","2012-12-19 10:37:31","-","0","0"
"/www/ERP_crm/cronjob/create_follow_news.php","1482","arr_source chk_exits_follow_cus  TEST TEST TESTเริ่มต้นการสร้างข้อมูล Followup ","2012-12-19 10:37:31","-","0","0"
"/www/ERP_crm/cronjob/create_follow_news.php","1444","primary_field เริ่มต้นการสร้างข้อมูล Followup ","2012-12-19 10:37:31","-","0","0"
"/www/ERP_crm/cronjob/create_follow_news.php","1482","arr_source chk_exits_follow_cus  TEST TEST TESTเริ่มต้นการสร้างข้อมูล Followup ","2012-12-19 10:37:31","-","0","0"
"/www/ERP_crm/cronjob/create_follow_news.php","2530","สิ้นสุดการสร้างข้อมูล Followup ","-","2012-12-19 10:37:52","619","0"
"/www/ERP_crm/cronjob/create_follow_news.php","117","เริ่มต้นการสร้างข้อมูล Followup ","2012-12-19 10:39:49","-","0","0"
"/www/ERP_crm/cronjob/create_follow_news.php","1444","primary_field เริ่มต้นการสร้างข้อมูล Followup ","2012-12-19 10:39:49","-","0","0"
"/www/ERP_crm/cronjob/create_follow_news.php","1482","arr_source chk_exits_follow_cus  TEST TEST TESTเริ่มต้นการสร้างข้อมูล Followup ","2012-12-19 10:39:49","-","0","0"
"/www/ERP_crm/cronjob/create_follow_news.php","1444","primary_field เริ่มต้นการสร้างข้อมูล Followup ","2012-12-19 10:39:49","-","0","0"
"/www/ERP_crm/cronjob/create_follow_news.php","1482","arr_source chk_exits_follow_cus  TEST TEST TESTเริ่มต้นการสร้างข้อมูล Followup ","2012-12-19 10:39:49","-","0","0"
"/www/ERP_crm/cronjob/create_follow_news.php","2530","สิ้นสุดการสร้างข้อมูล Followup ","-","2012-12-19 10:41:04","619","0"
"/www/ERP_crm/cronjob/create_follow_news.php","117","เริ่มต้นการสร้างข้อมูล Followup ","2012-12-19 10:57:47","-","0","0"
"/www/ERP_crm/cronjob/create_follow_news.php","1444","primary_field เริ่มต้นการสร้างข้อมูล Followup ","2012-12-19 10:57:47","-","0","0"
"/www/ERP_crm/cronjob/create_follow_news.php","1482","arr_source chk_exits_follow_cus  TEST TEST TESTเริ่มต้นการสร้างข้อมูล Followup ","2012-12-19 10:57:47","-","0","0"
"/www/ERP_crm/cronjob/create_follow_news.php","1444","primary_field เริ่มต้นการสร้างข้อมูล Followup ","2012-12-19 10:57:47","-","0","0"
"/www/ERP_crm/cronjob/create_follow_news.php","1482","arr_source chk_exits_follow_cus  TEST TEST TESTเริ่มต้นการสร้างข้อมูล Followup ","2012-12-19 10:57:47","-","0","0"
"/www/ERP_crm/cronjob/create_follow_news.php","2530","สิ้นสุดการสร้างข้อมูล Followup ","-","2012-12-19 10:58:13","619","0"
"/www/ERP_crm/cronjob/create_follow_news.php","117","เริ่มต้นการสร้างข้อมูล Followup ","2012-12-19 10:59:57","-","0","0"
"/www/ERP_crm/cronjob/create_follow_news.php","1444","primary_field เริ่มต้นการสร้างข้อมูล Followup ","2012-12-19 10:59:57","-","0","0"
"/www/ERP_crm/cronjob/create_follow_news.php","1482","arr_source chk_exits_follow_cus  TEST TEST TESTเริ่มต้นการสร้างข้อมูล Followup ","2012-12-19 10:59:57","-","0","0"
"/www/ERP_crm/cronjob/create_follow_news.php","1444","primary_field เริ่มต้นการสร้างข้อมูล Followup ","2012-12-19 10:59:57","-","0","0"
"/www/ERP_crm/cronjob/create_follow_news.php","1482","arr_source chk_exits_follow_cus  TEST TEST TESTเริ่มต้นการสร้างข้อมูล Followup ","2012-12-19 10:59:57","-","0","0"
"/www/ERP_crm/cronjob/create_follow_news.php","2530","สิ้นสุดการสร้างข้อมูล Followup ","-","2012-12-19 11:01:09","619","0"
"/www/ERP_crm/cronjob/create_follow_news.php","117","เริ่มต้นการสร้างข้อมูล Followup ","2012-12-19 11:02:53","-","0","0"
"/www/ERP_crm/cronjob/create_follow_news.php","1450","primary_field เริ่มต้นการสร้างข้อมูล Followup ","2012-12-19 11:02:53","-","0","0"
"/www/ERP_crm/cronjob/create_follow_news.php","1488","arr_source chk_exits_follow_cus  TEST TEST TESTเริ่มต้นการสร้างข้อมูล Followup ","2012-12-19 11:02:53","-","0","0"
"/www/ERP_crm/cronjob/create_follow_news.php","1450","primary_field เริ่มต้นการสร้างข้อมูล Followup ","2012-12-19 11:02:53","-","0","0"
"/www/ERP_crm/cronjob/create_follow_news.php","1488","arr_source chk_exits_follow_cus  TEST TEST TESTเริ่มต้นการสร้างข้อมูล Followup ","2012-12-19 11:02:53","-","0","0"
"/www/ERP_crm/cronjob/create_follow_news.php","2536","สิ้นสุดการสร้างข้อมูล Followup ","-","2012-12-19 11:06:02","619","0"
"/www/ERP_crm/cronjob/create_follow_news.php","117","เริ่มต้นการสร้างข้อมูล Followup ","2012-12-19 11:20:33","-","0","0"
"/www/ERP_crm/cronjob/create_follow_news.php","1450","primary_field เริ่มต้นการสร้างข้อมูล Followup ","2012-12-19 11:20:33","-","0","0"
"/www/ERP_crm/cronjob/create_follow_news.php","1488","arr_source chk_exits_follow_cus  TEST TEST TESTเริ่มต้นการสร้างข้อมูล Followup ","2012-12-19 11:20:33","-","0","0"
"/www/ERP_crm/cronjob/create_follow_news.php","1450","primary_field เริ่มต้นการสร้างข้อมูล Followup ","2012-12-19 11:20:33","-","0","0"
"/www/ERP_crm/cronjob/create_follow_news.php","1488","arr_source chk_exits_follow_cus  TEST TEST TESTเริ่มต้นการสร้างข้อมูล Followup ","2012-12-19 11:20:33","-","0","0"
"/www/ERP_crm/cronjob/create_follow_news.php","2536","สิ้นสุดการสร้างข้อมูล Followup ","-","2012-12-19 11:21:15","619","0"
"/www/ERP_crm/cronjob/create_follow_news.php","117","เริ่มต้นการสร้างข้อมูล Followup ","2012-12-19 11:22:54","-","0","0"
"/www/ERP_crm/cronjob/create_follow_news.php","1450","primary_field เริ่มต้นการสร้างข้อมูล Followup ","2012-12-19 11:22:54","-","0","0"
"/www/ERP_crm/cronjob/create_follow_news.php","1488","arr_source chk_exits_follow_cus  TEST TEST TESTเริ่มต้นการสร้างข้อมูล Followup ","2012-12-19 11:22:54","-","0","0"
"/www/ERP_crm/cronjob/create_follow_news.php","1450","primary_field เริ่มต้นการสร้างข้อมูล Followup ","2012-12-19 11:22:54","-","0","0"
"/www/ERP_crm/cronjob/create_follow_news.php","1488","arr_source chk_exits_follow_cus  TEST TEST TESTเริ่มต้นการสร้างข้อมูล Followup ","2012-12-19 11:22:54","-","0","0"
"/www/ERP_crm/cronjob/create_follow_news.php","2536","สิ้นสุดการสร้างข้อมูล Followup ","-","2012-12-19 11:23:36","619","0"
