"FILE","LINE","TITLE","START_TIME","SUCCESS_TIME","FOLLOW","AllCusLOOP"
"/www/ERP_crm/cronjob/create_follow_news.php","127","เริ่มต้นการสร้างข้อมูล Followup ","2013-03-25 17:00:38","-","0","0"
"/www/ERP_crm/cronjob/create_follow_news.php","1524","primary_field เริ่มต้นการสร้างข้อมูล Followup ","2013-03-25 17:00:38","-","0","0"
"/www/ERP_crm/cronjob/create_follow_news.php","1563","arr_source chk_exits_follow_cus  TEST TEST TESTเริ่มต้นการสร้างข้อมูล Followup ","2013-03-25 17:00:38","-","0","0"
"/www/ERP_crm/cronjob/create_follow_news.php","1524","primary_field เริ่มต้นการสร้างข้อมูล Followup ","2013-03-25 17:00:38","-","0","0"
"/www/ERP_crm/cronjob/create_follow_news.php","1563","arr_source chk_exits_follow_cus  TEST TEST TESTเริ่มต้นการสร้างข้อมูล Followup ","2013-03-25 17:00:38","-","0","0"
"/www/ERP_crm/cronjob/create_follow_news.php","1524","primary_field เริ่มต้นการสร้างข้อมูล Followup ","2013-03-25 17:00:38","-","0","0"
"/www/ERP_crm/cronjob/create_follow_news.php","1563","arr_source chk_exits_follow_cus  TEST TEST TESTเริ่มต้นการสร้างข้อมูล Followup ","2013-03-25 17:00:38","-","0","0"
"/www/ERP_crm/cronjob/create_follow_news.php","1524","primary_field เริ่มต้นการสร้างข้อมูล Followup ","2013-03-25 17:00:38","-","0","0"
"/www/ERP_crm/cronjob/create_follow_news.php","1563","arr_source chk_exits_follow_cus  TEST TEST TESTเริ่มต้นการสร้างข้อมูล Followup ","2013-03-25 17:00:38","-","0","0"
"/www/ERP_crm/cronjob/create_follow_news.php","1524","primary_field เริ่มต้นการสร้างข้อมูล Followup ","2013-03-25 17:00:38","-","0","0"
"/www/ERP_crm/cronjob/create_follow_news.php","1563","arr_source chk_exits_follow_cus  TEST TEST TESTเริ่มต้นการสร้างข้อมูล Followup ","2013-03-25 17:00:38","-","0","0"
"/www/ERP_crm/cronjob/create_follow_news.php","1524","primary_field เริ่มต้นการสร้างข้อมูล Followup ","2013-03-25 17:00:38","-","0","0"
"/www/ERP_crm/cronjob/create_follow_news.php","1563","arr_source chk_exits_follow_cus  TEST TEST TESTเริ่มต้นการสร้างข้อมูล Followup ","2013-03-25 17:00:38","-","0","0"
"/www/ERP_crm/cronjob/create_follow_news.php","1524","primary_field เริ่มต้นการสร้างข้อมูล Followup ","2013-03-25 17:00:38","-","0","0"
"/www/ERP_crm/cronjob/create_follow_news.php","1563","arr_source chk_exits_follow_cus  TEST TEST TESTเริ่มต้นการสร้างข้อมูล Followup ","2013-03-25 17:00:38","-","0","0"
"/www/ERP_crm/cronjob/create_follow_news.php","1524","primary_field เริ่มต้นการสร้างข้อมูล Followup ","2013-03-25 17:00:38","-","0","0"
"/www/ERP_crm/cronjob/create_follow_news.php","1563","arr_source chk_exits_follow_cus  TEST TEST TESTเริ่มต้นการสร้างข้อมูล Followup ","2013-03-25 17:00:38","-","0","0"
"/www/ERP_crm/cronjob/create_follow_news.php","2284","primary_field เริ่มต้นการสร้างข้อมูล Followup ","2013-03-25 17:00:38","-","0","0"
"/www/ERP_crm/cronjob/create_follow_news.php","2312","arr_source chk_exits_follow_cus  TEST TEST TESTเริ่มต้นการสร้างข้อมูล Followup ","2013-03-25 17:00:38","-","0","0"
"/www/ERP_crm/cronjob/create_follow_news.php","2284","primary_field เริ่มต้นการสร้างข้อมูล Followup ","2013-03-25 17:00:38","-","0","0"
"/www/ERP_crm/cronjob/create_follow_news.php","2312","arr_source chk_exits_follow_cus  TEST TEST TESTเริ่มต้นการสร้างข้อมูล Followup ","2013-03-25 17:00:38","-","0","0"
"/www/ERP_crm/cronjob/create_follow_news.php","2719","สิ้นสุดการสร้างข้อมูล Followup ","-","2013-03-25 17:09:44","8526","0"
"/www/ERP_crm/cronjob/create_follow_news.php","127","เริ่มต้นการสร้างข้อมูล Followup ","2013-03-25 17:25:23","-","0","0"
"/www/ERP_crm/cronjob/create_follow_news.php","1524","primary_field เริ่มต้นการสร้างข้อมูล Followup ","2013-03-25 17:25:23","-","0","0"
"/www/ERP_crm/cronjob/create_follow_news.php","1563","arr_source chk_exits_follow_cus  TEST TEST TESTเริ่มต้นการสร้างข้อมูล Followup ","2013-03-25 17:25:23","-","0","0"
"/www/ERP_crm/cronjob/create_follow_news.php","1524","primary_field เริ่มต้นการสร้างข้อมูล Followup ","2013-03-25 17:25:23","-","0","0"
"/www/ERP_crm/cronjob/create_follow_news.php","1563","arr_source chk_exits_follow_cus  TEST TEST TESTเริ่มต้นการสร้างข้อมูล Followup ","2013-03-25 17:25:23","-","0","0"
"/www/ERP_crm/cronjob/create_follow_news.php","1524","primary_field เริ่มต้นการสร้างข้อมูล Followup ","2013-03-25 17:25:23","-","0","0"
"/www/ERP_crm/cronjob/create_follow_news.php","1563","arr_source chk_exits_follow_cus  TEST TEST TESTเริ่มต้นการสร้างข้อมูล Followup ","2013-03-25 17:25:23","-","0","0"
"/www/ERP_crm/cronjob/create_follow_news.php","1524","primary_field เริ่มต้นการสร้างข้อมูล Followup ","2013-03-25 17:25:23","-","0","0"
"/www/ERP_crm/cronjob/create_follow_news.php","1563","arr_source chk_exits_follow_cus  TEST TEST TESTเริ่มต้นการสร้างข้อมูล Followup ","2013-03-25 17:25:23","-","0","0"
"/www/ERP_crm/cronjob/create_follow_news.php","1524","primary_field เริ่มต้นการสร้างข้อมูล Followup ","2013-03-25 17:25:23","-","0","0"
"/www/ERP_crm/cronjob/create_follow_news.php","1563","arr_source chk_exits_follow_cus  TEST TEST TESTเริ่มต้นการสร้างข้อมูล Followup ","2013-03-25 17:25:23","-","0","0"
"/www/ERP_crm/cronjob/create_follow_news.php","1524","primary_field เริ่มต้นการสร้างข้อมูล Followup ","2013-03-25 17:25:23","-","0","0"
"/www/ERP_crm/cronjob/create_follow_news.php","1563","arr_source chk_exits_follow_cus  TEST TEST TESTเริ่มต้นการสร้างข้อมูล Followup ","2013-03-25 17:25:23","-","0","0"
"/www/ERP_crm/cronjob/create_follow_news.php","1524","primary_field เริ่มต้นการสร้างข้อมูล Followup ","2013-03-25 17:25:23","-","0","0"
"/www/ERP_crm/cronjob/create_follow_news.php","1563","arr_source chk_exits_follow_cus  TEST TEST TESTเริ่มต้นการสร้างข้อมูล Followup ","2013-03-25 17:25:23","-","0","0"
"/www/ERP_crm/cronjob/create_follow_news.php","1524","primary_field เริ่มต้นการสร้างข้อมูล Followup ","2013-03-25 17:25:23","-","0","0"
"/www/ERP_crm/cronjob/create_follow_news.php","1563","arr_source chk_exits_follow_cus  TEST TEST TESTเริ่มต้นการสร้างข้อมูล Followup ","2013-03-25 17:25:23","-","0","0"
"/www/ERP_crm/cronjob/create_follow_news.php","2284","primary_field เริ่มต้นการสร้างข้อมูล Followup ","2013-03-25 17:25:23","-","0","0"
"/www/ERP_crm/cronjob/create_follow_news.php","2312","arr_source chk_exits_follow_cus  TEST TEST TESTเริ่มต้นการสร้างข้อมูล Followup ","2013-03-25 17:25:23","-","0","0"
"/www/ERP_crm/cronjob/create_follow_news.php","2284","primary_field เริ่มต้นการสร้างข้อมูล Followup ","2013-03-25 17:25:23","-","0","0"
"/www/ERP_crm/cronjob/create_follow_news.php","2312","arr_source chk_exits_follow_cus  TEST TEST TESTเริ่มต้นการสร้างข้อมูล Followup ","2013-03-25 17:25:23","-","0","0"
"/www/ERP_crm/cronjob/create_follow_news.php","2719","สิ้นสุดการสร้างข้อมูล Followup ","-","2013-03-25 17:34:08","8526","0"
