FollowDate,PersonName,CompanyName,FollowType,FollowPeriod,ScName,ActionDate,DealerName,BranchName,VIN,InterestMarketName,Engine,DeliveryDate,Address,Phone,Remark,ContactDetail,SQ1Score,SQ2Score,StatusId,FollowUpStatus,ModelGroup,IsUnContact,UnContactReason,IsReferral,IsRePurchase,IsAdditional,SalesOppNo,ActionDealerName,ActionBranchName,ActionScName
02/08/2014,,เชียงรายสหทวีกิจ (1993),สร้างความประทับใจ,10D  ,CR,,40140100 : บริษัท อีซูซุเชียงราย (2002) จำกัด,เชียงราย (สนญ.),MP1TFR86JEG005951   ,Cab4 2.5 S,LP2607,23/7/2014,เลขที่ 808/19 ถ.พหลโยธิน ต.เวียง อ.เมืองเชียงราย จ.เชียงราย 57000,53742337,,,97,100,1,รอการติดตาม,PICKUP    ,,,,,,,,,
02/08/2014,,ประสงค์ทวีทรัพย์,สร้างความสัมพันธ์,28M  ,,04/08/2014,40140100 : บริษัท อีซูซุเชียงราย (2002) จำกัด,เชียงราย (สนญ.),MP1TFR86JCT143805   ,HR 4Drs 2.5 VGS Z DVD,JN6134,2/4/2012,เลขที่ 111/9 หมู่ที่ 3 ม. ภูคำ ต.รอบเวียง อ.เมืองเชียงราย จ.เชียงราย 57000,53746161,,remark,,,2,เสร็จสมบูรณ์,PICKUP    ,,,,,,,40140100 : บริษัท อีซูซุเชียงราย (2002) จำกัด,เชียงราย (สนญ.),J1119 : วัชระ เยาว์ธานี
02/08/2014,สมชาย นวลมะ,,เพื่อซื้อทดแทน,54M  ,J0107 : พิบูลย์ศักดิ์ พิมสาร,,40140100 : บริษัท อีซูซุเชียงราย (2002) จำกัด,เชียงราย (สนญ.),MP1TFR86HAT119124   ,SLX2.5 ABS/SRS,GW1791,2/2/2010,เลขที่ 12 หมู่ที่ 10 ต.แม่เปา อ.พญาเม็งราย จ.เชียงราย 57290,53959198,,,,,1,รอการติดตาม,PICKUP    ,,,,,,,,,
02/08/2014,เกรียงศักดิ์ พิร่ำ,,เพื่อซื้อทดแทน,70M  ,J1186 : ปรัชญา จินดาธรรม,,40140100 : บริษัท อีซูซุเชียงราย (2002) จำกัด,เชียงราย (สนญ.),MP1TFR86H8T201625   ,CAB4 SLX2.5 HR ABS,FY6530,2/10/2008,เลขที่ 359 หมู่ที่ 2 ต.จันจว้าใต้ อ.แม่จัน จ.เชียงราย 57270,819939614,,,,,1,รอการติดตาม,PICKUP    ,,,,,,,,,
02/08/2014,เมา เจนคิด,,เพื่อซื้อทดแทน,58M  ,J0458 : ชีวพร แถลงนิตย์,04/08/2014,40140100 : บริษัท อีซูซุเชียงราย (2002) จำกัด,เชียงราย (สนญ.),MP1TFR86H9T167100   ,SLX2.5 HR ABS,GP9354,2/10/2009,เลขที่ 106 หมู่ที ่ 9 หมู่ที่ 9 ต.เวียงชัย อ.เวียงชัย จ.เชียงราย 57210,53662939,,remark,,,2,เสร็จสมบูรณ์,PICKUP    ,,,,,,,40140100 : บริษัท อีซูซุเชียงราย (2002) จำกัด,เชียงราย (สนญ.),J0458 : ชีวพร แถลงนิตย์
02/08/2014,สุทิตย์ ทิพละ,,เพื่อซื้อทดแทน,58M  ,J0107 : พิบูลย์ศักดิ์ พิมสาร,,40140100 : บริษัท อีซูซุเชียงราย (2002) จำกัด,เชียงราย (สนญ.),MP1TFR85H9T109608   ,SLX3.0 ABS/SRS,GP3832,2/10/2009,เลขที่ 151 หมู่ที่ 12 ต.ร่มเย็น อ.เชียงคำ จ.พะเยา 56110,847126752,,,,,1,รอการติดตาม,PICKUP    ,,,,,,,,,
