"FILE","LINE","TITLE","START_TIME","SUCCESS_TIME","FOLLOW","AllCusLOOP"
"/www/ERP_crm/cronjob/create_follow_news.php","116","เริ่มต้นการสร้างข้อมูล Followup ","2012-11-09 11:09:02","-","0","0"
"/www/ERP_crm/cronjob/create_follow_news.php","1837","สิ้นสุดการสร้างข้อมูล Followup ","-","2012-11-09 11:09:06","0","0"
"/www/ERP_crm/cronjob/create_follow_news.php","116","เริ่มต้นการสร้างข้อมูล Followup ","2012-11-09 11:19:01","-","0","0"
"/www/ERP_crm/cronjob/create_follow_news.php","1837","สิ้นสุดการสร้างข้อมูล Followup ","-","2012-11-09 11:19:05","0","0"
"/www/ERP_crm/cronjob/create_follow_news.php","116","เริ่มต้นการสร้างข้อมูล Followup ","2012-11-09 11:31:01","-","0","0"
"/www/ERP_crm/cronjob/create_follow_news.php","1837","สิ้นสุดการสร้างข้อมูล Followup ","-","2012-11-09 11:31:04","0","0"
"/www/ERP_crm/cronjob/create_follow_news.php","116","เริ่มต้นการสร้างข้อมูล Followup ","2012-11-09 11:39:01","-","0","0"
"/www/ERP_crm/cronjob/create_follow_news.php","1837","สิ้นสุดการสร้างข้อมูล Followup ","-","2012-11-09 11:39:04","0","0"
"/www/ERP_crm/cronjob/create_follow_news.php","116","เริ่มต้นการสร้างข้อมูล Followup ","2012-11-09 15:09:01","-","0","0"
"/www/ERP_crm/cronjob/create_follow_news.php","1837","สิ้นสุดการสร้างข้อมูล Followup ","-","2012-11-09 15:09:05","0","0"
"/www/ERP_crm/cronjob/create_follow_news.php","116","เริ่มต้นการสร้างข้อมูล Followup ","2012-11-09 15:19:01","-","0","0"
"/www/ERP_crm/cronjob/create_follow_news.php","1837","สิ้นสุดการสร้างข้อมูล Followup ","-","2012-11-09 15:19:04","0","0"
"/www/ERP_crm/cronjob/create_follow_news.php","116","เริ่มต้นการสร้างข้อมูล Followup ","2012-11-09 15:31:01","-","0","0"
"/www/ERP_crm/cronjob/create_follow_news.php","1837","สิ้นสุดการสร้างข้อมูล Followup ","-","2012-11-09 15:31:04","0","0"
"/www/ERP_crm/cronjob/create_follow_news.php","116","เริ่มต้นการสร้างข้อมูล Followup ","2012-11-09 15:39:01","-","0","0"
"/www/ERP_crm/cronjob/create_follow_news.php","1837","สิ้นสุดการสร้างข้อมูล Followup ","-","2012-11-09 15:39:04","0","0"
