"FILE","LINE","TITLE","START_TIME","SUCCESS_TIME","FOLLOW","AllCusLOOP"
"/www/crm/cronjob/create_follow_news.php","115","เริ่มต้นการสร้างข้อมูล Followup ","2012-10-05 11:09:01","-","0","0"
"/www/crm/cronjob/create_follow_news.php","1820","สิ้นสุดการสร้างข้อมูล Followup ","-","2012-10-05 11:12:01","0","0"
"/www/crm/cronjob/create_follow_news.php","115","เริ่มต้นการสร้างข้อมูล Followup ","2012-10-05 11:19:01","-","0","0"
"/www/crm/cronjob/create_follow_news.php","1820","สิ้นสุดการสร้างข้อมูล Followup ","-","2012-10-05 11:22:10","0","0"
"/www/crm/cronjob/create_follow_news.php","115","เริ่มต้นการสร้างข้อมูล Followup ","2012-10-05 11:31:01","-","0","0"
"/www/crm/cronjob/create_follow_news.php","1820","สิ้นสุดการสร้างข้อมูล Followup ","-","2012-10-05 11:34:05","0","0"
"/www/crm/cronjob/create_follow_news.php","115","เริ่มต้นการสร้างข้อมูล Followup ","2012-10-05 11:39:02","-","0","0"
"/www/crm/cronjob/create_follow_news.php","1820","สิ้นสุดการสร้างข้อมูล Followup ","-","2012-10-05 11:41:55","0","0"
"/www/crm/cronjob/create_follow_news.php","115","เริ่มต้นการสร้างข้อมูล Followup ","2012-10-05 15:09:01","-","0","0"
"/www/crm/cronjob/create_follow_news.php","1820","สิ้นสุดการสร้างข้อมูล Followup ","-","2012-10-05 15:11:51","0","0"
"/www/crm/cronjob/create_follow_news.php","115","เริ่มต้นการสร้างข้อมูล Followup ","2012-10-05 15:19:01","-","0","0"
"/www/crm/cronjob/create_follow_news.php","1820","สิ้นสุดการสร้างข้อมูล Followup ","-","2012-10-05 15:21:43","0","0"
"/www/crm/cronjob/create_follow_news.php","115","เริ่มต้นการสร้างข้อมูล Followup ","2012-10-05 15:31:02","-","0","0"
"/www/crm/cronjob/create_follow_news.php","1820","สิ้นสุดการสร้างข้อมูล Followup ","-","2012-10-05 15:33:49","0","0"
"/www/crm/cronjob/create_follow_news.php","115","เริ่มต้นการสร้างข้อมูล Followup ","2012-10-05 15:39:01","-","0","0"
"/www/crm/cronjob/create_follow_news.php","1820","สิ้นสุดการสร้างข้อมูล Followup ","-","2012-10-05 15:41:47","0","0"
