"FILE","LINE","TITLE","START_TIME","SUCCESS_TIME","FOLLOW","AllCusLOOP"
"/www/ERP_crm/cronjob/create_follow_news.php","127","เริ่มต้นการสร้างข้อมูล Followup ","2013-05-15 00:00:01","-","0","0"
"/www/ERP_crm/cronjob/create_follow_news.php","1516","primary_field เริ่มต้นการสร้างข้อมูล Followup ","2013-05-15 00:00:01","-","0","0"
"/www/ERP_crm/cronjob/create_follow_news.php","1516","primary_field เริ่มต้นการสร้างข้อมูล Followup ","2013-05-15 00:00:01","-","0","0"
"/www/ERP_crm/cronjob/create_follow_news.php","1516","primary_field เริ่มต้นการสร้างข้อมูล Followup ","2013-05-15 00:00:01","-","0","0"
"/www/ERP_crm/cronjob/create_follow_news.php","1516","primary_field เริ่มต้นการสร้างข้อมูล Followup ","2013-05-15 00:00:01","-","0","0"
"/www/ERP_crm/cronjob/create_follow_news.php","1516","primary_field เริ่มต้นการสร้างข้อมูล Followup ","2013-05-15 00:00:01","-","0","0"
"/www/ERP_crm/cronjob/create_follow_news.php","1516","primary_field เริ่มต้นการสร้างข้อมูล Followup ","2013-05-15 00:00:01","-","0","0"
"/www/ERP_crm/cronjob/create_follow_news.php","1516","primary_field เริ่มต้นการสร้างข้อมูล Followup ","2013-05-15 00:00:01","-","0","0"
"/www/ERP_crm/cronjob/create_follow_news.php","1516","primary_field เริ่มต้นการสร้างข้อมูล Followup ","2013-05-15 00:00:01","-","0","0"
"/www/ERP_crm/cronjob/create_follow_news.php","2269","primary_field เริ่มต้นการสร้างข้อมูล Followup ","2013-05-15 00:00:01","-","0","0"
"/www/ERP_crm/cronjob/create_follow_news.php","2269","primary_field เริ่มต้นการสร้างข้อมูล Followup ","2013-05-15 00:00:01","-","0","0"
"/www/ERP_crm/cronjob/create_follow_news.php","2698","สิ้นสุดการสร้างข้อมูล Followup ","-","2013-05-15 00:17:46","9870","0"
