"FILE","LINE","TITLE","START_TIME","SUCCESS_TIME","FOLLOW","AllCusLOOP"
"/www/ERP_crm/cronjob/create_follow_news.php","127","เริ่มต้นการสร้างข้อมูล Followup ","2013-04-29 17:13:42","-","0","0"
"/www/ERP_crm/cronjob/create_follow_news.php","2278","primary_field เริ่มต้นการสร้างข้อมูล Followup ","2013-04-29 17:13:42","-","0","0"
"/www/ERP_crm/cronjob/create_follow_news.php","2306","arr_source chk_exits_follow_cus  TEST TEST TESTเริ่มต้นการสร้างข้อมูล Followup ","2013-04-29 17:13:42","-","0","0"
"/www/ERP_crm/cronjob/create_follow_news.php","1518","primary_field เริ่มต้นการสร้างข้อมูล Followup ","2013-04-29 17:13:42","-","0","0"
"/www/ERP_crm/cronjob/create_follow_news.php","1557","arr_source chk_exits_follow_cus  TEST TEST TESTเริ่มต้นการสร้างข้อมูล Followup ","2013-04-29 17:13:42","-","0","0"
"/www/ERP_crm/cronjob/create_follow_news.php","1518","primary_field เริ่มต้นการสร้างข้อมูล Followup ","2013-04-29 17:13:42","-","0","0"
"/www/ERP_crm/cronjob/create_follow_news.php","1557","arr_source chk_exits_follow_cus  TEST TEST TESTเริ่มต้นการสร้างข้อมูล Followup ","2013-04-29 17:13:42","-","0","0"
"/www/ERP_crm/cronjob/create_follow_news.php","1518","primary_field เริ่มต้นการสร้างข้อมูล Followup ","2013-04-29 17:13:42","-","0","0"
"/www/ERP_crm/cronjob/create_follow_news.php","1557","arr_source chk_exits_follow_cus  TEST TEST TESTเริ่มต้นการสร้างข้อมูล Followup ","2013-04-29 17:13:42","-","0","0"
"/www/ERP_crm/cronjob/create_follow_news.php","1518","primary_field เริ่มต้นการสร้างข้อมูล Followup ","2013-04-29 17:13:42","-","0","0"
"/www/ERP_crm/cronjob/create_follow_news.php","1557","arr_source chk_exits_follow_cus  TEST TEST TESTเริ่มต้นการสร้างข้อมูล Followup ","2013-04-29 17:13:42","-","0","0"
"/www/ERP_crm/cronjob/create_follow_news.php","1518","primary_field เริ่มต้นการสร้างข้อมูล Followup ","2013-04-29 17:13:42","-","0","0"
"/www/ERP_crm/cronjob/create_follow_news.php","1557","arr_source chk_exits_follow_cus  TEST TEST TESTเริ่มต้นการสร้างข้อมูล Followup ","2013-04-29 17:13:42","-","0","0"
"/www/ERP_crm/cronjob/create_follow_news.php","1518","primary_field เริ่มต้นการสร้างข้อมูล Followup ","2013-04-29 17:13:42","-","0","0"
"/www/ERP_crm/cronjob/create_follow_news.php","1557","arr_source chk_exits_follow_cus  TEST TEST TESTเริ่มต้นการสร้างข้อมูล Followup ","2013-04-29 17:13:42","-","0","0"
"/www/ERP_crm/cronjob/create_follow_news.php","1518","primary_field เริ่มต้นการสร้างข้อมูล Followup ","2013-04-29 17:13:42","-","0","0"
"/www/ERP_crm/cronjob/create_follow_news.php","1557","arr_source chk_exits_follow_cus  TEST TEST TESTเริ่มต้นการสร้างข้อมูล Followup ","2013-04-29 17:13:42","-","0","0"
"/www/ERP_crm/cronjob/create_follow_news.php","1518","primary_field เริ่มต้นการสร้างข้อมูล Followup ","2013-04-29 17:13:42","-","0","0"
"/www/ERP_crm/cronjob/create_follow_news.php","1557","arr_source chk_exits_follow_cus  TEST TEST TESTเริ่มต้นการสร้างข้อมูล Followup ","2013-04-29 17:13:42","-","0","0"
"/www/ERP_crm/cronjob/create_follow_news.php","2278","primary_field เริ่มต้นการสร้างข้อมูล Followup ","2013-04-29 17:13:42","-","0","0"
"/www/ERP_crm/cronjob/create_follow_news.php","2306","arr_source chk_exits_follow_cus  TEST TEST TESTเริ่มต้นการสร้างข้อมูล Followup ","2013-04-29 17:13:42","-","0","0"
"/www/ERP_crm/cronjob/create_follow_news.php","2278","primary_field เริ่มต้นการสร้างข้อมูล Followup ","2013-04-29 17:13:42","-","0","0"
"/www/ERP_crm/cronjob/create_follow_news.php","2306","arr_source chk_exits_follow_cus  TEST TEST TESTเริ่มต้นการสร้างข้อมูล Followup ","2013-04-29 17:13:42","-","0","0"
"/www/ERP_crm/cronjob/create_follow_news.php","2713","สิ้นสุดการสร้างข้อมูล Followup ","-","2013-04-29 17:23:36","8575","0"
