"FILE","LINE","TITLE","START_TIME","SUCCESS_TIME","FOLLOW","AllCusLOOP"
"/www/ERP_crm/cronjob/create_follow_news.php","127","เริ่มต้นการสร้างข้อมูล Followup ","2013-04-06 08:53:17","-","0","0"
"/www/ERP_crm/cronjob/create_follow_news.php","1518","primary_field เริ่มต้นการสร้างข้อมูล Followup ","2013-04-06 08:53:17","-","0","0"
"/www/ERP_crm/cronjob/create_follow_news.php","1557","arr_source chk_exits_follow_cus  TEST TEST TESTเริ่มต้นการสร้างข้อมูล Followup ","2013-04-06 08:53:17","-","0","0"
"/www/ERP_crm/cronjob/create_follow_news.php","1518","primary_field เริ่มต้นการสร้างข้อมูล Followup ","2013-04-06 08:53:17","-","0","0"
"/www/ERP_crm/cronjob/create_follow_news.php","1557","arr_source chk_exits_follow_cus  TEST TEST TESTเริ่มต้นการสร้างข้อมูล Followup ","2013-04-06 08:53:17","-","0","0"
"/www/ERP_crm/cronjob/create_follow_news.php","1518","primary_field เริ่มต้นการสร้างข้อมูล Followup ","2013-04-06 08:53:17","-","0","0"
"/www/ERP_crm/cronjob/create_follow_news.php","1557","arr_source chk_exits_follow_cus  TEST TEST TESTเริ่มต้นการสร้างข้อมูล Followup ","2013-04-06 08:53:17","-","0","0"
"/www/ERP_crm/cronjob/create_follow_news.php","1518","primary_field เริ่มต้นการสร้างข้อมูล Followup ","2013-04-06 08:53:17","-","0","0"
"/www/ERP_crm/cronjob/create_follow_news.php","1557","arr_source chk_exits_follow_cus  TEST TEST TESTเริ่มต้นการสร้างข้อมูล Followup ","2013-04-06 08:53:17","-","0","0"
"/www/ERP_crm/cronjob/create_follow_news.php","1518","primary_field เริ่มต้นการสร้างข้อมูล Followup ","2013-04-06 08:53:17","-","0","0"
"/www/ERP_crm/cronjob/create_follow_news.php","1557","arr_source chk_exits_follow_cus  TEST TEST TESTเริ่มต้นการสร้างข้อมูล Followup ","2013-04-06 08:53:17","-","0","0"
"/www/ERP_crm/cronjob/create_follow_news.php","1518","primary_field เริ่มต้นการสร้างข้อมูล Followup ","2013-04-06 08:53:17","-","0","0"
"/www/ERP_crm/cronjob/create_follow_news.php","1557","arr_source chk_exits_follow_cus  TEST TEST TESTเริ่มต้นการสร้างข้อมูล Followup ","2013-04-06 08:53:17","-","0","0"
"/www/ERP_crm/cronjob/create_follow_news.php","1518","primary_field เริ่มต้นการสร้างข้อมูล Followup ","2013-04-06 08:53:17","-","0","0"
"/www/ERP_crm/cronjob/create_follow_news.php","1557","arr_source chk_exits_follow_cus  TEST TEST TESTเริ่มต้นการสร้างข้อมูล Followup ","2013-04-06 08:53:17","-","0","0"
"/www/ERP_crm/cronjob/create_follow_news.php","1518","primary_field เริ่มต้นการสร้างข้อมูล Followup ","2013-04-06 08:53:17","-","0","0"
"/www/ERP_crm/cronjob/create_follow_news.php","1557","arr_source chk_exits_follow_cus  TEST TEST TESTเริ่มต้นการสร้างข้อมูล Followup ","2013-04-06 08:53:17","-","0","0"
"/www/ERP_crm/cronjob/create_follow_news.php","2278","primary_field เริ่มต้นการสร้างข้อมูล Followup ","2013-04-06 08:53:17","-","0","0"
"/www/ERP_crm/cronjob/create_follow_news.php","2306","arr_source chk_exits_follow_cus  TEST TEST TESTเริ่มต้นการสร้างข้อมูล Followup ","2013-04-06 08:53:17","-","0","0"
"/www/ERP_crm/cronjob/create_follow_news.php","2278","primary_field เริ่มต้นการสร้างข้อมูล Followup ","2013-04-06 08:53:17","-","0","0"
"/www/ERP_crm/cronjob/create_follow_news.php","2306","arr_source chk_exits_follow_cus  TEST TEST TESTเริ่มต้นการสร้างข้อมูล Followup ","2013-04-06 08:53:17","-","0","0"
"/www/ERP_crm/cronjob/create_follow_news.php","2713","สิ้นสุดการสร้างข้อมูล Followup ","-","2013-04-06 09:02:11","8617","0"
"/www/ERP_crm/cronjob/create_follow_news.php","127","เริ่มต้นการสร้างข้อมูล Followup ","2013-04-06 16:21:47","-","0","0"
"/www/ERP_crm/cronjob/create_follow_news.php","1518","primary_field เริ่มต้นการสร้างข้อมูล Followup ","2013-04-06 16:21:47","-","0","0"
"/www/ERP_crm/cronjob/create_follow_news.php","1557","arr_source chk_exits_follow_cus  TEST TEST TESTเริ่มต้นการสร้างข้อมูล Followup ","2013-04-06 16:21:47","-","0","0"
"/www/ERP_crm/cronjob/create_follow_news.php","1518","primary_field เริ่มต้นการสร้างข้อมูล Followup ","2013-04-06 16:21:47","-","0","0"
"/www/ERP_crm/cronjob/create_follow_news.php","1557","arr_source chk_exits_follow_cus  TEST TEST TESTเริ่มต้นการสร้างข้อมูล Followup ","2013-04-06 16:21:47","-","0","0"
"/www/ERP_crm/cronjob/create_follow_news.php","1518","primary_field เริ่มต้นการสร้างข้อมูล Followup ","2013-04-06 16:21:47","-","0","0"
"/www/ERP_crm/cronjob/create_follow_news.php","1557","arr_source chk_exits_follow_cus  TEST TEST TESTเริ่มต้นการสร้างข้อมูล Followup ","2013-04-06 16:21:47","-","0","0"
"/www/ERP_crm/cronjob/create_follow_news.php","1518","primary_field เริ่มต้นการสร้างข้อมูล Followup ","2013-04-06 16:21:47","-","0","0"
"/www/ERP_crm/cronjob/create_follow_news.php","1557","arr_source chk_exits_follow_cus  TEST TEST TESTเริ่มต้นการสร้างข้อมูล Followup ","2013-04-06 16:21:47","-","0","0"
"/www/ERP_crm/cronjob/create_follow_news.php","1518","primary_field เริ่มต้นการสร้างข้อมูล Followup ","2013-04-06 16:21:47","-","0","0"
"/www/ERP_crm/cronjob/create_follow_news.php","1557","arr_source chk_exits_follow_cus  TEST TEST TESTเริ่มต้นการสร้างข้อมูล Followup ","2013-04-06 16:21:47","-","0","0"
"/www/ERP_crm/cronjob/create_follow_news.php","1518","primary_field เริ่มต้นการสร้างข้อมูล Followup ","2013-04-06 16:21:47","-","0","0"
"/www/ERP_crm/cronjob/create_follow_news.php","1557","arr_source chk_exits_follow_cus  TEST TEST TESTเริ่มต้นการสร้างข้อมูล Followup ","2013-04-06 16:21:47","-","0","0"
"/www/ERP_crm/cronjob/create_follow_news.php","1518","primary_field เริ่มต้นการสร้างข้อมูล Followup ","2013-04-06 16:21:47","-","0","0"
"/www/ERP_crm/cronjob/create_follow_news.php","1557","arr_source chk_exits_follow_cus  TEST TEST TESTเริ่มต้นการสร้างข้อมูล Followup ","2013-04-06 16:21:47","-","0","0"
"/www/ERP_crm/cronjob/create_follow_news.php","1518","primary_field เริ่มต้นการสร้างข้อมูล Followup ","2013-04-06 16:21:47","-","0","0"
"/www/ERP_crm/cronjob/create_follow_news.php","1557","arr_source chk_exits_follow_cus  TEST TEST TESTเริ่มต้นการสร้างข้อมูล Followup ","2013-04-06 16:21:47","-","0","0"
"/www/ERP_crm/cronjob/create_follow_news.php","2278","primary_field เริ่มต้นการสร้างข้อมูล Followup ","2013-04-06 16:21:47","-","0","0"
"/www/ERP_crm/cronjob/create_follow_news.php","2306","arr_source chk_exits_follow_cus  TEST TEST TESTเริ่มต้นการสร้างข้อมูล Followup ","2013-04-06 16:21:47","-","0","0"
"/www/ERP_crm/cronjob/create_follow_news.php","2278","primary_field เริ่มต้นการสร้างข้อมูล Followup ","2013-04-06 16:21:47","-","0","0"
"/www/ERP_crm/cronjob/create_follow_news.php","2306","arr_source chk_exits_follow_cus  TEST TEST TESTเริ่มต้นการสร้างข้อมูล Followup ","2013-04-06 16:21:47","-","0","0"
"/www/ERP_crm/cronjob/create_follow_news.php","2713","สิ้นสุดการสร้างข้อมูล Followup ","-","2013-04-06 16:30:42","8617","0"
