"FILE","LINE","TITLE","START_TIME","ERROR_TIME","Num","MYSQL","SQL"
"/www/CRM/create_follow_news.php","355","ข้อผิดพลาดที่พบขณะรันสคริปต์","2012-04-28 18:20:01","2012-04-28 18:20:01","0","<font color='#ff0000'>You have an error in your SQL syntax; check the manual that corresponds to your MySQL server version for the right syntax to use near 'Resource id #14' at line 1</font>","Resource id #14"
"/www/CRM/create_follow_news.php","355","ข้อผิดพลาดที่พบขณะรันสคริปต์","2012-04-28 18:20:15","2012-04-28 18:20:15","0","<font color='#ff0000'>You have an error in your SQL syntax; check the manual that corresponds to your MySQL server version for the right syntax to use near 'Resource id #14' at line 1</font>","Resource id #14"
"/www/CRM/create_follow_news.php","355","ข้อผิดพลาดที่พบขณะรันสคริปต์","2012-04-28 18:20:17","2012-04-28 18:20:17","0","<font color='#ff0000'>You have an error in your SQL syntax; check the manual that corresponds to your MySQL server version for the right syntax to use near 'Resource id #14' at line 1</font>","Resource id #14"
"/www/CRM/create_follow_news.php","355","ข้อผิดพลาดที่พบขณะรันสคริปต์","2012-04-28 18:20:29","2012-04-28 18:20:29","0","<font color='#ff0000'>You have an error in your SQL syntax; check the manual that corresponds to your MySQL server version for the right syntax to use near 'Resource id #14' at line 1</font>","Resource id #14"
"/www/CRM/create_follow_news.php","356","ข้อผิดพลาดที่พบขณะรันสคริปต์","2012-04-28 18:20:51","2012-04-28 18:20:51","0","<font color='#ff0000'>You have an error in your SQL syntax; check the manual that corresponds to your MySQL server version for the right syntax to use near 'Resource id #14' at line 1</font>","Resource id #14"
"/www/CRM/create_follow_news.php","356","ข้อผิดพลาดที่พบขณะรันสคริปต์","2012-04-28 18:21:05","2012-04-28 18:21:05","0","<font color='#ff0000'>You have an error in your SQL syntax; check the manual that corresponds to your MySQL server version for the right syntax to use near 'Resource id #14' at line 1</font>","Resource id #14"
"/www/CRM/create_follow_news.php","355","ข้อผิดพลาดที่พบขณะรันสคริปต์","2012-04-28 18:21:35","2012-04-28 18:21:35","0","<font color='#ff0000'>You have an error in your SQL syntax; check the manual that corresponds to your MySQL server version for the right syntax to use near 'Resource id #14' at line 1</font>","Resource id #14"
"/www/CRM/create_follow_news.php","356","ข้อผิดพลาดที่พบขณะรันสคริปต์","2012-04-28 18:21:44","2012-04-28 18:21:44","0","<font color='#ff0000'>You have an error in your SQL syntax; check the manual that corresponds to your MySQL server version for the right syntax to use near 'Resource id #14' at line 1</font>","Resource id #14"
"/www/CRM/create_follow_news.php","356","ข้อผิดพลาดที่พบขณะรันสคริปต์","2012-04-28 18:22:46","2012-04-28 18:22:46","0","<font color='#ff0000'>You have an error in your SQL syntax; check the manual that corresponds to your MySQL server version for the right syntax to use near 'Resource id #14' at line 1</font>","Resource id #14"
