"FILE","LINE","TITLE","START_TIME","SUCCESS_TIME","FOLLOW","AllCusLOOP"
"/CRM/create_follow_news.php","129","เริ่มต้นการสร้างข้อมูล Followup ","2012-04-28 16:55:39","-","0","0"
"/CRM/create_follow_news.php","129","เริ่มต้นการสร้างข้อมูล Followup ","2012-04-28 16:58:04","-","0","0"
"/CRM/create_follow_news.php","129","เริ่มต้นการสร้างข้อมูล Followup ","2012-04-28 17:10:55","-","0","0"
"/CRM/create_follow_news.php","129","เริ่มต้นการสร้างข้อมูล Followup ","2012-04-28 17:12:55","-","0","0"
"/CRM/create_follow_news.php","129","เริ่มต้นการสร้างข้อมูล Followup ","2012-04-28 17:13:30","-","0","0"
"/CRM/create_follow_news.php","129","เริ่มต้นการสร้างข้อมูล Followup ","2012-04-28 17:13:50","-","0","0"
"/CRM/create_follow_news.php","129","เริ่มต้นการสร้างข้อมูล Followup ","2012-04-28 17:14:18","-","0","0"
"/CRM/create_follow_news.php","129","เริ่มต้นการสร้างข้อมูล Followup ","2012-04-28 17:14:25","-","0","0"
"/CRM/create_follow_news.php","129","เริ่มต้นการสร้างข้อมูล Followup ","2012-04-28 17:25:28","-","0","0"
"/CRM/create_follow_news.php","129","เริ่มต้นการสร้างข้อมูล Followup ","2012-04-28 17:25:50","-","0","0"
"/CRM/create_follow_news.php","129","เริ่มต้นการสร้างข้อมูล Followup ","2012-04-28 18:20:01","-","0","0"
"/CRM/create_follow_news.php","129","เริ่มต้นการสร้างข้อมูล Followup ","2012-04-28 18:20:15","-","0","0"
"/CRM/create_follow_news.php","129","เริ่มต้นการสร้างข้อมูล Followup ","2012-04-28 18:20:17","-","0","0"
"/CRM/create_follow_news.php","129","เริ่มต้นการสร้างข้อมูล Followup ","2012-04-28 18:20:29","-","0","0"
"/CRM/create_follow_news.php","129","เริ่มต้นการสร้างข้อมูล Followup ","2012-04-28 18:20:51","-","0","0"
"/CRM/create_follow_news.php","129","เริ่มต้นการสร้างข้อมูล Followup ","2012-04-28 18:21:05","-","0","0"
"/CRM/create_follow_news.php","129","เริ่มต้นการสร้างข้อมูล Followup ","2012-04-28 18:21:35","-","0","0"
"/CRM/create_follow_news.php","129","เริ่มต้นการสร้างข้อมูล Followup ","2012-04-28 18:21:44","-","0","0"
"/CRM/create_follow_news.php","129","เริ่มต้นการสร้างข้อมูล Followup ","2012-04-28 18:22:46","-","0","0"
"/CRM/create_follow_news.php","129","เริ่มต้นการสร้างข้อมูล Followup ","2012-04-28 18:23:23","-","0","0"
"/CRM/create_follow_news.php","129","เริ่มต้นการสร้างข้อมูล Followup ","2012-04-28 18:36:43","-","0","0"
"/CRM/create_follow_news.php","129","เริ่มต้นการสร้างข้อมูล Followup ","2012-04-28 18:39:26","-","0","0"
"/CRM/create_follow_news.php","129","เริ่มต้นการสร้างข้อมูล Followup ","2012-04-28 18:39:43","-","0","0"
"/CRM/create_follow_news.php","129","เริ่มต้นการสร้างข้อมูล Followup ","2012-04-28 18:40:34","-","0","0"
"/CRM/create_follow_news.php","129","เริ่มต้นการสร้างข้อมูล Followup ","2012-04-28 18:40:53","-","0","0"
"/CRM/create_follow_news.php","129","เริ่มต้นการสร้างข้อมูล Followup ","2012-04-28 18:41:31","-","0","0"
"/CRM/create_follow_news.php","129","เริ่มต้นการสร้างข้อมูล Followup ","2012-04-28 18:41:42","-","0","0"
"/CRM/create_follow_news.php","129","เริ่มต้นการสร้างข้อมูล Followup ","2012-04-28 18:41:52","-","0","0"
"/CRM/create_follow_news.php","129","เริ่มต้นการสร้างข้อมูล Followup ","2012-04-28 18:43:56","-","0","0"
"/CRM/create_follow_news.php","129","เริ่มต้นการสร้างข้อมูล Followup ","2012-04-28 18:45:01","-","0","0"
"/CRM/create_follow_news.php","129","เริ่มต้นการสร้างข้อมูล Followup ","2012-04-28 18:45:17","-","0","0"
"/CRM/create_follow_news.php","129","เริ่มต้นการสร้างข้อมูล Followup ","2012-04-28 18:49:31","-","0","0"
"/CRM/create_follow_news.php","599","สิ้นสุดการสร้างข้อมูล Followup ","-","2012-04-28 18:49:31","0","0"
