"FILE","LINE","TITLE","START_TIME","SUCCESS_TIME","FOLLOW","AllCusLOOP"
"/www/ERP_crm/cronjob/create_follow_news.php","127","เริ่มต้นการสร้างข้อมูล Followup ","2014-03-08 00:00:02","-","0","0"
"/www/ERP_crm/cronjob/create_follow_news.php","1525","primary_field เริ่มต้นการสร้างข้อมูล Followup ","2014-03-08 00:00:02","-","0","0"
"/www/ERP_crm/cronjob/create_follow_news.php","1549","arr_source chk_exits_follow_cus  TEST TEST TESTเริ่มต้นการสร้างข้อมูล Followup ","2014-03-08 00:00:02","-","0","0"
"/www/ERP_crm/cronjob/create_follow_news.php","1525","primary_field เริ่มต้นการสร้างข้อมูล Followup ","2014-03-08 00:00:02","-","0","0"
"/www/ERP_crm/cronjob/create_follow_news.php","1549","arr_source chk_exits_follow_cus  TEST TEST TESTเริ่มต้นการสร้างข้อมูล Followup ","2014-03-08 00:00:02","-","0","0"
"/www/ERP_crm/cronjob/create_follow_news.php","1525","primary_field เริ่มต้นการสร้างข้อมูล Followup ","2014-03-08 00:00:02","-","0","0"
"/www/ERP_crm/cronjob/create_follow_news.php","1549","arr_source chk_exits_follow_cus  TEST TEST TESTเริ่มต้นการสร้างข้อมูล Followup ","2014-03-08 00:00:02","-","0","0"
"/www/ERP_crm/cronjob/create_follow_news.php","1525","primary_field เริ่มต้นการสร้างข้อมูล Followup ","2014-03-08 00:00:02","-","0","0"
"/www/ERP_crm/cronjob/create_follow_news.php","1549","arr_source chk_exits_follow_cus  TEST TEST TESTเริ่มต้นการสร้างข้อมูล Followup ","2014-03-08 00:00:02","-","0","0"
"/www/ERP_crm/cronjob/create_follow_news.php","1525","primary_field เริ่มต้นการสร้างข้อมูล Followup ","2014-03-08 00:00:02","-","0","0"
"/www/ERP_crm/cronjob/create_follow_news.php","1549","arr_source chk_exits_follow_cus  TEST TEST TESTเริ่มต้นการสร้างข้อมูล Followup ","2014-03-08 00:00:02","-","0","0"
"/www/ERP_crm/cronjob/create_follow_news.php","1525","primary_field เริ่มต้นการสร้างข้อมูล Followup ","2014-03-08 00:00:02","-","0","0"
"/www/ERP_crm/cronjob/create_follow_news.php","1549","arr_source chk_exits_follow_cus  TEST TEST TESTเริ่มต้นการสร้างข้อมูล Followup ","2014-03-08 00:00:02","-","0","0"
"/www/ERP_crm/cronjob/create_follow_news.php","1525","primary_field เริ่มต้นการสร้างข้อมูล Followup ","2014-03-08 00:00:02","-","0","0"
"/www/ERP_crm/cronjob/create_follow_news.php","1549","arr_source chk_exits_follow_cus  TEST TEST TESTเริ่มต้นการสร้างข้อมูล Followup ","2014-03-08 00:00:02","-","0","0"
"/www/ERP_crm/cronjob/create_follow_news.php","1525","primary_field เริ่มต้นการสร้างข้อมูล Followup ","2014-03-08 00:00:02","-","0","0"
"/www/ERP_crm/cronjob/create_follow_news.php","1549","arr_source chk_exits_follow_cus  TEST TEST TESTเริ่มต้นการสร้างข้อมูล Followup ","2014-03-08 00:00:02","-","0","0"
"/www/ERP_crm/cronjob/create_follow_news.php","2305","primary_field เริ่มต้นการสร้างข้อมูล Followup ","2014-03-08 00:00:02","-","0","0"
"/www/ERP_crm/cronjob/create_follow_news.php","2329","arr_source chk_exits_follow_cus  TEST TEST TESTเริ่มต้นการสร้างข้อมูล Followup ","2014-03-08 00:00:02","-","0","0"
"/www/ERP_crm/cronjob/create_follow_news.php","2305","primary_field เริ่มต้นการสร้างข้อมูล Followup ","2014-03-08 00:00:02","-","0","0"
"/www/ERP_crm/cronjob/create_follow_news.php","2329","arr_source chk_exits_follow_cus  TEST TEST TESTเริ่มต้นการสร้างข้อมูล Followup ","2014-03-08 00:00:02","-","0","0"
"/www/ERP_crm/cronjob/create_follow_news.php","2748","สิ้นสุดการสร้างข้อมูล Followup ","-","2014-03-08 00:12:14","13831","0"
