"FILE","LINE","TITLE","START_TIME","SUCCESS_TIME","FOLLOW","AllCusLOOP"
"/www/ERP_crm/cronjob/create_follow_news.php","127","เริ่มต้นการสร้างข้อมูล Followup ","2013-07-17 00:00:01","-","0","0"
"/www/ERP_crm/cronjob/create_follow_news.php","1510","primary_field เริ่มต้นการสร้างข้อมูล Followup ","2013-07-17 00:00:01","-","0","0"
"/www/ERP_crm/cronjob/create_follow_news.php","1534","arr_source chk_exits_follow_cus  TEST TEST TESTเริ่มต้นการสร้างข้อมูล Followup ","2013-07-17 00:00:01","-","0","0"
"/www/ERP_crm/cronjob/create_follow_news.php","1510","primary_field เริ่มต้นการสร้างข้อมูล Followup ","2013-07-17 00:00:01","-","0","0"
"/www/ERP_crm/cronjob/create_follow_news.php","1534","arr_source chk_exits_follow_cus  TEST TEST TESTเริ่มต้นการสร้างข้อมูล Followup ","2013-07-17 00:00:01","-","0","0"
"/www/ERP_crm/cronjob/create_follow_news.php","1510","primary_field เริ่มต้นการสร้างข้อมูล Followup ","2013-07-17 00:00:01","-","0","0"
"/www/ERP_crm/cronjob/create_follow_news.php","1534","arr_source chk_exits_follow_cus  TEST TEST TESTเริ่มต้นการสร้างข้อมูล Followup ","2013-07-17 00:00:01","-","0","0"
"/www/ERP_crm/cronjob/create_follow_news.php","1510","primary_field เริ่มต้นการสร้างข้อมูล Followup ","2013-07-17 00:00:01","-","0","0"
"/www/ERP_crm/cronjob/create_follow_news.php","1534","arr_source chk_exits_follow_cus  TEST TEST TESTเริ่มต้นการสร้างข้อมูล Followup ","2013-07-17 00:00:01","-","0","0"
"/www/ERP_crm/cronjob/create_follow_news.php","1510","primary_field เริ่มต้นการสร้างข้อมูล Followup ","2013-07-17 00:00:01","-","0","0"
"/www/ERP_crm/cronjob/create_follow_news.php","1534","arr_source chk_exits_follow_cus  TEST TEST TESTเริ่มต้นการสร้างข้อมูล Followup ","2013-07-17 00:00:01","-","0","0"
"/www/ERP_crm/cronjob/create_follow_news.php","1510","primary_field เริ่มต้นการสร้างข้อมูล Followup ","2013-07-17 00:00:01","-","0","0"
"/www/ERP_crm/cronjob/create_follow_news.php","1534","arr_source chk_exits_follow_cus  TEST TEST TESTเริ่มต้นการสร้างข้อมูล Followup ","2013-07-17 00:00:01","-","0","0"
"/www/ERP_crm/cronjob/create_follow_news.php","1510","primary_field เริ่มต้นการสร้างข้อมูล Followup ","2013-07-17 00:00:01","-","0","0"
"/www/ERP_crm/cronjob/create_follow_news.php","1534","arr_source chk_exits_follow_cus  TEST TEST TESTเริ่มต้นการสร้างข้อมูล Followup ","2013-07-17 00:00:01","-","0","0"
"/www/ERP_crm/cronjob/create_follow_news.php","1510","primary_field เริ่มต้นการสร้างข้อมูล Followup ","2013-07-17 00:00:01","-","0","0"
"/www/ERP_crm/cronjob/create_follow_news.php","1534","arr_source chk_exits_follow_cus  TEST TEST TESTเริ่มต้นการสร้างข้อมูล Followup ","2013-07-17 00:00:01","-","0","0"
"/www/ERP_crm/cronjob/create_follow_news.php","2290","primary_field เริ่มต้นการสร้างข้อมูล Followup ","2013-07-17 00:00:01","-","0","0"
"/www/ERP_crm/cronjob/create_follow_news.php","2314","arr_source chk_exits_follow_cus  TEST TEST TESTเริ่มต้นการสร้างข้อมูล Followup ","2013-07-17 00:00:01","-","0","0"
"/www/ERP_crm/cronjob/create_follow_news.php","2290","primary_field เริ่มต้นการสร้างข้อมูล Followup ","2013-07-17 00:00:01","-","0","0"
"/www/ERP_crm/cronjob/create_follow_news.php","2314","arr_source chk_exits_follow_cus  TEST TEST TESTเริ่มต้นการสร้างข้อมูล Followup ","2013-07-17 00:00:01","-","0","0"
"/www/ERP_crm/cronjob/create_follow_news.php","2733","สิ้นสุดการสร้างข้อมูล Followup ","-","2013-07-17 00:18:08","12798","0"
