"FILE","LINE","TITLE","START_TIME","SUCCESS_TIME","FOLLOW","AllCusLOOP"
"/www/ERP_crm/cronjob/create_follow_news.php","182","เริ่มต้นการสร้างข้อมูล Followup ","2015-09-08 00:00:01","-","0","0"
"/www/ERP_crm/cronjob/create_follow_news.php","1367","BEGIN TESTLOG ","2015-09-08 00:00:01","-","0","0"
"/www/ERP_crm/cronjob/create_follow_news.php","1399","END TESTLOG ","2015-09-08 00:00:01","-","0","0"
"/www/ERP_crm/cronjob/create_follow_news.php","1413","create_follow TRUE ","2015-09-08 00:00:01","-","0","0"
"/www/ERP_crm/cronjob/create_follow_news.php","1456","SELECT follow_main_event.id AS main_event_id, follow_main_event.pattern_id_ref, follow_main_event.follow_type, follow_main_event.follow_up_activities, follow_main_event.cal_format,follow_main_event.start_value , follow_main_event.start_unit, follow_main_event.stop_value, follow_main_event.stop_unit,follow_main_event.cal_value,follow_main_event.cal_unit, follow_main_event.remind_type,follow_main_event.field_name_specificate, follow_main_event.remind_value,follow_main_event.remind_unit,follow_main_event.activity_period_type, follow_field_pattern.id AS pattern_id, follow_field_pattern.pattern_name, follow_field_pattern.field_name, follow_field_pattern.field_primary, follow_field_pattern.field_cus_name, follow_field_pattern.field_vehicle_name, follow_main_event.field_expire_date, follow_main_event.TIS_Event_Group, follow_main_event.TIS_Event_Period, follow_main_event.TIS_Event_PeriodCode, follow_main_event.send_to_tis, follow_field_pattern.`table_name`, follow_field_pattern.db_name, follow_main_event.next_event, follow_field_pattern.`status` FROM ERP_crm.follow_main_event Inner Join ERP_crm.follow_field_pattern ON ERP_crm.follow_main_event.pattern_id_ref = ERP_crm.follow_field_pattern.id WHERE follow_main_event.status NOT IN('99','10') ORDER BY `follow_main_event`.`id` DESC >> 53","2015-09-08 00:00:01","-","0","0"
"/www/ERP_crm/cronjob/create_follow_news.php","1510","BEGIN SQL MAIN 0","2015-09-08 00:00:01","-","0","0"
"/www/ERP_crm/cronjob/create_follow_news.php","1545","BEGIN SQL CHECK 1","2015-09-08 00:00:01","-","0","0"
"/www/ERP_crm/cronjob/create_follow_news.php","1569","BEGIN SQL CHECK 2","2015-09-08 00:00:01","-","0","0"
"/www/ERP_crm/cronjob/create_follow_news.php","1594","BEGIN SQL CHECK 3","2015-09-08 00:00:01","-","0","0"
"/www/ERP_crm/cronjob/create_follow_news.php","1611","BEGIN SQL CHECK 4","2015-09-08 00:00:01","-","0","0"
"/www/ERP_crm/cronjob/create_follow_news.php","1627","BEGIN SQL CHECK 5","2015-09-08 00:00:01","-","0","0"
"/www/ERP_crm/cronjob/create_follow_news.php","1671","BEGIN SQL CHECK 6 >> 2","2015-09-08 00:00:01","-","0","0"
"/www/ERP_crm/cronjob/create_follow_news.php","1510","BEGIN SQL MAIN 1","2015-09-08 00:00:01","-","0","0"
"/www/ERP_crm/cronjob/create_follow_news.php","1545","BEGIN SQL CHECK 1","2015-09-08 00:00:01","-","0","0"
"/www/ERP_crm/cronjob/create_follow_news.php","1569","BEGIN SQL CHECK 2","2015-09-08 00:00:01","-","0","0"
"/www/ERP_crm/cronjob/create_follow_news.php","1594","BEGIN SQL CHECK 3","2015-09-08 00:00:01","-","0","0"
"/www/ERP_crm/cronjob/create_follow_news.php","1611","BEGIN SQL CHECK 4","2015-09-08 00:00:01","-","0","0"
"/www/ERP_crm/cronjob/create_follow_news.php","1627","BEGIN SQL CHECK 5","2015-09-08 00:00:01","-","0","0"
"/www/ERP_crm/cronjob/create_follow_news.php","1671","BEGIN SQL CHECK 6 >> 2","2015-09-08 00:00:01","-","0","0"
"/www/ERP_crm/cronjob/create_follow_news.php","1510","BEGIN SQL MAIN 2","2015-09-08 00:00:01","-","0","0"
"/www/ERP_crm/cronjob/create_follow_news.php","1545","BEGIN SQL CHECK 1","2015-09-08 00:00:01","-","0","0"
"/www/ERP_crm/cronjob/create_follow_news.php","1569","BEGIN SQL CHECK 2","2015-09-08 00:00:01","-","0","0"
"/www/ERP_crm/cronjob/create_follow_news.php","1594","BEGIN SQL CHECK 3","2015-09-08 00:00:01","-","0","0"
"/www/ERP_crm/cronjob/create_follow_news.php","1611","BEGIN SQL CHECK 4","2015-09-08 00:00:01","-","0","0"
"/www/ERP_crm/cronjob/create_follow_news.php","1627","BEGIN SQL CHECK 5","2015-09-08 00:00:01","-","0","0"
"/www/ERP_crm/cronjob/create_follow_news.php","1671","BEGIN SQL CHECK 6 >> 2","2015-09-08 00:00:01","-","0","0"
"/www/ERP_crm/cronjob/create_follow_news.php","1510","BEGIN SQL MAIN 3","2015-09-08 00:00:01","-","0","0"
"/www/ERP_crm/cronjob/create_follow_news.php","1545","BEGIN SQL CHECK 1","2015-09-08 00:00:01","-","0","0"
"/www/ERP_crm/cronjob/create_follow_news.php","1569","BEGIN SQL CHECK 2","2015-09-08 00:00:01","-","0","0"
"/www/ERP_crm/cronjob/create_follow_news.php","1594","BEGIN SQL CHECK 3","2015-09-08 00:00:01","-","0","0"
"/www/ERP_crm/cronjob/create_follow_news.php","1611","BEGIN SQL CHECK 4","2015-09-08 00:00:01","-","0","0"
"/www/ERP_crm/cronjob/create_follow_news.php","1627","BEGIN SQL CHECK 5","2015-09-08 00:00:01","-","0","0"
"/www/ERP_crm/cronjob/create_follow_news.php","1671","BEGIN SQL CHECK 6 >> 2","2015-09-08 00:00:01","-","0","0"
"/www/ERP_crm/cronjob/create_follow_news.php","1510","BEGIN SQL MAIN 4","2015-09-08 00:00:01","-","0","0"
"/www/ERP_crm/cronjob/create_follow_news.php","1545","BEGIN SQL CHECK 1","2015-09-08 00:00:01","-","0","0"
"/www/ERP_crm/cronjob/create_follow_news.php","1569","BEGIN SQL CHECK 2","2015-09-08 00:00:01","-","0","0"
"/www/ERP_crm/cronjob/create_follow_news.php","1594","BEGIN SQL CHECK 3","2015-09-08 00:00:01","-","0","0"
"/www/ERP_crm/cronjob/create_follow_news.php","1611","BEGIN SQL CHECK 4","2015-09-08 00:00:01","-","0","0"
"/www/ERP_crm/cronjob/create_follow_news.php","1627","BEGIN SQL CHECK 5","2015-09-08 00:00:01","-","0","0"
"/www/ERP_crm/cronjob/create_follow_news.php","1671","BEGIN SQL CHECK 6 >> 2","2015-09-08 00:00:01","-","0","0"
"/www/ERP_crm/cronjob/create_follow_news.php","1510","BEGIN SQL MAIN 5","2015-09-08 00:00:01","-","0","0"
"/www/ERP_crm/cronjob/create_follow_news.php","1545","BEGIN SQL CHECK 1","2015-09-08 00:00:01","-","0","0"
"/www/ERP_crm/cronjob/create_follow_news.php","1569","BEGIN SQL CHECK 2","2015-09-08 00:00:01","-","0","0"
"/www/ERP_crm/cronjob/create_follow_news.php","1594","BEGIN SQL CHECK 3","2015-09-08 00:00:01","-","0","0"
"/www/ERP_crm/cronjob/create_follow_news.php","1611","BEGIN SQL CHECK 4","2015-09-08 00:00:01","-","0","0"
"/www/ERP_crm/cronjob/create_follow_news.php","1627","BEGIN SQL CHECK 5","2015-09-08 00:00:01","-","0","0"
"/www/ERP_crm/cronjob/create_follow_news.php","1671","BEGIN SQL CHECK 6 >> 2","2015-09-08 00:00:01","-","0","0"
"/www/ERP_crm/cronjob/create_follow_news.php","1510","BEGIN SQL MAIN 6","2015-09-08 00:00:01","-","0","0"
"/www/ERP_crm/cronjob/create_follow_news.php","1545","BEGIN SQL CHECK 1","2015-09-08 00:00:01","-","0","0"
"/www/ERP_crm/cronjob/create_follow_news.php","1569","BEGIN SQL CHECK 2","2015-09-08 00:00:01","-","0","0"
"/www/ERP_crm/cronjob/create_follow_news.php","1594","BEGIN SQL CHECK 3","2015-09-08 00:00:01","-","0","0"
"/www/ERP_crm/cronjob/create_follow_news.php","1611","BEGIN SQL CHECK 4","2015-09-08 00:00:01","-","0","0"
"/www/ERP_crm/cronjob/create_follow_news.php","1627","BEGIN SQL CHECK 5","2015-09-08 00:00:01","-","0","0"
"/www/ERP_crm/cronjob/create_follow_news.php","1671","BEGIN SQL CHECK 6 >> 2","2015-09-08 00:00:01","-","0","0"
"/www/ERP_crm/cronjob/create_follow_news.php","1510","BEGIN SQL MAIN 7","2015-09-08 00:00:01","-","0","0"
"/www/ERP_crm/cronjob/create_follow_news.php","1545","BEGIN SQL CHECK 1","2015-09-08 00:00:01","-","0","0"
"/www/ERP_crm/cronjob/create_follow_news.php","1569","BEGIN SQL CHECK 2","2015-09-08 00:00:01","-","0","0"
"/www/ERP_crm/cronjob/create_follow_news.php","1594","BEGIN SQL CHECK 3","2015-09-08 00:00:01","-","0","0"
"/www/ERP_crm/cronjob/create_follow_news.php","1611","BEGIN SQL CHECK 4","2015-09-08 00:00:01","-","0","0"
"/www/ERP_crm/cronjob/create_follow_news.php","1627","BEGIN SQL CHECK 5","2015-09-08 00:00:01","-","0","0"
"/www/ERP_crm/cronjob/create_follow_news.php","1671","BEGIN SQL CHECK 6 >> 2","2015-09-08 00:00:01","-","0","0"
"/www/ERP_crm/cronjob/create_follow_news.php","1510","BEGIN SQL MAIN 8","2015-09-08 00:00:01","-","0","0"
"/www/ERP_crm/cronjob/create_follow_news.php","1545","BEGIN SQL CHECK 1","2015-09-08 00:00:01","-","0","0"
"/www/ERP_crm/cronjob/create_follow_news.php","1569","BEGIN SQL CHECK 2","2015-09-08 00:00:01","-","0","0"
"/www/ERP_crm/cronjob/create_follow_news.php","1594","BEGIN SQL CHECK 3","2015-09-08 00:00:01","-","0","0"
"/www/ERP_crm/cronjob/create_follow_news.php","1611","BEGIN SQL CHECK 4","2015-09-08 00:00:01","-","0","0"
"/www/ERP_crm/cronjob/create_follow_news.php","1627","BEGIN SQL CHECK 5","2015-09-08 00:00:01","-","0","0"
"/www/ERP_crm/cronjob/create_follow_news.php","1671","BEGIN SQL CHECK 6 >> 2","2015-09-08 00:00:01","-","0","0"
"/www/ERP_crm/cronjob/create_follow_news.php","1510","BEGIN SQL MAIN 9","2015-09-08 00:00:01","-","0","0"
"/www/ERP_crm/cronjob/create_follow_news.php","1545","BEGIN SQL CHECK 1","2015-09-08 00:00:01","-","0","0"
"/www/ERP_crm/cronjob/create_follow_news.php","1569","BEGIN SQL CHECK 2","2015-09-08 00:00:01","-","0","0"
"/www/ERP_crm/cronjob/create_follow_news.php","1594","BEGIN SQL CHECK 3","2015-09-08 00:00:01","-","0","0"
"/www/ERP_crm/cronjob/create_follow_news.php","1611","BEGIN SQL CHECK 4","2015-09-08 00:00:01","-","0","0"
"/www/ERP_crm/cronjob/create_follow_news.php","1627","BEGIN SQL CHECK 5","2015-09-08 00:00:01","-","0","0"
"/www/ERP_crm/cronjob/create_follow_news.php","1671","BEGIN SQL CHECK 6 >> 2","2015-09-08 00:00:01","-","0","0"
"/www/ERP_crm/cronjob/create_follow_news.php","1510","BEGIN SQL MAIN 10","2015-09-08 00:00:01","-","0","0"
"/www/ERP_crm/cronjob/create_follow_news.php","1545","BEGIN SQL CHECK 1","2015-09-08 00:00:01","-","0","0"
"/www/ERP_crm/cronjob/create_follow_news.php","1569","BEGIN SQL CHECK 2","2015-09-08 00:00:01","-","0","0"
"/www/ERP_crm/cronjob/create_follow_news.php","1594","BEGIN SQL CHECK 3","2015-09-08 00:00:01","-","0","0"
"/www/ERP_crm/cronjob/create_follow_news.php","1611","BEGIN SQL CHECK 4","2015-09-08 00:00:01","-","0","0"
"/www/ERP_crm/cronjob/create_follow_news.php","1627","BEGIN SQL CHECK 5","2015-09-08 00:00:01","-","0","0"
"/www/ERP_crm/cronjob/create_follow_news.php","1671","BEGIN SQL CHECK 6 >> 2","2015-09-08 00:00:01","-","0","0"
"/www/ERP_crm/cronjob/create_follow_news.php","1510","BEGIN SQL MAIN 11","2015-09-08 00:00:01","-","0","0"
"/www/ERP_crm/cronjob/create_follow_news.php","1545","BEGIN SQL CHECK 1","2015-09-08 00:00:01","-","0","0"
"/www/ERP_crm/cronjob/create_follow_news.php","1569","BEGIN SQL CHECK 2","2015-09-08 00:00:01","-","0","0"
"/www/ERP_crm/cronjob/create_follow_news.php","1594","BEGIN SQL CHECK 3","2015-09-08 00:00:01","-","0","0"
"/www/ERP_crm/cronjob/create_follow_news.php","1611","BEGIN SQL CHECK 4","2015-09-08 00:00:01","-","0","0"
"/www/ERP_crm/cronjob/create_follow_news.php","1627","BEGIN SQL CHECK 5","2015-09-08 00:00:01","-","0","0"
"/www/ERP_crm/cronjob/create_follow_news.php","1671","BEGIN SQL CHECK 6 >> 2","2015-09-08 00:00:01","-","0","0"
"/www/ERP_crm/cronjob/create_follow_news.php","1510","BEGIN SQL MAIN 12","2015-09-08 00:00:01","-","0","0"
"/www/ERP_crm/cronjob/create_follow_news.php","1545","BEGIN SQL CHECK 1","2015-09-08 00:00:01","-","0","0"
"/www/ERP_crm/cronjob/create_follow_news.php","1569","BEGIN SQL CHECK 2","2015-09-08 00:00:01","-","0","0"
"/www/ERP_crm/cronjob/create_follow_news.php","1594","BEGIN SQL CHECK 3","2015-09-08 00:00:01","-","0","0"
"/www/ERP_crm/cronjob/create_follow_news.php","1611","BEGIN SQL CHECK 4","2015-09-08 00:00:01","-","0","0"
"/www/ERP_crm/cronjob/create_follow_news.php","1627","BEGIN SQL CHECK 5","2015-09-08 00:00:01","-","0","0"
"/www/ERP_crm/cronjob/create_follow_news.php","1671","BEGIN SQL CHECK 6 >> 2","2015-09-08 00:00:01","-","0","0"
"/www/ERP_crm/cronjob/create_follow_news.php","1510","BEGIN SQL MAIN 13","2015-09-08 00:00:01","-","0","0"
"/www/ERP_crm/cronjob/create_follow_news.php","1545","BEGIN SQL CHECK 1","2015-09-08 00:00:01","-","0","0"
"/www/ERP_crm/cronjob/create_follow_news.php","1569","BEGIN SQL CHECK 2","2015-09-08 00:00:01","-","0","0"
"/www/ERP_crm/cronjob/create_follow_news.php","1594","BEGIN SQL CHECK 3","2015-09-08 00:00:01","-","0","0"
"/www/ERP_crm/cronjob/create_follow_news.php","1611","BEGIN SQL CHECK 4","2015-09-08 00:00:01","-","0","0"
"/www/ERP_crm/cronjob/create_follow_news.php","1627","BEGIN SQL CHECK 5","2015-09-08 00:00:01","-","0","0"
"/www/ERP_crm/cronjob/create_follow_news.php","1671","BEGIN SQL CHECK 6 >> 2","2015-09-08 00:00:01","-","0","0"
"/www/ERP_crm/cronjob/create_follow_news.php","1510","BEGIN SQL MAIN 14","2015-09-08 00:00:01","-","0","0"
"/www/ERP_crm/cronjob/create_follow_news.php","1545","BEGIN SQL CHECK 1","2015-09-08 00:00:01","-","0","0"
"/www/ERP_crm/cronjob/create_follow_news.php","1569","BEGIN SQL CHECK 2","2015-09-08 00:00:01","-","0","0"
"/www/ERP_crm/cronjob/create_follow_news.php","1594","BEGIN SQL CHECK 3","2015-09-08 00:00:01","-","0","0"
"/www/ERP_crm/cronjob/create_follow_news.php","1611","BEGIN SQL CHECK 4","2015-09-08 00:00:01","-","0","0"
"/www/ERP_crm/cronjob/create_follow_news.php","1627","BEGIN SQL CHECK 5","2015-09-08 00:00:01","-","0","0"
"/www/ERP_crm/cronjob/create_follow_news.php","1671","BEGIN SQL CHECK 6 >> 2","2015-09-08 00:00:01","-","0","0"
"/www/ERP_crm/cronjob/create_follow_news.php","1510","BEGIN SQL MAIN 15","2015-09-08 00:00:01","-","0","0"
"/www/ERP_crm/cronjob/create_follow_news.php","1545","BEGIN SQL CHECK 1","2015-09-08 00:00:01","-","0","0"
"/www/ERP_crm/cronjob/create_follow_news.php","1569","BEGIN SQL CHECK 2","2015-09-08 00:00:01","-","0","0"
"/www/ERP_crm/cronjob/create_follow_news.php","1594","BEGIN SQL CHECK 3","2015-09-08 00:00:01","-","0","0"
"/www/ERP_crm/cronjob/create_follow_news.php","1611","BEGIN SQL CHECK 4","2015-09-08 00:00:01","-","0","0"
"/www/ERP_crm/cronjob/create_follow_news.php","1627","BEGIN SQL CHECK 5","2015-09-08 00:00:01","-","0","0"
"/www/ERP_crm/cronjob/create_follow_news.php","1671","BEGIN SQL CHECK 6 >> 2","2015-09-08 00:00:01","-","0","0"
"/www/ERP_crm/cronjob/create_follow_news.php","1510","BEGIN SQL MAIN 16","2015-09-08 00:00:01","-","0","0"
"/www/ERP_crm/cronjob/create_follow_news.php","1545","BEGIN SQL CHECK 1","2015-09-08 00:00:01","-","0","0"
"/www/ERP_crm/cronjob/create_follow_news.php","1569","BEGIN SQL CHECK 2","2015-09-08 00:00:01","-","0","0"
"/www/ERP_crm/cronjob/create_follow_news.php","1594","BEGIN SQL CHECK 3","2015-09-08 00:00:01","-","0","0"
"/www/ERP_crm/cronjob/create_follow_news.php","1611","BEGIN SQL CHECK 4","2015-09-08 00:00:01","-","0","0"
"/www/ERP_crm/cronjob/create_follow_news.php","1627","BEGIN SQL CHECK 5","2015-09-08 00:00:01","-","0","0"
"/www/ERP_crm/cronjob/create_follow_news.php","1671","BEGIN SQL CHECK 6 >> 2","2015-09-08 00:00:01","-","0","0"
"/www/ERP_crm/cronjob/create_follow_news.php","1510","BEGIN SQL MAIN 17","2015-09-08 00:00:01","-","0","0"
"/www/ERP_crm/cronjob/create_follow_news.php","1545","BEGIN SQL CHECK 1","2015-09-08 00:00:01","-","0","0"
"/www/ERP_crm/cronjob/create_follow_news.php","1569","BEGIN SQL CHECK 2","2015-09-08 00:00:01","-","0","0"
"/www/ERP_crm/cronjob/create_follow_news.php","1594","BEGIN SQL CHECK 3","2015-09-08 00:00:01","-","0","0"
"/www/ERP_crm/cronjob/create_follow_news.php","1611","BEGIN SQL CHECK 4","2015-09-08 00:00:01","-","0","0"
"/www/ERP_crm/cronjob/create_follow_news.php","1627","BEGIN SQL CHECK 5","2015-09-08 00:00:01","-","0","0"
"/www/ERP_crm/cronjob/create_follow_news.php","1671","BEGIN SQL CHECK 6 >> 2","2015-09-08 00:00:01","-","0","0"
"/www/ERP_crm/cronjob/create_follow_news.php","1510","BEGIN SQL MAIN 18","2015-09-08 00:00:01","-","0","0"
"/www/ERP_crm/cronjob/create_follow_news.php","1545","BEGIN SQL CHECK 1","2015-09-08 00:00:01","-","0","0"
"/www/ERP_crm/cronjob/create_follow_news.php","1569","BEGIN SQL CHECK 2","2015-09-08 00:00:01","-","0","0"
"/www/ERP_crm/cronjob/create_follow_news.php","1594","BEGIN SQL CHECK 3","2015-09-08 00:00:01","-","0","0"
"/www/ERP_crm/cronjob/create_follow_news.php","1611","BEGIN SQL CHECK 4","2015-09-08 00:00:01","-","0","0"
"/www/ERP_crm/cronjob/create_follow_news.php","1627","BEGIN SQL CHECK 5","2015-09-08 00:00:01","-","0","0"
"/www/ERP_crm/cronjob/create_follow_news.php","1671","BEGIN SQL CHECK 6 >> 2","2015-09-08 00:00:01","-","0","0"
"/www/ERP_crm/cronjob/create_follow_news.php","1510","BEGIN SQL MAIN 19","2015-09-08 00:00:01","-","0","0"
"/www/ERP_crm/cronjob/create_follow_news.php","1545","BEGIN SQL CHECK 1","2015-09-08 00:00:01","-","0","0"
"/www/ERP_crm/cronjob/create_follow_news.php","1569","BEGIN SQL CHECK 2","2015-09-08 00:00:01","-","0","0"
"/www/ERP_crm/cronjob/create_follow_news.php","1594","BEGIN SQL CHECK 3","2015-09-08 00:00:01","-","0","0"
"/www/ERP_crm/cronjob/create_follow_news.php","1611","BEGIN SQL CHECK 4","2015-09-08 00:00:01","-","0","0"
"/www/ERP_crm/cronjob/create_follow_news.php","1627","BEGIN SQL CHECK 5","2015-09-08 00:00:01","-","0","0"
"/www/ERP_crm/cronjob/create_follow_news.php","1671","BEGIN SQL CHECK 6 >> 2","2015-09-08 00:00:01","-","0","0"
"/www/ERP_crm/cronjob/create_follow_news.php","1510","BEGIN SQL MAIN 20","2015-09-08 00:00:01","-","0","0"
"/www/ERP_crm/cronjob/create_follow_news.php","1545","BEGIN SQL CHECK 1","2015-09-08 00:00:01","-","0","0"
"/www/ERP_crm/cronjob/create_follow_news.php","1569","BEGIN SQL CHECK 2","2015-09-08 00:00:01","-","0","0"
"/www/ERP_crm/cronjob/create_follow_news.php","1594","BEGIN SQL CHECK 3","2015-09-08 00:00:01","-","0","0"
"/www/ERP_crm/cronjob/create_follow_news.php","1611","BEGIN SQL CHECK 4","2015-09-08 00:00:01","-","0","0"
"/www/ERP_crm/cronjob/create_follow_news.php","1627","BEGIN SQL CHECK 5","2015-09-08 00:00:01","-","0","0"
"/www/ERP_crm/cronjob/create_follow_news.php","1671","BEGIN SQL CHECK 6 >> 2","2015-09-08 00:00:01","-","0","0"
"/www/ERP_crm/cronjob/create_follow_news.php","1510","BEGIN SQL MAIN 21","2015-09-08 00:00:01","-","0","0"
"/www/ERP_crm/cronjob/create_follow_news.php","1545","BEGIN SQL CHECK 1","2015-09-08 00:00:01","-","0","0"
"/www/ERP_crm/cronjob/create_follow_news.php","1569","BEGIN SQL CHECK 2","2015-09-08 00:00:01","-","0","0"
"/www/ERP_crm/cronjob/create_follow_news.php","1594","BEGIN SQL CHECK 3","2015-09-08 00:00:01","-","0","0"
"/www/ERP_crm/cronjob/create_follow_news.php","1611","BEGIN SQL CHECK 4","2015-09-08 00:00:01","-","0","0"
"/www/ERP_crm/cronjob/create_follow_news.php","1627","BEGIN SQL CHECK 5","2015-09-08 00:00:01","-","0","0"
"/www/ERP_crm/cronjob/create_follow_news.php","1671","BEGIN SQL CHECK 6 >> 2","2015-09-08 00:00:01","-","0","0"
"/www/ERP_crm/cronjob/create_follow_news.php","1510","BEGIN SQL MAIN 22","2015-09-08 00:00:01","-","0","0"
"/www/ERP_crm/cronjob/create_follow_news.php","1545","BEGIN SQL CHECK 1","2015-09-08 00:00:01","-","0","0"
"/www/ERP_crm/cronjob/create_follow_news.php","1569","BEGIN SQL CHECK 2","2015-09-08 00:00:01","-","0","0"
"/www/ERP_crm/cronjob/create_follow_news.php","1594","BEGIN SQL CHECK 3","2015-09-08 00:00:01","-","0","0"
"/www/ERP_crm/cronjob/create_follow_news.php","1611","BEGIN SQL CHECK 4","2015-09-08 00:00:01","-","0","0"
"/www/ERP_crm/cronjob/create_follow_news.php","1627","BEGIN SQL CHECK 5","2015-09-08 00:00:01","-","0","0"
"/www/ERP_crm/cronjob/create_follow_news.php","1671","BEGIN SQL CHECK 6 >> 2","2015-09-08 00:00:01","-","0","0"
"/www/ERP_crm/cronjob/create_follow_news.php","1510","BEGIN SQL MAIN 23","2015-09-08 00:00:01","-","0","0"
"/www/ERP_crm/cronjob/create_follow_news.php","1545","BEGIN SQL CHECK 1","2015-09-08 00:00:01","-","0","0"
"/www/ERP_crm/cronjob/create_follow_news.php","1569","BEGIN SQL CHECK 2","2015-09-08 00:00:01","-","0","0"
"/www/ERP_crm/cronjob/create_follow_news.php","1594","BEGIN SQL CHECK 3","2015-09-08 00:00:01","-","0","0"
"/www/ERP_crm/cronjob/create_follow_news.php","1611","BEGIN SQL CHECK 4","2015-09-08 00:00:01","-","0","0"
"/www/ERP_crm/cronjob/create_follow_news.php","1627","BEGIN SQL CHECK 5","2015-09-08 00:00:01","-","0","0"
"/www/ERP_crm/cronjob/create_follow_news.php","1671","BEGIN SQL CHECK 6 >> 2","2015-09-08 00:00:01","-","0","0"
"/www/ERP_crm/cronjob/create_follow_news.php","1510","BEGIN SQL MAIN 24","2015-09-08 00:00:01","-","0","0"
"/www/ERP_crm/cronjob/create_follow_news.php","1545","BEGIN SQL CHECK 1","2015-09-08 00:00:01","-","0","0"
"/www/ERP_crm/cronjob/create_follow_news.php","1569","BEGIN SQL CHECK 2","2015-09-08 00:00:01","-","0","0"
"/www/ERP_crm/cronjob/create_follow_news.php","1594","BEGIN SQL CHECK 3","2015-09-08 00:00:01","-","0","0"
"/www/ERP_crm/cronjob/create_follow_news.php","1611","BEGIN SQL CHECK 4","2015-09-08 00:00:01","-","0","0"
"/www/ERP_crm/cronjob/create_follow_news.php","1627","BEGIN SQL CHECK 5","2015-09-08 00:00:01","-","0","0"
"/www/ERP_crm/cronjob/create_follow_news.php","1671","BEGIN SQL CHECK 6 >> 2","2015-09-08 00:00:01","-","0","0"
"/www/ERP_crm/cronjob/create_follow_news.php","1510","BEGIN SQL MAIN 25","2015-09-08 00:00:01","-","0","0"
"/www/ERP_crm/cronjob/create_follow_news.php","1545","BEGIN SQL CHECK 1","2015-09-08 00:00:01","-","0","0"
"/www/ERP_crm/cronjob/create_follow_news.php","1569","BEGIN SQL CHECK 2","2015-09-08 00:00:01","-","0","0"
"/www/ERP_crm/cronjob/create_follow_news.php","1594","BEGIN SQL CHECK 3","2015-09-08 00:00:01","-","0","0"
"/www/ERP_crm/cronjob/create_follow_news.php","1611","BEGIN SQL CHECK 4","2015-09-08 00:00:01","-","0","0"
"/www/ERP_crm/cronjob/create_follow_news.php","1627","BEGIN SQL CHECK 5","2015-09-08 00:00:01","-","0","0"
"/www/ERP_crm/cronjob/create_follow_news.php","1671","BEGIN SQL CHECK 6 >> 2","2015-09-08 00:00:01","-","0","0"
"/www/ERP_crm/cronjob/create_follow_news.php","1510","BEGIN SQL MAIN 26","2015-09-08 00:00:01","-","0","0"
"/www/ERP_crm/cronjob/create_follow_news.php","1545","BEGIN SQL CHECK 1","2015-09-08 00:00:01","-","0","0"
"/www/ERP_crm/cronjob/create_follow_news.php","1569","BEGIN SQL CHECK 2","2015-09-08 00:00:01","-","0","0"
"/www/ERP_crm/cronjob/create_follow_news.php","1594","BEGIN SQL CHECK 3","2015-09-08 00:00:01","-","0","0"
"/www/ERP_crm/cronjob/create_follow_news.php","1611","BEGIN SQL CHECK 4","2015-09-08 00:00:01","-","0","0"
"/www/ERP_crm/cronjob/create_follow_news.php","1627","BEGIN SQL CHECK 5","2015-09-08 00:00:01","-","0","0"
"/www/ERP_crm/cronjob/create_follow_news.php","1671","BEGIN SQL CHECK 6 >> 2","2015-09-08 00:00:01","-","0","0"
"/www/ERP_crm/cronjob/create_follow_news.php","1510","BEGIN SQL MAIN 27","2015-09-08 00:00:01","-","0","0"
"/www/ERP_crm/cronjob/create_follow_news.php","1545","BEGIN SQL CHECK 1","2015-09-08 00:00:01","-","0","0"
"/www/ERP_crm/cronjob/create_follow_news.php","1569","BEGIN SQL CHECK 2","2015-09-08 00:00:01","-","0","0"
"/www/ERP_crm/cronjob/create_follow_news.php","1594","BEGIN SQL CHECK 3","2015-09-08 00:00:01","-","0","0"
"/www/ERP_crm/cronjob/create_follow_news.php","1611","BEGIN SQL CHECK 4","2015-09-08 00:00:01","-","0","0"
"/www/ERP_crm/cronjob/create_follow_news.php","1627","BEGIN SQL CHECK 5","2015-09-08 00:00:01","-","0","0"
"/www/ERP_crm/cronjob/create_follow_news.php","1671","BEGIN SQL CHECK 6 >> 2","2015-09-08 00:00:01","-","0","0"
"/www/ERP_crm/cronjob/create_follow_news.php","1510","BEGIN SQL MAIN 28","2015-09-08 00:00:01","-","0","0"
"/www/ERP_crm/cronjob/create_follow_news.php","1545","BEGIN SQL CHECK 1","2015-09-08 00:00:01","-","0","0"
"/www/ERP_crm/cronjob/create_follow_news.php","1569","BEGIN SQL CHECK 2","2015-09-08 00:00:01","-","0","0"
"/www/ERP_crm/cronjob/create_follow_news.php","1594","BEGIN SQL CHECK 3","2015-09-08 00:00:01","-","0","0"
"/www/ERP_crm/cronjob/create_follow_news.php","1611","BEGIN SQL CHECK 4","2015-09-08 00:00:01","-","0","0"
"/www/ERP_crm/cronjob/create_follow_news.php","1627","BEGIN SQL CHECK 5","2015-09-08 00:00:01","-","0","0"
"/www/ERP_crm/cronjob/create_follow_news.php","1671","BEGIN SQL CHECK 6 >> 2","2015-09-08 00:00:01","-","0","0"
"/www/ERP_crm/cronjob/create_follow_news.php","1510","BEGIN SQL MAIN 29","2015-09-08 00:00:01","-","0","0"
"/www/ERP_crm/cronjob/create_follow_news.php","1545","BEGIN SQL CHECK 1","2015-09-08 00:00:01","-","0","0"
"/www/ERP_crm/cronjob/create_follow_news.php","1569","BEGIN SQL CHECK 2","2015-09-08 00:00:01","-","0","0"
"/www/ERP_crm/cronjob/create_follow_news.php","1594","BEGIN SQL CHECK 3","2015-09-08 00:00:01","-","0","0"
"/www/ERP_crm/cronjob/create_follow_news.php","1611","BEGIN SQL CHECK 4","2015-09-08 00:00:01","-","0","0"
"/www/ERP_crm/cronjob/create_follow_news.php","1627","BEGIN SQL CHECK 5","2015-09-08 00:00:01","-","0","0"
"/www/ERP_crm/cronjob/create_follow_news.php","1671","BEGIN SQL CHECK 6 >> 2","2015-09-08 00:00:01","-","0","0"
"/www/ERP_crm/cronjob/create_follow_news.php","1510","BEGIN SQL MAIN 30","2015-09-08 00:00:01","-","0","0"
"/www/ERP_crm/cronjob/create_follow_news.php","1545","BEGIN SQL CHECK 1","2015-09-08 00:00:01","-","0","0"
"/www/ERP_crm/cronjob/create_follow_news.php","1569","BEGIN SQL CHECK 2","2015-09-08 00:00:01","-","0","0"
"/www/ERP_crm/cronjob/create_follow_news.php","1594","BEGIN SQL CHECK 3","2015-09-08 00:00:01","-","0","0"
"/www/ERP_crm/cronjob/create_follow_news.php","1611","BEGIN SQL CHECK 4","2015-09-08 00:00:01","-","0","0"
"/www/ERP_crm/cronjob/create_follow_news.php","1627","BEGIN SQL CHECK 5","2015-09-08 00:00:01","-","0","0"
"/www/ERP_crm/cronjob/create_follow_news.php","1671","BEGIN SQL CHECK 6 >> 2","2015-09-08 00:00:01","-","0","0"
"/www/ERP_crm/cronjob/create_follow_news.php","1510","BEGIN SQL MAIN 31","2015-09-08 00:00:01","-","0","0"
"/www/ERP_crm/cronjob/create_follow_news.php","1545","BEGIN SQL CHECK 1","2015-09-08 00:00:01","-","0","0"
"/www/ERP_crm/cronjob/create_follow_news.php","1569","BEGIN SQL CHECK 2","2015-09-08 00:00:01","-","0","0"
"/www/ERP_crm/cronjob/create_follow_news.php","1594","BEGIN SQL CHECK 3","2015-09-08 00:00:01","-","0","0"
"/www/ERP_crm/cronjob/create_follow_news.php","1611","BEGIN SQL CHECK 4","2015-09-08 00:00:01","-","0","0"
"/www/ERP_crm/cronjob/create_follow_news.php","1627","BEGIN SQL CHECK 5","2015-09-08 00:00:01","-","0","0"
"/www/ERP_crm/cronjob/create_follow_news.php","1671","BEGIN SQL CHECK 6 >> 2","2015-09-08 00:00:01","-","0","0"
"/www/ERP_crm/cronjob/create_follow_news.php","1510","BEGIN SQL MAIN 32","2015-09-08 00:00:01","-","0","0"
"/www/ERP_crm/cronjob/create_follow_news.php","1545","BEGIN SQL CHECK 1","2015-09-08 00:00:01","-","0","0"
"/www/ERP_crm/cronjob/create_follow_news.php","1569","BEGIN SQL CHECK 2","2015-09-08 00:00:01","-","0","0"
"/www/ERP_crm/cronjob/create_follow_news.php","1594","BEGIN SQL CHECK 3","2015-09-08 00:00:01","-","0","0"
"/www/ERP_crm/cronjob/create_follow_news.php","1611","BEGIN SQL CHECK 4","2015-09-08 00:00:01","-","0","0"
"/www/ERP_crm/cronjob/create_follow_news.php","1627","BEGIN SQL CHECK 5","2015-09-08 00:00:01","-","0","0"
"/www/ERP_crm/cronjob/create_follow_news.php","1671","BEGIN SQL CHECK 6 >> 2","2015-09-08 00:00:01","-","0","0"
"/www/ERP_crm/cronjob/create_follow_news.php","1510","BEGIN SQL MAIN 33","2015-09-08 00:00:01","-","0","0"
"/www/ERP_crm/cronjob/create_follow_news.php","1545","BEGIN SQL CHECK 1","2015-09-08 00:00:01","-","0","0"
"/www/ERP_crm/cronjob/create_follow_news.php","1569","BEGIN SQL CHECK 2","2015-09-08 00:00:01","-","0","0"
"/www/ERP_crm/cronjob/create_follow_news.php","1594","BEGIN SQL CHECK 3","2015-09-08 00:00:01","-","0","0"
"/www/ERP_crm/cronjob/create_follow_news.php","1611","BEGIN SQL CHECK 4","2015-09-08 00:00:01","-","0","0"
"/www/ERP_crm/cronjob/create_follow_news.php","1627","BEGIN SQL CHECK 5","2015-09-08 00:00:01","-","0","0"
"/www/ERP_crm/cronjob/create_follow_news.php","1671","BEGIN SQL CHECK 6 >> 2","2015-09-08 00:00:01","-","0","0"
"/www/ERP_crm/cronjob/create_follow_news.php","1510","BEGIN SQL MAIN 34","2015-09-08 00:00:01","-","0","0"
"/www/ERP_crm/cronjob/create_follow_news.php","1545","BEGIN SQL CHECK 1","2015-09-08 00:00:01","-","0","0"
"/www/ERP_crm/cronjob/create_follow_news.php","1569","BEGIN SQL CHECK 2","2015-09-08 00:00:01","-","0","0"
"/www/ERP_crm/cronjob/create_follow_news.php","1594","BEGIN SQL CHECK 3","2015-09-08 00:00:01","-","0","0"
"/www/ERP_crm/cronjob/create_follow_news.php","1611","BEGIN SQL CHECK 4","2015-09-08 00:00:01","-","0","0"
"/www/ERP_crm/cronjob/create_follow_news.php","1627","BEGIN SQL CHECK 5","2015-09-08 00:00:01","-","0","0"
"/www/ERP_crm/cronjob/create_follow_news.php","1671","BEGIN SQL CHECK 6 >> 2","2015-09-08 00:00:01","-","0","0"
"/www/ERP_crm/cronjob/create_follow_news.php","1510","BEGIN SQL MAIN 35","2015-09-08 00:00:01","-","0","0"
"/www/ERP_crm/cronjob/create_follow_news.php","1545","BEGIN SQL CHECK 1","2015-09-08 00:00:01","-","0","0"
"/www/ERP_crm/cronjob/create_follow_news.php","1569","BEGIN SQL CHECK 2","2015-09-08 00:00:01","-","0","0"
"/www/ERP_crm/cronjob/create_follow_news.php","1594","BEGIN SQL CHECK 3","2015-09-08 00:00:01","-","0","0"
"/www/ERP_crm/cronjob/create_follow_news.php","1611","BEGIN SQL CHECK 4","2015-09-08 00:00:01","-","0","0"
"/www/ERP_crm/cronjob/create_follow_news.php","1627","BEGIN SQL CHECK 5","2015-09-08 00:00:01","-","0","0"
"/www/ERP_crm/cronjob/create_follow_news.php","1671","BEGIN SQL CHECK 6 >> 2","2015-09-08 00:00:01","-","0","0"
"/www/ERP_crm/cronjob/create_follow_news.php","1510","BEGIN SQL MAIN 36","2015-09-08 00:00:01","-","0","0"
"/www/ERP_crm/cronjob/create_follow_news.php","1545","BEGIN SQL CHECK 1","2015-09-08 00:00:01","-","0","0"
"/www/ERP_crm/cronjob/create_follow_news.php","1569","BEGIN SQL CHECK 2","2015-09-08 00:00:01","-","0","0"
"/www/ERP_crm/cronjob/create_follow_news.php","1594","BEGIN SQL CHECK 3","2015-09-08 00:00:01","-","0","0"
"/www/ERP_crm/cronjob/create_follow_news.php","1611","BEGIN SQL CHECK 4","2015-09-08 00:00:01","-","0","0"
"/www/ERP_crm/cronjob/create_follow_news.php","1627","BEGIN SQL CHECK 5","2015-09-08 00:00:01","-","0","0"
"/www/ERP_crm/cronjob/create_follow_news.php","1671","BEGIN SQL CHECK 6 >> 2","2015-09-08 00:00:01","-","0","0"
"/www/ERP_crm/cronjob/create_follow_news.php","1510","BEGIN SQL MAIN 37","2015-09-08 00:00:01","-","0","0"
"/www/ERP_crm/cronjob/create_follow_news.php","1545","BEGIN SQL CHECK 1","2015-09-08 00:00:01","-","0","0"
"/www/ERP_crm/cronjob/create_follow_news.php","1569","BEGIN SQL CHECK 2","2015-09-08 00:00:01","-","0","0"
"/www/ERP_crm/cronjob/create_follow_news.php","1594","BEGIN SQL CHECK 3","2015-09-08 00:00:01","-","0","0"
"/www/ERP_crm/cronjob/create_follow_news.php","1611","BEGIN SQL CHECK 4","2015-09-08 00:00:01","-","0","0"
"/www/ERP_crm/cronjob/create_follow_news.php","1627","BEGIN SQL CHECK 5","2015-09-08 00:00:01","-","0","0"
"/www/ERP_crm/cronjob/create_follow_news.php","1671","BEGIN SQL CHECK 6 >> 2","2015-09-08 00:00:01","-","0","0"
"/www/ERP_crm/cronjob/create_follow_news.php","1510","BEGIN SQL MAIN 38","2015-09-08 00:00:01","-","0","0"
"/www/ERP_crm/cronjob/create_follow_news.php","1545","BEGIN SQL CHECK 1","2015-09-08 00:00:01","-","0","0"
"/www/ERP_crm/cronjob/create_follow_news.php","1569","BEGIN SQL CHECK 2","2015-09-08 00:00:01","-","0","0"
"/www/ERP_crm/cronjob/create_follow_news.php","1594","BEGIN SQL CHECK 3","2015-09-08 00:00:01","-","0","0"
"/www/ERP_crm/cronjob/create_follow_news.php","1611","BEGIN SQL CHECK 4","2015-09-08 00:00:01","-","0","0"
"/www/ERP_crm/cronjob/create_follow_news.php","1627","BEGIN SQL CHECK 5","2015-09-08 00:00:01","-","0","0"
"/www/ERP_crm/cronjob/create_follow_news.php","1671","BEGIN SQL CHECK 6 >> 2","2015-09-08 00:00:01","-","0","0"
"/www/ERP_crm/cronjob/create_follow_news.php","1510","BEGIN SQL MAIN 39","2015-09-08 00:00:01","-","0","0"
"/www/ERP_crm/cronjob/create_follow_news.php","1545","BEGIN SQL CHECK 1","2015-09-08 00:00:01","-","0","0"
"/www/ERP_crm/cronjob/create_follow_news.php","1569","BEGIN SQL CHECK 2","2015-09-08 00:00:01","-","0","0"
"/www/ERP_crm/cronjob/create_follow_news.php","1594","BEGIN SQL CHECK 3","2015-09-08 00:00:01","-","0","0"
"/www/ERP_crm/cronjob/create_follow_news.php","1611","BEGIN SQL CHECK 4","2015-09-08 00:00:01","-","0","0"
"/www/ERP_crm/cronjob/create_follow_news.php","1627","BEGIN SQL CHECK 5","2015-09-08 00:00:01","-","0","0"
"/www/ERP_crm/cronjob/create_follow_news.php","1671","BEGIN SQL CHECK 6 >> 2","2015-09-08 00:00:01","-","0","0"
"/www/ERP_crm/cronjob/create_follow_news.php","1510","BEGIN SQL MAIN 40","2015-09-08 00:00:01","-","0","0"
"/www/ERP_crm/cronjob/create_follow_news.php","1545","BEGIN SQL CHECK 1","2015-09-08 00:00:01","-","0","0"
"/www/ERP_crm/cronjob/create_follow_news.php","1569","BEGIN SQL CHECK 2","2015-09-08 00:00:01","-","0","0"
"/www/ERP_crm/cronjob/create_follow_news.php","1594","BEGIN SQL CHECK 3","2015-09-08 00:00:01","-","0","0"
"/www/ERP_crm/cronjob/create_follow_news.php","1611","BEGIN SQL CHECK 4","2015-09-08 00:00:01","-","0","0"
"/www/ERP_crm/cronjob/create_follow_news.php","1627","BEGIN SQL CHECK 5","2015-09-08 00:00:01","-","0","0"
"/www/ERP_crm/cronjob/create_follow_news.php","1671","BEGIN SQL CHECK 6 >> 2","2015-09-08 00:00:01","-","0","0"
"/www/ERP_crm/cronjob/create_follow_news.php","1510","BEGIN SQL MAIN 41","2015-09-08 00:00:01","-","0","0"
"/www/ERP_crm/cronjob/create_follow_news.php","1545","BEGIN SQL CHECK 1","2015-09-08 00:00:01","-","0","0"
"/www/ERP_crm/cronjob/create_follow_news.php","1569","BEGIN SQL CHECK 2","2015-09-08 00:00:01","-","0","0"
"/www/ERP_crm/cronjob/create_follow_news.php","1594","BEGIN SQL CHECK 3","2015-09-08 00:00:01","-","0","0"
"/www/ERP_crm/cronjob/create_follow_news.php","1611","BEGIN SQL CHECK 4","2015-09-08 00:00:01","-","0","0"
"/www/ERP_crm/cronjob/create_follow_news.php","1627","BEGIN SQL CHECK 5","2015-09-08 00:00:01","-","0","0"
"/www/ERP_crm/cronjob/create_follow_news.php","1671","BEGIN SQL CHECK 6 >> 2","2015-09-08 00:00:01","-","0","0"
"/www/ERP_crm/cronjob/create_follow_news.php","1510","BEGIN SQL MAIN 42","2015-09-08 00:00:01","-","0","0"
"/www/ERP_crm/cronjob/create_follow_news.php","1545","BEGIN SQL CHECK 1","2015-09-08 00:00:01","-","0","0"
"/www/ERP_crm/cronjob/create_follow_news.php","1569","BEGIN SQL CHECK 2","2015-09-08 00:00:01","-","0","0"
"/www/ERP_crm/cronjob/create_follow_news.php","1594","BEGIN SQL CHECK 3","2015-09-08 00:00:01","-","0","0"
"/www/ERP_crm/cronjob/create_follow_news.php","1611","BEGIN SQL CHECK 4","2015-09-08 00:00:01","-","0","0"
"/www/ERP_crm/cronjob/create_follow_news.php","1627","BEGIN SQL CHECK 5","2015-09-08 00:00:01","-","0","0"
"/www/ERP_crm/cronjob/create_follow_news.php","1671","BEGIN SQL CHECK 6 >> 2","2015-09-08 00:00:01","-","0","0"
"/www/ERP_crm/cronjob/create_follow_news.php","1510","BEGIN SQL MAIN 43","2015-09-08 00:00:01","-","0","0"
"/www/ERP_crm/cronjob/create_follow_news.php","1545","BEGIN SQL CHECK 1","2015-09-08 00:00:01","-","0","0"
"/www/ERP_crm/cronjob/create_follow_news.php","1569","BEGIN SQL CHECK 2","2015-09-08 00:00:01","-","0","0"
"/www/ERP_crm/cronjob/create_follow_news.php","1594","BEGIN SQL CHECK 3","2015-09-08 00:00:01","-","0","0"
"/www/ERP_crm/cronjob/create_follow_news.php","1611","BEGIN SQL CHECK 4","2015-09-08 00:00:01","-","0","0"
"/www/ERP_crm/cronjob/create_follow_news.php","1627","BEGIN SQL CHECK 5","2015-09-08 00:00:01","-","0","0"
"/www/ERP_crm/cronjob/create_follow_news.php","1671","BEGIN SQL CHECK 6 >> 1","2015-09-08 00:00:01","-","0","0"
"/www/ERP_crm/cronjob/create_follow_news.php","1710","primary_field เริ่มต้นการสร้างข้อมูล Followup ","2015-09-08 00:00:01","-","0","0"
"/www/ERP_crm/cronjob/create_follow_news.php","1734","arr_source chk_exits_follow_cus  TEST TEST TESTเริ่มต้นการสร้างข้อมูล Followup ","2015-09-08 00:00:01","-","0","0"
"/www/ERP_crm/cronjob/create_follow_news.php","1769","get_field_type","2015-09-08 00:00:01","-","0","0"
"/www/ERP_crm/cronjob/create_follow_news.php","1795","field_date_format","2015-09-08 00:00:01","-","0","0"
"/www/ERP_crm/cronjob/create_follow_news.php","1813","field_date_type","2015-09-08 00:00:01","-","0","0"
"/www/ERP_crm/cronjob/create_follow_news.php","1510","BEGIN SQL MAIN 44","2015-09-08 00:00:01","-","0","0"
"/www/ERP_crm/cronjob/create_follow_news.php","1545","BEGIN SQL CHECK 1","2015-09-08 00:00:01","-","0","0"
"/www/ERP_crm/cronjob/create_follow_news.php","1569","BEGIN SQL CHECK 2","2015-09-08 00:00:01","-","0","0"
"/www/ERP_crm/cronjob/create_follow_news.php","1594","BEGIN SQL CHECK 3","2015-09-08 00:00:01","-","0","0"
"/www/ERP_crm/cronjob/create_follow_news.php","1611","BEGIN SQL CHECK 4","2015-09-08 00:00:01","-","0","0"
"/www/ERP_crm/cronjob/create_follow_news.php","1627","BEGIN SQL CHECK 5","2015-09-08 00:00:01","-","0","0"
"/www/ERP_crm/cronjob/create_follow_news.php","1671","BEGIN SQL CHECK 6 >> 1","2015-09-08 00:00:01","-","0","0"
"/www/ERP_crm/cronjob/create_follow_news.php","1710","primary_field เริ่มต้นการสร้างข้อมูล Followup ","2015-09-08 00:00:01","-","0","0"
"/www/ERP_crm/cronjob/create_follow_news.php","1734","arr_source chk_exits_follow_cus  TEST TEST TESTเริ่มต้นการสร้างข้อมูล Followup ","2015-09-08 00:00:01","-","0","0"
"/www/ERP_crm/cronjob/create_follow_news.php","1769","get_field_type","2015-09-08 00:00:01","-","0","0"
"/www/ERP_crm/cronjob/create_follow_news.php","1795","field_date_format","2015-09-08 00:00:01","-","0","0"
"/www/ERP_crm/cronjob/create_follow_news.php","1813","field_date_type","2015-09-08 00:00:01","-","0","0"
"/www/ERP_crm/cronjob/create_follow_news.php","1510","BEGIN SQL MAIN 45","2015-09-08 00:00:01","-","0","0"
"/www/ERP_crm/cronjob/create_follow_news.php","1545","BEGIN SQL CHECK 1","2015-09-08 00:00:01","-","0","0"
"/www/ERP_crm/cronjob/create_follow_news.php","1569","BEGIN SQL CHECK 2","2015-09-08 00:00:01","-","0","0"
"/www/ERP_crm/cronjob/create_follow_news.php","1594","BEGIN SQL CHECK 3","2015-09-08 00:00:01","-","0","0"
"/www/ERP_crm/cronjob/create_follow_news.php","1611","BEGIN SQL CHECK 4","2015-09-08 00:00:01","-","0","0"
"/www/ERP_crm/cronjob/create_follow_news.php","1627","BEGIN SQL CHECK 5","2015-09-08 00:00:01","-","0","0"
"/www/ERP_crm/cronjob/create_follow_news.php","1671","BEGIN SQL CHECK 6 >> 1","2015-09-08 00:00:01","-","0","0"
"/www/ERP_crm/cronjob/create_follow_news.php","1710","primary_field เริ่มต้นการสร้างข้อมูล Followup ","2015-09-08 00:00:01","-","0","0"
"/www/ERP_crm/cronjob/create_follow_news.php","1734","arr_source chk_exits_follow_cus  TEST TEST TESTเริ่มต้นการสร้างข้อมูล Followup ","2015-09-08 00:00:01","-","0","0"
"/www/ERP_crm/cronjob/create_follow_news.php","1769","get_field_type","2015-09-08 00:00:01","-","0","0"
"/www/ERP_crm/cronjob/create_follow_news.php","1795","field_date_format","2015-09-08 00:00:01","-","0","0"
"/www/ERP_crm/cronjob/create_follow_news.php","1813","field_date_type","2015-09-08 00:00:01","-","0","0"
"/www/ERP_crm/cronjob/create_follow_news.php","1510","BEGIN SQL MAIN 46","2015-09-08 00:00:01","-","0","0"
"/www/ERP_crm/cronjob/create_follow_news.php","1545","BEGIN SQL CHECK 1","2015-09-08 00:00:01","-","0","0"
"/www/ERP_crm/cronjob/create_follow_news.php","1569","BEGIN SQL CHECK 2","2015-09-08 00:00:01","-","0","0"
"/www/ERP_crm/cronjob/create_follow_news.php","1594","BEGIN SQL CHECK 3","2015-09-08 00:00:01","-","0","0"
"/www/ERP_crm/cronjob/create_follow_news.php","1611","BEGIN SQL CHECK 4","2015-09-08 00:00:01","-","0","0"
"/www/ERP_crm/cronjob/create_follow_news.php","1627","BEGIN SQL CHECK 5","2015-09-08 00:00:01","-","0","0"
"/www/ERP_crm/cronjob/create_follow_news.php","1671","BEGIN SQL CHECK 6 >> 1","2015-09-08 00:00:01","-","0","0"
"/www/ERP_crm/cronjob/create_follow_news.php","1710","primary_field เริ่มต้นการสร้างข้อมูล Followup ","2015-09-08 00:00:01","-","0","0"
"/www/ERP_crm/cronjob/create_follow_news.php","1734","arr_source chk_exits_follow_cus  TEST TEST TESTเริ่มต้นการสร้างข้อมูล Followup ","2015-09-08 00:00:01","-","0","0"
"/www/ERP_crm/cronjob/create_follow_news.php","1769","get_field_type","2015-09-08 00:00:01","-","0","0"
"/www/ERP_crm/cronjob/create_follow_news.php","1795","field_date_format","2015-09-08 00:00:01","-","0","0"
"/www/ERP_crm/cronjob/create_follow_news.php","1813","field_date_type","2015-09-08 00:00:01","-","0","0"
"/www/ERP_crm/cronjob/create_follow_news.php","1510","BEGIN SQL MAIN 47","2015-09-08 00:00:01","-","0","0"
"/www/ERP_crm/cronjob/create_follow_news.php","1545","BEGIN SQL CHECK 1","2015-09-08 00:00:01","-","0","0"
"/www/ERP_crm/cronjob/create_follow_news.php","1569","BEGIN SQL CHECK 2","2015-09-08 00:00:01","-","0","0"
"/www/ERP_crm/cronjob/create_follow_news.php","1594","BEGIN SQL CHECK 3","2015-09-08 00:00:01","-","0","0"
"/www/ERP_crm/cronjob/create_follow_news.php","1611","BEGIN SQL CHECK 4","2015-09-08 00:00:01","-","0","0"
"/www/ERP_crm/cronjob/create_follow_news.php","1627","BEGIN SQL CHECK 5","2015-09-08 00:00:01","-","0","0"
"/www/ERP_crm/cronjob/create_follow_news.php","1671","BEGIN SQL CHECK 6 >> 1","2015-09-08 00:00:01","-","0","0"
"/www/ERP_crm/cronjob/create_follow_news.php","1710","primary_field เริ่มต้นการสร้างข้อมูล Followup ","2015-09-08 00:00:01","-","0","0"
"/www/ERP_crm/cronjob/create_follow_news.php","1734","arr_source chk_exits_follow_cus  TEST TEST TESTเริ่มต้นการสร้างข้อมูล Followup ","2015-09-08 00:00:01","-","0","0"
"/www/ERP_crm/cronjob/create_follow_news.php","1769","get_field_type","2015-09-08 00:00:01","-","0","0"
"/www/ERP_crm/cronjob/create_follow_news.php","1795","field_date_format","2015-09-08 00:00:01","-","0","0"
"/www/ERP_crm/cronjob/create_follow_news.php","1813","field_date_type","2015-09-08 00:00:01","-","0","0"
"/www/ERP_crm/cronjob/create_follow_news.php","1510","BEGIN SQL MAIN 48","2015-09-08 00:00:01","-","0","0"
"/www/ERP_crm/cronjob/create_follow_news.php","1545","BEGIN SQL CHECK 1","2015-09-08 00:00:01","-","0","0"
"/www/ERP_crm/cronjob/create_follow_news.php","1569","BEGIN SQL CHECK 2","2015-09-08 00:00:01","-","0","0"
"/www/ERP_crm/cronjob/create_follow_news.php","1594","BEGIN SQL CHECK 3","2015-09-08 00:00:01","-","0","0"
"/www/ERP_crm/cronjob/create_follow_news.php","1611","BEGIN SQL CHECK 4","2015-09-08 00:00:01","-","0","0"
"/www/ERP_crm/cronjob/create_follow_news.php","1627","BEGIN SQL CHECK 5","2015-09-08 00:00:01","-","0","0"
"/www/ERP_crm/cronjob/create_follow_news.php","1671","BEGIN SQL CHECK 6 >> 1","2015-09-08 00:00:01","-","0","0"
"/www/ERP_crm/cronjob/create_follow_news.php","1710","primary_field เริ่มต้นการสร้างข้อมูล Followup ","2015-09-08 00:00:01","-","0","0"
"/www/ERP_crm/cronjob/create_follow_news.php","1734","arr_source chk_exits_follow_cus  TEST TEST TESTเริ่มต้นการสร้างข้อมูล Followup ","2015-09-08 00:00:01","-","0","0"
"/www/ERP_crm/cronjob/create_follow_news.php","1769","get_field_type","2015-09-08 00:00:01","-","0","0"
"/www/ERP_crm/cronjob/create_follow_news.php","1795","field_date_format","2015-09-08 00:00:01","-","0","0"
"/www/ERP_crm/cronjob/create_follow_news.php","1813","field_date_type","2015-09-08 00:00:01","-","0","0"
"/www/ERP_crm/cronjob/create_follow_news.php","1510","BEGIN SQL MAIN 49","2015-09-08 00:00:01","-","0","0"
"/www/ERP_crm/cronjob/create_follow_news.php","1545","BEGIN SQL CHECK 1","2015-09-08 00:00:01","-","0","0"
"/www/ERP_crm/cronjob/create_follow_news.php","1569","BEGIN SQL CHECK 2","2015-09-08 00:00:01","-","0","0"
"/www/ERP_crm/cronjob/create_follow_news.php","1594","BEGIN SQL CHECK 3","2015-09-08 00:00:01","-","0","0"
"/www/ERP_crm/cronjob/create_follow_news.php","1611","BEGIN SQL CHECK 4","2015-09-08 00:00:01","-","0","0"
"/www/ERP_crm/cronjob/create_follow_news.php","1627","BEGIN SQL CHECK 5","2015-09-08 00:00:01","-","0","0"
"/www/ERP_crm/cronjob/create_follow_news.php","1671","BEGIN SQL CHECK 6 >> 1","2015-09-08 00:00:01","-","0","0"
"/www/ERP_crm/cronjob/create_follow_news.php","1710","primary_field เริ่มต้นการสร้างข้อมูล Followup ","2015-09-08 00:00:01","-","0","0"
"/www/ERP_crm/cronjob/create_follow_news.php","1734","arr_source chk_exits_follow_cus  TEST TEST TESTเริ่มต้นการสร้างข้อมูล Followup ","2015-09-08 00:00:01","-","0","0"
"/www/ERP_crm/cronjob/create_follow_news.php","1769","get_field_type","2015-09-08 00:00:01","-","0","0"
"/www/ERP_crm/cronjob/create_follow_news.php","1795","field_date_format","2015-09-08 00:00:01","-","0","0"
"/www/ERP_crm/cronjob/create_follow_news.php","1813","field_date_type","2015-09-08 00:00:01","-","0","0"
"/www/ERP_crm/cronjob/create_follow_news.php","1510","BEGIN SQL MAIN 50","2015-09-08 00:00:01","-","0","0"
"/www/ERP_crm/cronjob/create_follow_news.php","1545","BEGIN SQL CHECK 1","2015-09-08 00:00:01","-","0","0"
"/www/ERP_crm/cronjob/create_follow_news.php","1569","BEGIN SQL CHECK 2","2015-09-08 00:00:01","-","0","0"
"/www/ERP_crm/cronjob/create_follow_news.php","1594","BEGIN SQL CHECK 3","2015-09-08 00:00:01","-","0","0"
"/www/ERP_crm/cronjob/create_follow_news.php","1611","BEGIN SQL CHECK 4","2015-09-08 00:00:01","-","0","0"
"/www/ERP_crm/cronjob/create_follow_news.php","1627","BEGIN SQL CHECK 5","2015-09-08 00:00:01","-","0","0"
"/www/ERP_crm/cronjob/create_follow_news.php","1671","BEGIN SQL CHECK 6 >> 1","2015-09-08 00:00:01","-","0","0"
"/www/ERP_crm/cronjob/create_follow_news.php","1710","primary_field เริ่มต้นการสร้างข้อมูล Followup ","2015-09-08 00:00:01","-","0","0"
"/www/ERP_crm/cronjob/create_follow_news.php","1734","arr_source chk_exits_follow_cus  TEST TEST TESTเริ่มต้นการสร้างข้อมูล Followup ","2015-09-08 00:00:01","-","0","0"
"/www/ERP_crm/cronjob/create_follow_news.php","1769","get_field_type","2015-09-08 00:00:01","-","0","0"
"/www/ERP_crm/cronjob/create_follow_news.php","1795","field_date_format","2015-09-08 00:00:01","-","0","0"
"/www/ERP_crm/cronjob/create_follow_news.php","1813","field_date_type","2015-09-08 00:00:01","-","0","0"
"/www/ERP_crm/cronjob/create_follow_news.php","1510","BEGIN SQL MAIN 51","2015-09-08 00:00:01","-","0","0"
"/www/ERP_crm/cronjob/create_follow_news.php","1545","BEGIN SQL CHECK 1","2015-09-08 00:00:01","-","0","0"
"/www/ERP_crm/cronjob/create_follow_news.php","1569","BEGIN SQL CHECK 2","2015-09-08 00:00:01","-","0","0"
"/www/ERP_crm/cronjob/create_follow_news.php","1594","BEGIN SQL CHECK 3","2015-09-08 00:00:01","-","0","0"
"/www/ERP_crm/cronjob/create_follow_news.php","1611","BEGIN SQL CHECK 4","2015-09-08 00:00:01","-","0","0"
"/www/ERP_crm/cronjob/create_follow_news.php","1627","BEGIN SQL CHECK 5","2015-09-08 00:00:01","-","0","0"
"/www/ERP_crm/cronjob/create_follow_news.php","1671","BEGIN SQL CHECK 6 >> 3","2015-09-08 00:00:01","-","0","0"
"/www/ERP_crm/cronjob/create_follow_news.php","2537","primary_field เริ่มต้นการสร้างข้อมูล Followup ","2015-09-08 00:00:01","-","0","0"
"/www/ERP_crm/cronjob/create_follow_news.php","2561","arr_source chk_exits_follow_cus  TEST TEST TESTเริ่มต้นการสร้างข้อมูล Followup ","2015-09-08 00:00:01","-","0","0"
"/www/ERP_crm/cronjob/create_follow_news.php","1510","BEGIN SQL MAIN 52","2015-09-08 00:00:01","-","0","0"
"/www/ERP_crm/cronjob/create_follow_news.php","1545","BEGIN SQL CHECK 1","2015-09-08 00:00:01","-","0","0"
"/www/ERP_crm/cronjob/create_follow_news.php","1569","BEGIN SQL CHECK 2","2015-09-08 00:00:01","-","0","0"
"/www/ERP_crm/cronjob/create_follow_news.php","1594","BEGIN SQL CHECK 3","2015-09-08 00:00:01","-","0","0"
"/www/ERP_crm/cronjob/create_follow_news.php","1611","BEGIN SQL CHECK 4","2015-09-08 00:00:01","-","0","0"
"/www/ERP_crm/cronjob/create_follow_news.php","1627","BEGIN SQL CHECK 5","2015-09-08 00:00:01","-","0","0"
"/www/ERP_crm/cronjob/create_follow_news.php","1671","BEGIN SQL CHECK 6 >> 3","2015-09-08 00:00:01","-","0","0"
"/www/ERP_crm/cronjob/create_follow_news.php","2537","primary_field เริ่มต้นการสร้างข้อมูล Followup ","2015-09-08 00:00:01","-","0","0"
"/www/ERP_crm/cronjob/create_follow_news.php","2561","arr_source chk_exits_follow_cus  TEST TEST TESTเริ่มต้นการสร้างข้อมูล Followup ","2015-09-08 00:00:01","-","0","0"
"/www/ERP_crm/cronjob/create_follow_news.php","2991","สิ้นสุดการสร้างข้อมูล Followup ","-","2015-09-08 00:13:07","566","0"
