"FILE","LINE","TITLE","START_TIME","SUCCESS_TIME","FOLLOW","AllCusLOOP"
"/CRM/create_follow_news.php","826","สิ้นสุดการสร้างข้อมูล Followup ","-","2012-05-06 17:25:44","0","0"
"/CRM/create_follow_news.php","825","สิ้นสุดการสร้างข้อมูล Followup ","-","2012-05-06 17:26:09","0","0"
"/CRM/create_follow_news.php","824","สิ้นสุดการสร้างข้อมูล Followup ","-","2012-05-06 17:26:16","0","0"
"/CRM/create_follow_news.php","826","สิ้นสุดการสร้างข้อมูล Followup ","-","2012-05-06 17:27:06","0","0"
"/CRM/create_follow_news.php","826","สิ้นสุดการสร้างข้อมูล Followup ","-","2012-05-06 17:34:56","0","0"
"/CRM/create_follow_news.php","826","สิ้นสุดการสร้างข้อมูล Followup ","-","2012-05-06 17:57:15","0","0"
"/CRM/create_follow_news.php","826","สิ้นสุดการสร้างข้อมูล Followup ","-","2012-05-06 17:57:31","0","0"
"/CRM/create_follow_news.php","826","สิ้นสุดการสร้างข้อมูล Followup ","-","2012-05-06 18:00:27","0","0"
"/CRM/create_follow_news.php","826","สิ้นสุดการสร้างข้อมูล Followup ","-","2012-05-06 18:03:12","0","0"
"/CRM/create_follow_news.php","826","สิ้นสุดการสร้างข้อมูล Followup ","-","2012-05-06 18:05:13","0","0"
"/CRM/create_follow_news.php","826","สิ้นสุดการสร้างข้อมูล Followup ","-","2012-05-06 18:05:24","0","0"
"/CRM/create_follow_news.php","830","สิ้นสุดการสร้างข้อมูล Followup ","-","2012-05-06 18:12:06","0","0"
"/CRM/create_follow_news.php","830","สิ้นสุดการสร้างข้อมูล Followup ","-","2012-05-06 18:12:41","0","0"
"/CRM/create_follow_news.php","830","สิ้นสุดการสร้างข้อมูล Followup ","-","2012-05-06 18:13:55","0","0"
"/CRM/create_follow_news.php","830","สิ้นสุดการสร้างข้อมูล Followup ","-","2012-05-06 18:25:03","0","0"
"/CRM/create_follow_news.php","830","สิ้นสุดการสร้างข้อมูล Followup ","-","2012-05-06 18:28:30","0","0"
"/CRM/create_follow_news.php","830","สิ้นสุดการสร้างข้อมูล Followup ","-","2012-05-06 18:29:45","0","0"
"/CRM/create_follow_news.php","831","สิ้นสุดการสร้างข้อมูล Followup ","-","2012-05-06 18:31:56","0","0"
"/CRM/create_follow_news.php","831","สิ้นสุดการสร้างข้อมูล Followup ","-","2012-05-06 18:37:34","0","0"
"/CRM/create_follow_news.php","831","สิ้นสุดการสร้างข้อมูล Followup ","-","2012-05-06 18:40:26","19","0"
"/CRM/create_follow_news.php","831","สิ้นสุดการสร้างข้อมูล Followup ","-","2012-05-06 18:41:23","0","0"
"/CRM/create_follow_news.php","831","สิ้นสุดการสร้างข้อมูล Followup ","-","2012-05-06 18:42:16","19","0"
