"FILE","LINE","TITLE","START_TIME","ERROR_TIME","Num","MYSQL","SQL"
"/www/CRM/create_follow_news.php","404","ข้อผิดพลาดที่พบขณะรันสคริปต์","2012-04-21 11:38:13","2012-04-21 11:38:13","0","<font color='#ff0000'>You have an error in your SQL syntax; check the manual that corresponds to your MySQL server version for the right syntax to use near 'WHERE DATE_ADD(DATE_FORMAT(Booking_Date,'%Y-%m-%d'), INTERVAL 5 day)>=NOW() LIMI' at line 3</font>","SELECT DATE_FORMAT(Booking_Date,'%Y-%m-%d') AS DATE_VAL, 
					DATE_ADD(DATE_FORMAT(Booking_Date,'%Y-%m-%d'), INTERVAL 5 day) AS STOP_DATE
					FROM new_icmba.Booking   WHERE BDate_upstatus <> ''   WHERE DATE_ADD(DATE_FORMAT(Booking_Date,'%Y-%m-%d'), INTERVAL 5 day)>=NOW() LIMIT 5"
"/www/CRM/create_follow_news.php","408","ข้อผิดพลาดที่พบขณะรันสคริปต์","2012-04-21 12:21:40","2012-04-21 12:21:40","0","<font color='#ff0000'>You have an error in your SQL syntax; check the manual that corresponds to your MySQL server version for the right syntax to use near ''%Y-%m-%d') <> '0000-00-00'  LIMIT 50' at line 3</font>","SELECT DATE_FORMAT(Booking_Date,'%Y-%m-%d') AS DATE_VAL, 
					DATE_ADD(DATE_FORMAT(Booking_Date,'%Y-%m-%d'), INTERVAL 5 day) AS STOP_DATE,
					CusNo, Chassi_No_B FROM new_icmba.Booking  WHERE DATE_ADD(DATE_FORMAT(Booking_Date,'%Y-%m-%d'), INTERVAL 5 day)>=NOW()  AND DATE_ADD(BDate_upstatus,'%Y-%m-%d') <> '0000-00-00'  LIMIT 50"
