"FILE","LINE","TITLE","START_TIME","SUCCESS_TIME","FOLLOW","AllCusLOOP"
"/CRM/create_follow_news.php","893","สิ้นสุดการสร้างข้อมูล Followup ","-","2012-05-12 12:09:38","0","0"
"/CRM/create_follow_news.php","893","สิ้นสุดการสร้างข้อมูล Followup ","-","2012-05-12 12:21:39","0","0"
"/CRM/create_follow_news.php","894","สิ้นสุดการสร้างข้อมูล Followup ","-","2012-05-12 12:37:08","0","0"
"/CRM/create_follow_news.php","894","สิ้นสุดการสร้างข้อมูล Followup ","-","2012-05-12 12:39:24","0","0"
"/CRM/create_follow_news.php","894","สิ้นสุดการสร้างข้อมูล Followup ","-","2012-05-12 12:40:36","0","0"
"/CRM/create_follow_news.php","894","สิ้นสุดการสร้างข้อมูล Followup ","-","2012-05-12 12:41:15","0","0"
"/CRM/create_follow_news.php","895","สิ้นสุดการสร้างข้อมูล Followup ","-","2012-05-12 12:42:07","0","0"
"/CRM/create_follow_news.php","895","สิ้นสุดการสร้างข้อมูล Followup ","-","2012-05-12 12:46:52","0","0"
"/CRM/create_follow_news.php","905","สิ้นสุดการสร้างข้อมูล Followup ","-","2012-05-12 13:09:45","0","0"
"/CRM/create_follow_news.php","909","สิ้นสุดการสร้างข้อมูล Followup ","-","2012-05-12 13:18:12","0","0"
"/CRM/create_follow_news.php","910","สิ้นสุดการสร้างข้อมูล Followup ","-","2012-05-12 13:18:48","0","0"
"/CRM/create_follow_news.php","911","สิ้นสุดการสร้างข้อมูล Followup ","-","2012-05-12 14:48:27","0","0"
"/CRM/create_follow_news.php","911","สิ้นสุดการสร้างข้อมูล Followup ","-","2012-05-12 14:50:50","0","0"
"/CRM/create_follow_news.php","911","สิ้นสุดการสร้างข้อมูล Followup ","-","2012-05-12 14:51:05","0","0"
"/CRM/create_follow_news.php","912","สิ้นสุดการสร้างข้อมูล Followup ","-","2012-05-12 14:52:17","0","0"
"/CRM/create_follow_news.php","912","สิ้นสุดการสร้างข้อมูล Followup ","-","2012-05-12 14:52:31","0","0"
"/CRM/create_follow_news.php","912","สิ้นสุดการสร้างข้อมูล Followup ","-","2012-05-12 14:53:08","0","0"
"/CRM/create_follow_news.php","912","สิ้นสุดการสร้างข้อมูล Followup ","-","2012-05-12 14:53:40","0","0"
"/CRM/create_follow_news.php","922","สิ้นสุดการสร้างข้อมูล Followup ","-","2012-05-12 14:55:13","0","0"
"/CRM/create_follow_news.php","942","สิ้นสุดการสร้างข้อมูล Followup ","-","2012-05-12 15:21:09","0","0"
"/CRM/create_follow_news.php","942","สิ้นสุดการสร้างข้อมูล Followup ","-","2012-05-12 15:22:30","0","0"
"/CRM/create_follow_news.php","943","สิ้นสุดการสร้างข้อมูล Followup ","-","2012-05-12 15:23:52","0","0"
"/CRM/create_follow_news.php","944","สิ้นสุดการสร้างข้อมูล Followup ","-","2012-05-12 15:25:47","0","0"
"/CRM/create_follow_news.php","943","สิ้นสุดการสร้างข้อมูล Followup ","-","2012-05-12 15:26:04","0","0"
"/CRM/create_follow_news.php","944","สิ้นสุดการสร้างข้อมูล Followup ","-","2012-05-12 15:27:31","0","0"
"/CRM/create_follow_news.php","946","สิ้นสุดการสร้างข้อมูล Followup ","-","2012-05-12 15:32:03","0","0"
"/CRM/create_follow_news.php","947","สิ้นสุดการสร้างข้อมูล Followup ","-","2012-05-12 15:32:52","0","0"
"/CRM/create_follow_news.php","939","สิ้นสุดการสร้างข้อมูล Followup ","-","2012-05-12 16:15:58","0","0"
"/CRM/create_follow_news.php","941","สิ้นสุดการสร้างข้อมูล Followup ","-","2012-05-12 16:16:45","0","0"
"/CRM/create_follow_news.php","942","สิ้นสุดการสร้างข้อมูล Followup ","-","2012-05-12 16:18:41","0","0"
"/CRM/create_follow_news.php","944","สิ้นสุดการสร้างข้อมูล Followup ","-","2012-05-12 16:19:49","0","0"
"/CRM/create_follow_news.php","943","สิ้นสุดการสร้างข้อมูล Followup ","-","2012-05-12 16:21:05","0","0"
