"FILE","LINE","TITLE","START_TIME","SUCCESS_TIME","FOLLOW","AllCusLOOP"
"/www/ERP_crm/cronjob/create_follow_news.php","127","เริ่มต้นการสร้างข้อมูล Followup ","2013-02-14 09:12:53","-","0","0"
"/www/ERP_crm/cronjob/create_follow_news.php","2237","primary_field เริ่มต้นการสร้างข้อมูล Followup ","2013-02-14 09:12:53","-","0","0"
"/www/ERP_crm/cronjob/create_follow_news.php","2264","arr_source chk_exits_follow_cus  TEST TEST TESTเริ่มต้นการสร้างข้อมูล Followup ","2013-02-14 09:12:53","-","0","0"
"/www/ERP_crm/cronjob/create_follow_news.php","1512","primary_field เริ่มต้นการสร้างข้อมูล Followup ","2013-02-14 09:12:53","-","0","0"
"/www/ERP_crm/cronjob/create_follow_news.php","1550","arr_source chk_exits_follow_cus  TEST TEST TESTเริ่มต้นการสร้างข้อมูล Followup ","2013-02-14 09:12:53","-","0","0"
"/www/ERP_crm/cronjob/create_follow_news.php","1512","primary_field เริ่มต้นการสร้างข้อมูล Followup ","2013-02-14 09:12:53","-","0","0"
"/www/ERP_crm/cronjob/create_follow_news.php","1550","arr_source chk_exits_follow_cus  TEST TEST TESTเริ่มต้นการสร้างข้อมูล Followup ","2013-02-14 09:12:53","-","0","0"
"/www/ERP_crm/cronjob/create_follow_news.php","1512","primary_field เริ่มต้นการสร้างข้อมูล Followup ","2013-02-14 09:12:53","-","0","0"
"/www/ERP_crm/cronjob/create_follow_news.php","1550","arr_source chk_exits_follow_cus  TEST TEST TESTเริ่มต้นการสร้างข้อมูล Followup ","2013-02-14 09:12:53","-","0","0"
"/www/ERP_crm/cronjob/create_follow_news.php","1512","primary_field เริ่มต้นการสร้างข้อมูล Followup ","2013-02-14 09:12:53","-","0","0"
"/www/ERP_crm/cronjob/create_follow_news.php","1550","arr_source chk_exits_follow_cus  TEST TEST TESTเริ่มต้นการสร้างข้อมูล Followup ","2013-02-14 09:12:53","-","0","0"
"/www/ERP_crm/cronjob/create_follow_news.php","1512","primary_field เริ่มต้นการสร้างข้อมูล Followup ","2013-02-14 09:12:53","-","0","0"
"/www/ERP_crm/cronjob/create_follow_news.php","1550","arr_source chk_exits_follow_cus  TEST TEST TESTเริ่มต้นการสร้างข้อมูล Followup ","2013-02-14 09:12:53","-","0","0"
"/www/ERP_crm/cronjob/create_follow_news.php","1512","primary_field เริ่มต้นการสร้างข้อมูล Followup ","2013-02-14 09:12:53","-","0","0"
"/www/ERP_crm/cronjob/create_follow_news.php","1550","arr_source chk_exits_follow_cus  TEST TEST TESTเริ่มต้นการสร้างข้อมูล Followup ","2013-02-14 09:12:53","-","0","0"
"/www/ERP_crm/cronjob/create_follow_news.php","1512","primary_field เริ่มต้นการสร้างข้อมูล Followup ","2013-02-14 09:12:53","-","0","0"
"/www/ERP_crm/cronjob/create_follow_news.php","1550","arr_source chk_exits_follow_cus  TEST TEST TESTเริ่มต้นการสร้างข้อมูล Followup ","2013-02-14 09:12:53","-","0","0"
"/www/ERP_crm/cronjob/create_follow_news.php","1512","primary_field เริ่มต้นการสร้างข้อมูล Followup ","2013-02-14 09:12:53","-","0","0"
"/www/ERP_crm/cronjob/create_follow_news.php","1550","arr_source chk_exits_follow_cus  TEST TEST TESTเริ่มต้นการสร้างข้อมูล Followup ","2013-02-14 09:12:53","-","0","0"
"/www/ERP_crm/cronjob/create_follow_news.php","1512","primary_field เริ่มต้นการสร้างข้อมูล Followup ","2013-02-14 09:12:53","-","0","0"
"/www/ERP_crm/cronjob/create_follow_news.php","1550","arr_source chk_exits_follow_cus  TEST TEST TESTเริ่มต้นการสร้างข้อมูล Followup ","2013-02-14 09:12:53","-","0","0"
"/www/ERP_crm/cronjob/create_follow_news.php","1512","primary_field เริ่มต้นการสร้างข้อมูล Followup ","2013-02-14 09:12:53","-","0","0"
"/www/ERP_crm/cronjob/create_follow_news.php","1550","arr_source chk_exits_follow_cus  TEST TEST TESTเริ่มต้นการสร้างข้อมูล Followup ","2013-02-14 09:12:53","-","0","0"
"/www/ERP_crm/cronjob/create_follow_news.php","2598","สิ้นสุดการสร้างข้อมูล Followup ","-","2013-02-14 09:14:28","6469","0"
"/www/ERP_crm/cronjob/create_follow_news.php","127","เริ่มต้นการสร้างข้อมูล Followup ","2013-02-14 10:29:34","-","0","0"
"/www/ERP_crm/cronjob/create_follow_news.php","2237","primary_field เริ่มต้นการสร้างข้อมูล Followup ","2013-02-14 10:29:34","-","0","0"
"/www/ERP_crm/cronjob/create_follow_news.php","2264","arr_source chk_exits_follow_cus  TEST TEST TESTเริ่มต้นการสร้างข้อมูล Followup ","2013-02-14 10:29:34","-","0","0"
"/www/ERP_crm/cronjob/create_follow_news.php","1512","primary_field เริ่มต้นการสร้างข้อมูล Followup ","2013-02-14 10:29:34","-","0","0"
"/www/ERP_crm/cronjob/create_follow_news.php","1550","arr_source chk_exits_follow_cus  TEST TEST TESTเริ่มต้นการสร้างข้อมูล Followup ","2013-02-14 10:29:34","-","0","0"
"/www/ERP_crm/cronjob/create_follow_news.php","1512","primary_field เริ่มต้นการสร้างข้อมูล Followup ","2013-02-14 10:29:34","-","0","0"
"/www/ERP_crm/cronjob/create_follow_news.php","1550","arr_source chk_exits_follow_cus  TEST TEST TESTเริ่มต้นการสร้างข้อมูล Followup ","2013-02-14 10:29:34","-","0","0"
"/www/ERP_crm/cronjob/create_follow_news.php","1512","primary_field เริ่มต้นการสร้างข้อมูล Followup ","2013-02-14 10:29:34","-","0","0"
"/www/ERP_crm/cronjob/create_follow_news.php","1550","arr_source chk_exits_follow_cus  TEST TEST TESTเริ่มต้นการสร้างข้อมูล Followup ","2013-02-14 10:29:34","-","0","0"
"/www/ERP_crm/cronjob/create_follow_news.php","1512","primary_field เริ่มต้นการสร้างข้อมูล Followup ","2013-02-14 10:29:34","-","0","0"
"/www/ERP_crm/cronjob/create_follow_news.php","1550","arr_source chk_exits_follow_cus  TEST TEST TESTเริ่มต้นการสร้างข้อมูล Followup ","2013-02-14 10:29:34","-","0","0"
"/www/ERP_crm/cronjob/create_follow_news.php","1512","primary_field เริ่มต้นการสร้างข้อมูล Followup ","2013-02-14 10:29:34","-","0","0"
"/www/ERP_crm/cronjob/create_follow_news.php","1550","arr_source chk_exits_follow_cus  TEST TEST TESTเริ่มต้นการสร้างข้อมูล Followup ","2013-02-14 10:29:34","-","0","0"
"/www/ERP_crm/cronjob/create_follow_news.php","1512","primary_field เริ่มต้นการสร้างข้อมูล Followup ","2013-02-14 10:29:34","-","0","0"
"/www/ERP_crm/cronjob/create_follow_news.php","1550","arr_source chk_exits_follow_cus  TEST TEST TESTเริ่มต้นการสร้างข้อมูล Followup ","2013-02-14 10:29:34","-","0","0"
"/www/ERP_crm/cronjob/create_follow_news.php","1512","primary_field เริ่มต้นการสร้างข้อมูล Followup ","2013-02-14 10:29:34","-","0","0"
"/www/ERP_crm/cronjob/create_follow_news.php","1550","arr_source chk_exits_follow_cus  TEST TEST TESTเริ่มต้นการสร้างข้อมูล Followup ","2013-02-14 10:29:34","-","0","0"
"/www/ERP_crm/cronjob/create_follow_news.php","1512","primary_field เริ่มต้นการสร้างข้อมูล Followup ","2013-02-14 10:29:34","-","0","0"
"/www/ERP_crm/cronjob/create_follow_news.php","1550","arr_source chk_exits_follow_cus  TEST TEST TESTเริ่มต้นการสร้างข้อมูล Followup ","2013-02-14 10:29:34","-","0","0"
"/www/ERP_crm/cronjob/create_follow_news.php","1512","primary_field เริ่มต้นการสร้างข้อมูล Followup ","2013-02-14 10:29:34","-","0","0"
"/www/ERP_crm/cronjob/create_follow_news.php","1550","arr_source chk_exits_follow_cus  TEST TEST TESTเริ่มต้นการสร้างข้อมูล Followup ","2013-02-14 10:29:34","-","0","0"
"/www/ERP_crm/cronjob/create_follow_news.php","1512","primary_field เริ่มต้นการสร้างข้อมูล Followup ","2013-02-14 10:29:34","-","0","0"
"/www/ERP_crm/cronjob/create_follow_news.php","1550","arr_source chk_exits_follow_cus  TEST TEST TESTเริ่มต้นการสร้างข้อมูล Followup ","2013-02-14 10:29:34","-","0","0"
"/www/ERP_crm/cronjob/create_follow_news.php","2598","สิ้นสุดการสร้างข้อมูล Followup ","-","2013-02-14 10:30:32","6499","0"
"/www/ERP_crm/cronjob/create_follow_news.php","127","เริ่มต้นการสร้างข้อมูล Followup ","2013-02-14 10:39:08","-","0","0"
"/www/ERP_crm/cronjob/create_follow_news.php","2237","primary_field เริ่มต้นการสร้างข้อมูล Followup ","2013-02-14 10:39:08","-","0","0"
"/www/ERP_crm/cronjob/create_follow_news.php","2264","arr_source chk_exits_follow_cus  TEST TEST TESTเริ่มต้นการสร้างข้อมูล Followup ","2013-02-14 10:39:08","-","0","0"
"/www/ERP_crm/cronjob/create_follow_news.php","1512","primary_field เริ่มต้นการสร้างข้อมูล Followup ","2013-02-14 10:39:08","-","0","0"
"/www/ERP_crm/cronjob/create_follow_news.php","1550","arr_source chk_exits_follow_cus  TEST TEST TESTเริ่มต้นการสร้างข้อมูล Followup ","2013-02-14 10:39:08","-","0","0"
"/www/ERP_crm/cronjob/create_follow_news.php","1512","primary_field เริ่มต้นการสร้างข้อมูล Followup ","2013-02-14 10:39:08","-","0","0"
"/www/ERP_crm/cronjob/create_follow_news.php","1550","arr_source chk_exits_follow_cus  TEST TEST TESTเริ่มต้นการสร้างข้อมูล Followup ","2013-02-14 10:39:08","-","0","0"
"/www/ERP_crm/cronjob/create_follow_news.php","1512","primary_field เริ่มต้นการสร้างข้อมูล Followup ","2013-02-14 10:39:08","-","0","0"
"/www/ERP_crm/cronjob/create_follow_news.php","1550","arr_source chk_exits_follow_cus  TEST TEST TESTเริ่มต้นการสร้างข้อมูล Followup ","2013-02-14 10:39:08","-","0","0"
"/www/ERP_crm/cronjob/create_follow_news.php","1512","primary_field เริ่มต้นการสร้างข้อมูล Followup ","2013-02-14 10:39:08","-","0","0"
"/www/ERP_crm/cronjob/create_follow_news.php","1550","arr_source chk_exits_follow_cus  TEST TEST TESTเริ่มต้นการสร้างข้อมูล Followup ","2013-02-14 10:39:08","-","0","0"
"/www/ERP_crm/cronjob/create_follow_news.php","1512","primary_field เริ่มต้นการสร้างข้อมูล Followup ","2013-02-14 10:39:08","-","0","0"
"/www/ERP_crm/cronjob/create_follow_news.php","1550","arr_source chk_exits_follow_cus  TEST TEST TESTเริ่มต้นการสร้างข้อมูล Followup ","2013-02-14 10:39:08","-","0","0"
"/www/ERP_crm/cronjob/create_follow_news.php","1512","primary_field เริ่มต้นการสร้างข้อมูล Followup ","2013-02-14 10:39:08","-","0","0"
"/www/ERP_crm/cronjob/create_follow_news.php","1550","arr_source chk_exits_follow_cus  TEST TEST TESTเริ่มต้นการสร้างข้อมูล Followup ","2013-02-14 10:39:08","-","0","0"
"/www/ERP_crm/cronjob/create_follow_news.php","1512","primary_field เริ่มต้นการสร้างข้อมูล Followup ","2013-02-14 10:39:08","-","0","0"
"/www/ERP_crm/cronjob/create_follow_news.php","1550","arr_source chk_exits_follow_cus  TEST TEST TESTเริ่มต้นการสร้างข้อมูล Followup ","2013-02-14 10:39:08","-","0","0"
"/www/ERP_crm/cronjob/create_follow_news.php","1512","primary_field เริ่มต้นการสร้างข้อมูล Followup ","2013-02-14 10:39:08","-","0","0"
"/www/ERP_crm/cronjob/create_follow_news.php","1550","arr_source chk_exits_follow_cus  TEST TEST TESTเริ่มต้นการสร้างข้อมูล Followup ","2013-02-14 10:39:08","-","0","0"
"/www/ERP_crm/cronjob/create_follow_news.php","1512","primary_field เริ่มต้นการสร้างข้อมูล Followup ","2013-02-14 10:39:08","-","0","0"
"/www/ERP_crm/cronjob/create_follow_news.php","1550","arr_source chk_exits_follow_cus  TEST TEST TESTเริ่มต้นการสร้างข้อมูล Followup ","2013-02-14 10:39:08","-","0","0"
"/www/ERP_crm/cronjob/create_follow_news.php","1512","primary_field เริ่มต้นการสร้างข้อมูล Followup ","2013-02-14 10:39:08","-","0","0"
"/www/ERP_crm/cronjob/create_follow_news.php","1550","arr_source chk_exits_follow_cus  TEST TEST TESTเริ่มต้นการสร้างข้อมูล Followup ","2013-02-14 10:39:08","-","0","0"
"/www/ERP_crm/cronjob/create_follow_news.php","2598","สิ้นสุดการสร้างข้อมูล Followup ","-","2013-02-14 10:40:06","6499","0"
"/www/ERP_crm/cronjob/create_follow_news.php","127","เริ่มต้นการสร้างข้อมูล Followup ","2013-02-14 10:40:37","-","0","0"
"/www/ERP_crm/cronjob/create_follow_news.php","2237","primary_field เริ่มต้นการสร้างข้อมูล Followup ","2013-02-14 10:40:37","-","0","0"
"/www/ERP_crm/cronjob/create_follow_news.php","2264","arr_source chk_exits_follow_cus  TEST TEST TESTเริ่มต้นการสร้างข้อมูล Followup ","2013-02-14 10:40:37","-","0","0"
"/www/ERP_crm/cronjob/create_follow_news.php","1512","primary_field เริ่มต้นการสร้างข้อมูล Followup ","2013-02-14 10:40:37","-","0","0"
"/www/ERP_crm/cronjob/create_follow_news.php","1550","arr_source chk_exits_follow_cus  TEST TEST TESTเริ่มต้นการสร้างข้อมูล Followup ","2013-02-14 10:40:37","-","0","0"
"/www/ERP_crm/cronjob/create_follow_news.php","1512","primary_field เริ่มต้นการสร้างข้อมูล Followup ","2013-02-14 10:40:37","-","0","0"
"/www/ERP_crm/cronjob/create_follow_news.php","1550","arr_source chk_exits_follow_cus  TEST TEST TESTเริ่มต้นการสร้างข้อมูล Followup ","2013-02-14 10:40:37","-","0","0"
"/www/ERP_crm/cronjob/create_follow_news.php","1512","primary_field เริ่มต้นการสร้างข้อมูล Followup ","2013-02-14 10:40:37","-","0","0"
"/www/ERP_crm/cronjob/create_follow_news.php","1550","arr_source chk_exits_follow_cus  TEST TEST TESTเริ่มต้นการสร้างข้อมูล Followup ","2013-02-14 10:40:37","-","0","0"
"/www/ERP_crm/cronjob/create_follow_news.php","1512","primary_field เริ่มต้นการสร้างข้อมูล Followup ","2013-02-14 10:40:37","-","0","0"
"/www/ERP_crm/cronjob/create_follow_news.php","1550","arr_source chk_exits_follow_cus  TEST TEST TESTเริ่มต้นการสร้างข้อมูล Followup ","2013-02-14 10:40:37","-","0","0"
"/www/ERP_crm/cronjob/create_follow_news.php","1512","primary_field เริ่มต้นการสร้างข้อมูล Followup ","2013-02-14 10:40:37","-","0","0"
"/www/ERP_crm/cronjob/create_follow_news.php","1550","arr_source chk_exits_follow_cus  TEST TEST TESTเริ่มต้นการสร้างข้อมูล Followup ","2013-02-14 10:40:37","-","0","0"
"/www/ERP_crm/cronjob/create_follow_news.php","1512","primary_field เริ่มต้นการสร้างข้อมูล Followup ","2013-02-14 10:40:37","-","0","0"
"/www/ERP_crm/cronjob/create_follow_news.php","1550","arr_source chk_exits_follow_cus  TEST TEST TESTเริ่มต้นการสร้างข้อมูล Followup ","2013-02-14 10:40:37","-","0","0"
"/www/ERP_crm/cronjob/create_follow_news.php","1512","primary_field เริ่มต้นการสร้างข้อมูล Followup ","2013-02-14 10:40:37","-","0","0"
"/www/ERP_crm/cronjob/create_follow_news.php","1550","arr_source chk_exits_follow_cus  TEST TEST TESTเริ่มต้นการสร้างข้อมูล Followup ","2013-02-14 10:40:37","-","0","0"
"/www/ERP_crm/cronjob/create_follow_news.php","1512","primary_field เริ่มต้นการสร้างข้อมูล Followup ","2013-02-14 10:40:37","-","0","0"
"/www/ERP_crm/cronjob/create_follow_news.php","1550","arr_source chk_exits_follow_cus  TEST TEST TESTเริ่มต้นการสร้างข้อมูล Followup ","2013-02-14 10:40:37","-","0","0"
"/www/ERP_crm/cronjob/create_follow_news.php","1512","primary_field เริ่มต้นการสร้างข้อมูล Followup ","2013-02-14 10:40:37","-","0","0"
"/www/ERP_crm/cronjob/create_follow_news.php","1550","arr_source chk_exits_follow_cus  TEST TEST TESTเริ่มต้นการสร้างข้อมูล Followup ","2013-02-14 10:40:37","-","0","0"
"/www/ERP_crm/cronjob/create_follow_news.php","1512","primary_field เริ่มต้นการสร้างข้อมูล Followup ","2013-02-14 10:40:37","-","0","0"
"/www/ERP_crm/cronjob/create_follow_news.php","1550","arr_source chk_exits_follow_cus  TEST TEST TESTเริ่มต้นการสร้างข้อมูล Followup ","2013-02-14 10:40:37","-","0","0"
"/www/ERP_crm/cronjob/create_follow_news.php","2598","สิ้นสุดการสร้างข้อมูล Followup ","-","2013-02-14 10:41:35","6499","0"
"/www/ERP_crm/cronjob/create_follow_news.php","127","เริ่มต้นการสร้างข้อมูล Followup ","2013-02-14 10:45:20","-","0","0"
"/www/ERP_crm/cronjob/create_follow_news.php","2237","primary_field เริ่มต้นการสร้างข้อมูล Followup ","2013-02-14 10:45:20","-","0","0"
"/www/ERP_crm/cronjob/create_follow_news.php","2264","arr_source chk_exits_follow_cus  TEST TEST TESTเริ่มต้นการสร้างข้อมูล Followup ","2013-02-14 10:45:20","-","0","0"
"/www/ERP_crm/cronjob/create_follow_news.php","1512","primary_field เริ่มต้นการสร้างข้อมูล Followup ","2013-02-14 10:45:20","-","0","0"
"/www/ERP_crm/cronjob/create_follow_news.php","1550","arr_source chk_exits_follow_cus  TEST TEST TESTเริ่มต้นการสร้างข้อมูล Followup ","2013-02-14 10:45:20","-","0","0"
"/www/ERP_crm/cronjob/create_follow_news.php","1512","primary_field เริ่มต้นการสร้างข้อมูล Followup ","2013-02-14 10:45:20","-","0","0"
"/www/ERP_crm/cronjob/create_follow_news.php","1550","arr_source chk_exits_follow_cus  TEST TEST TESTเริ่มต้นการสร้างข้อมูล Followup ","2013-02-14 10:45:20","-","0","0"
"/www/ERP_crm/cronjob/create_follow_news.php","1512","primary_field เริ่มต้นการสร้างข้อมูล Followup ","2013-02-14 10:45:20","-","0","0"
"/www/ERP_crm/cronjob/create_follow_news.php","1550","arr_source chk_exits_follow_cus  TEST TEST TESTเริ่มต้นการสร้างข้อมูล Followup ","2013-02-14 10:45:20","-","0","0"
"/www/ERP_crm/cronjob/create_follow_news.php","1512","primary_field เริ่มต้นการสร้างข้อมูล Followup ","2013-02-14 10:45:20","-","0","0"
"/www/ERP_crm/cronjob/create_follow_news.php","1550","arr_source chk_exits_follow_cus  TEST TEST TESTเริ่มต้นการสร้างข้อมูล Followup ","2013-02-14 10:45:20","-","0","0"
"/www/ERP_crm/cronjob/create_follow_news.php","1512","primary_field เริ่มต้นการสร้างข้อมูล Followup ","2013-02-14 10:45:20","-","0","0"
"/www/ERP_crm/cronjob/create_follow_news.php","1550","arr_source chk_exits_follow_cus  TEST TEST TESTเริ่มต้นการสร้างข้อมูล Followup ","2013-02-14 10:45:20","-","0","0"
"/www/ERP_crm/cronjob/create_follow_news.php","1512","primary_field เริ่มต้นการสร้างข้อมูล Followup ","2013-02-14 10:45:20","-","0","0"
"/www/ERP_crm/cronjob/create_follow_news.php","1550","arr_source chk_exits_follow_cus  TEST TEST TESTเริ่มต้นการสร้างข้อมูล Followup ","2013-02-14 10:45:20","-","0","0"
"/www/ERP_crm/cronjob/create_follow_news.php","1512","primary_field เริ่มต้นการสร้างข้อมูล Followup ","2013-02-14 10:45:20","-","0","0"
"/www/ERP_crm/cronjob/create_follow_news.php","1550","arr_source chk_exits_follow_cus  TEST TEST TESTเริ่มต้นการสร้างข้อมูล Followup ","2013-02-14 10:45:20","-","0","0"
"/www/ERP_crm/cronjob/create_follow_news.php","1512","primary_field เริ่มต้นการสร้างข้อมูล Followup ","2013-02-14 10:45:20","-","0","0"
"/www/ERP_crm/cronjob/create_follow_news.php","1550","arr_source chk_exits_follow_cus  TEST TEST TESTเริ่มต้นการสร้างข้อมูล Followup ","2013-02-14 10:45:20","-","0","0"
"/www/ERP_crm/cronjob/create_follow_news.php","1512","primary_field เริ่มต้นการสร้างข้อมูล Followup ","2013-02-14 10:45:20","-","0","0"
"/www/ERP_crm/cronjob/create_follow_news.php","1550","arr_source chk_exits_follow_cus  TEST TEST TESTเริ่มต้นการสร้างข้อมูล Followup ","2013-02-14 10:45:20","-","0","0"
"/www/ERP_crm/cronjob/create_follow_news.php","2598","สิ้นสุดการสร้างข้อมูล Followup ","-","2013-02-14 10:46:19","6469","0"
"/www/ERP_crm/cronjob/create_follow_news.php","127","เริ่มต้นการสร้างข้อมูล Followup ","2013-02-14 13:29:47","-","0","0"
"/www/ERP_crm/cronjob/create_follow_news.php","2237","primary_field เริ่มต้นการสร้างข้อมูล Followup ","2013-02-14 13:29:47","-","0","0"
"/www/ERP_crm/cronjob/create_follow_news.php","2264","arr_source chk_exits_follow_cus  TEST TEST TESTเริ่มต้นการสร้างข้อมูล Followup ","2013-02-14 13:29:47","-","0","0"
"/www/ERP_crm/cronjob/create_follow_news.php","1512","primary_field เริ่มต้นการสร้างข้อมูล Followup ","2013-02-14 13:29:47","-","0","0"
"/www/ERP_crm/cronjob/create_follow_news.php","1550","arr_source chk_exits_follow_cus  TEST TEST TESTเริ่มต้นการสร้างข้อมูล Followup ","2013-02-14 13:29:47","-","0","0"
"/www/ERP_crm/cronjob/create_follow_news.php","1512","primary_field เริ่มต้นการสร้างข้อมูล Followup ","2013-02-14 13:29:47","-","0","0"
"/www/ERP_crm/cronjob/create_follow_news.php","1550","arr_source chk_exits_follow_cus  TEST TEST TESTเริ่มต้นการสร้างข้อมูล Followup ","2013-02-14 13:29:47","-","0","0"
"/www/ERP_crm/cronjob/create_follow_news.php","1512","primary_field เริ่มต้นการสร้างข้อมูล Followup ","2013-02-14 13:29:47","-","0","0"
"/www/ERP_crm/cronjob/create_follow_news.php","1550","arr_source chk_exits_follow_cus  TEST TEST TESTเริ่มต้นการสร้างข้อมูล Followup ","2013-02-14 13:29:47","-","0","0"
"/www/ERP_crm/cronjob/create_follow_news.php","1512","primary_field เริ่มต้นการสร้างข้อมูล Followup ","2013-02-14 13:29:47","-","0","0"
"/www/ERP_crm/cronjob/create_follow_news.php","1550","arr_source chk_exits_follow_cus  TEST TEST TESTเริ่มต้นการสร้างข้อมูล Followup ","2013-02-14 13:29:47","-","0","0"
"/www/ERP_crm/cronjob/create_follow_news.php","1512","primary_field เริ่มต้นการสร้างข้อมูล Followup ","2013-02-14 13:29:47","-","0","0"
"/www/ERP_crm/cronjob/create_follow_news.php","1550","arr_source chk_exits_follow_cus  TEST TEST TESTเริ่มต้นการสร้างข้อมูล Followup ","2013-02-14 13:29:47","-","0","0"
"/www/ERP_crm/cronjob/create_follow_news.php","1512","primary_field เริ่มต้นการสร้างข้อมูล Followup ","2013-02-14 13:29:47","-","0","0"
"/www/ERP_crm/cronjob/create_follow_news.php","1550","arr_source chk_exits_follow_cus  TEST TEST TESTเริ่มต้นการสร้างข้อมูล Followup ","2013-02-14 13:29:47","-","0","0"
"/www/ERP_crm/cronjob/create_follow_news.php","1512","primary_field เริ่มต้นการสร้างข้อมูล Followup ","2013-02-14 13:29:47","-","0","0"
"/www/ERP_crm/cronjob/create_follow_news.php","1550","arr_source chk_exits_follow_cus  TEST TEST TESTเริ่มต้นการสร้างข้อมูล Followup ","2013-02-14 13:29:47","-","0","0"
"/www/ERP_crm/cronjob/create_follow_news.php","1512","primary_field เริ่มต้นการสร้างข้อมูล Followup ","2013-02-14 13:29:47","-","0","0"
"/www/ERP_crm/cronjob/create_follow_news.php","1550","arr_source chk_exits_follow_cus  TEST TEST TESTเริ่มต้นการสร้างข้อมูล Followup ","2013-02-14 13:29:47","-","0","0"
"/www/ERP_crm/cronjob/create_follow_news.php","1512","primary_field เริ่มต้นการสร้างข้อมูล Followup ","2013-02-14 13:29:47","-","0","0"
"/www/ERP_crm/cronjob/create_follow_news.php","1550","arr_source chk_exits_follow_cus  TEST TEST TESTเริ่มต้นการสร้างข้อมูล Followup ","2013-02-14 13:29:47","-","0","0"
"/www/ERP_crm/cronjob/create_follow_news.php","2598","สิ้นสุดการสร้างข้อมูล Followup ","-","2013-02-14 13:31:24","6469","0"
"/www/ERP_crm/cronjob/create_follow_news.php","127","เริ่มต้นการสร้างข้อมูล Followup ","2013-02-14 17:46:46","-","0","0"
"/www/ERP_crm/cronjob/create_follow_news.php","2601","สิ้นสุดการสร้างข้อมูล Followup ","-","2013-02-14 17:46:47","0","0"
