"FILE","LINE","TITLE","START_TIME","SUCCESS_TIME","FOLLOW","AllCusLOOP"
"/www/ERP_crm/cronjob/create_follow_news.php","127","เริ่มต้นการสร้างข้อมูล Followup ","2013-02-22 10:18:50","-","0","0"
"/www/ERP_crm/cronjob/create_follow_news.php","2707","สิ้นสุดการสร้างข้อมูล Followup ","-","2013-02-22 10:18:58","0","0"
"/www/ERP_crm/cronjob/create_follow_news.php","127","เริ่มต้นการสร้างข้อมูล Followup ","2013-02-22 10:21:31","-","0","0"
"/www/ERP_crm/cronjob/create_follow_news.php","2707","สิ้นสุดการสร้างข้อมูล Followup ","-","2013-02-22 10:21:38","0","0"
"/www/ERP_crm/cronjob/create_follow_news.php","127","เริ่มต้นการสร้างข้อมูล Followup ","2013-02-22 10:38:04","-","0","0"
"/www/ERP_crm/cronjob/create_follow_news.php","2708","สิ้นสุดการสร้างข้อมูล Followup ","-","2013-02-22 10:38:12","0","0"
"/www/ERP_crm/cronjob/create_follow_news.php","127","เริ่มต้นการสร้างข้อมูล Followup ","2013-02-22 10:41:50","-","0","0"
"/www/ERP_crm/cronjob/create_follow_news.php","2708","สิ้นสุดการสร้างข้อมูล Followup ","-","2013-02-22 10:41:58","0","0"
"/www/ERP_crm/cronjob/create_follow_news.php","127","เริ่มต้นการสร้างข้อมูล Followup ","2013-02-22 10:49:05","-","0","0"
"/www/ERP_crm/cronjob/create_follow_news.php","2708","สิ้นสุดการสร้างข้อมูล Followup ","-","2013-02-22 10:49:12","0","0"
"/www/ERP_crm/cronjob/create_follow_news.php","127","เริ่มต้นการสร้างข้อมูล Followup ","2013-02-22 11:32:57","-","0","0"
"/www/ERP_crm/cronjob/create_follow_news.php","2708","สิ้นสุดการสร้างข้อมูล Followup ","-","2013-02-22 11:33:05","0","0"
"/www/ERP_crm/cronjob/create_follow_news.php","127","เริ่มต้นการสร้างข้อมูล Followup ","2013-02-22 11:35:26","-","0","0"
"/www/ERP_crm/cronjob/create_follow_news.php","2708","สิ้นสุดการสร้างข้อมูล Followup ","-","2013-02-22 11:35:34","0","0"
"/www/ERP_crm/cronjob/create_follow_news.php","127","เริ่มต้นการสร้างข้อมูล Followup ","2013-02-22 13:24:09","-","0","0"
"/www/ERP_crm/cronjob/create_follow_news.php","2708","สิ้นสุดการสร้างข้อมูล Followup ","-","2013-02-22 13:24:17","0","0"
"/www/ERP_crm/cronjob/create_follow_news.php","127","เริ่มต้นการสร้างข้อมูล Followup ","2013-02-22 13:48:31","-","0","0"
"/www/ERP_crm/cronjob/create_follow_news.php","2708","สิ้นสุดการสร้างข้อมูล Followup ","-","2013-02-22 13:48:39","0","0"
"/www/ERP_crm/cronjob/create_follow_news.php","127","เริ่มต้นการสร้างข้อมูล Followup ","2013-02-22 17:41:15","-","0","0"
"/www/ERP_crm/cronjob/create_follow_news.php","1524","primary_field เริ่มต้นการสร้างข้อมูล Followup ","2013-02-22 17:41:15","-","0","0"
"/www/ERP_crm/cronjob/create_follow_news.php","1562","arr_source chk_exits_follow_cus  TEST TEST TESTเริ่มต้นการสร้างข้อมูล Followup ","2013-02-22 17:41:15","-","0","0"
"/www/ERP_crm/cronjob/create_follow_news.php","1524","primary_field เริ่มต้นการสร้างข้อมูล Followup ","2013-02-22 17:41:15","-","0","0"
"/www/ERP_crm/cronjob/create_follow_news.php","1562","arr_source chk_exits_follow_cus  TEST TEST TESTเริ่มต้นการสร้างข้อมูล Followup ","2013-02-22 17:41:15","-","0","0"
"/www/ERP_crm/cronjob/create_follow_news.php","1524","primary_field เริ่มต้นการสร้างข้อมูล Followup ","2013-02-22 17:41:15","-","0","0"
"/www/ERP_crm/cronjob/create_follow_news.php","1562","arr_source chk_exits_follow_cus  TEST TEST TESTเริ่มต้นการสร้างข้อมูล Followup ","2013-02-22 17:41:15","-","0","0"
"/www/ERP_crm/cronjob/create_follow_news.php","1524","primary_field เริ่มต้นการสร้างข้อมูล Followup ","2013-02-22 17:41:15","-","0","0"
"/www/ERP_crm/cronjob/create_follow_news.php","1562","arr_source chk_exits_follow_cus  TEST TEST TESTเริ่มต้นการสร้างข้อมูล Followup ","2013-02-22 17:41:15","-","0","0"
"/www/ERP_crm/cronjob/create_follow_news.php","1524","primary_field เริ่มต้นการสร้างข้อมูล Followup ","2013-02-22 17:41:15","-","0","0"
"/www/ERP_crm/cronjob/create_follow_news.php","1562","arr_source chk_exits_follow_cus  TEST TEST TESTเริ่มต้นการสร้างข้อมูล Followup ","2013-02-22 17:41:15","-","0","0"
"/www/ERP_crm/cronjob/create_follow_news.php","1524","primary_field เริ่มต้นการสร้างข้อมูล Followup ","2013-02-22 17:41:15","-","0","0"
"/www/ERP_crm/cronjob/create_follow_news.php","1562","arr_source chk_exits_follow_cus  TEST TEST TESTเริ่มต้นการสร้างข้อมูล Followup ","2013-02-22 17:41:15","-","0","0"
"/www/ERP_crm/cronjob/create_follow_news.php","1524","primary_field เริ่มต้นการสร้างข้อมูล Followup ","2013-02-22 17:41:15","-","0","0"
"/www/ERP_crm/cronjob/create_follow_news.php","1562","arr_source chk_exits_follow_cus  TEST TEST TESTเริ่มต้นการสร้างข้อมูล Followup ","2013-02-22 17:41:15","-","0","0"
"/www/ERP_crm/cronjob/create_follow_news.php","1524","primary_field เริ่มต้นการสร้างข้อมูล Followup ","2013-02-22 17:41:15","-","0","0"
"/www/ERP_crm/cronjob/create_follow_news.php","1562","arr_source chk_exits_follow_cus  TEST TEST TESTเริ่มต้นการสร้างข้อมูล Followup ","2013-02-22 17:41:15","-","0","0"
"/www/ERP_crm/cronjob/create_follow_news.php","2278","primary_field เริ่มต้นการสร้างข้อมูล Followup ","2013-02-22 17:41:15","-","0","0"
"/www/ERP_crm/cronjob/create_follow_news.php","2305","arr_source chk_exits_follow_cus  TEST TEST TESTเริ่มต้นการสร้างข้อมูล Followup ","2013-02-22 17:41:15","-","0","0"
"/www/ERP_crm/cronjob/create_follow_news.php","2278","primary_field เริ่มต้นการสร้างข้อมูล Followup ","2013-02-22 17:41:15","-","0","0"
"/www/ERP_crm/cronjob/create_follow_news.php","2305","arr_source chk_exits_follow_cus  TEST TEST TESTเริ่มต้นการสร้างข้อมูล Followup ","2013-02-22 17:41:15","-","0","0"
"/www/ERP_crm/cronjob/create_follow_news.php","2710","สิ้นสุดการสร้างข้อมูล Followup ","-","2013-02-22 17:43:18","10717","0"
