"FILE","LINE","TITLE","START_TIME","SUCCESS_TIME","FOLLOW","AllCusLOOP"
"/www/ERP_crm/cronjob/create_follow_news.php","127","เริ่มต้นการสร้างข้อมูล Followup ","2013-02-08 11:09:01","-","0","0"
"/www/ERP_crm/cronjob/create_follow_news.php","1512","primary_field เริ่มต้นการสร้างข้อมูล Followup ","2013-02-08 11:09:01","-","0","0"
"/www/ERP_crm/cronjob/create_follow_news.php","1550","arr_source chk_exits_follow_cus  TEST TEST TESTเริ่มต้นการสร้างข้อมูล Followup ","2013-02-08 11:09:01","-","0","0"
"/www/ERP_crm/cronjob/create_follow_news.php","2598","สิ้นสุดการสร้างข้อมูล Followup ","-","2013-02-08 11:09:23","1713","0"
"/www/ERP_crm/cronjob/create_follow_news.php","127","เริ่มต้นการสร้างข้อมูล Followup ","2013-02-08 11:19:01","-","0","0"
"/www/ERP_crm/cronjob/create_follow_news.php","1512","primary_field เริ่มต้นการสร้างข้อมูล Followup ","2013-02-08 11:19:01","-","0","0"
"/www/ERP_crm/cronjob/create_follow_news.php","1550","arr_source chk_exits_follow_cus  TEST TEST TESTเริ่มต้นการสร้างข้อมูล Followup ","2013-02-08 11:19:01","-","0","0"
"/www/ERP_crm/cronjob/create_follow_news.php","2598","สิ้นสุดการสร้างข้อมูล Followup ","-","2013-02-08 11:19:21","1713","0"
"/www/ERP_crm/cronjob/create_follow_news.php","127","เริ่มต้นการสร้างข้อมูล Followup ","2013-02-08 11:31:01","-","0","0"
"/www/ERP_crm/cronjob/create_follow_news.php","1512","primary_field เริ่มต้นการสร้างข้อมูล Followup ","2013-02-08 11:31:01","-","0","0"
"/www/ERP_crm/cronjob/create_follow_news.php","1550","arr_source chk_exits_follow_cus  TEST TEST TESTเริ่มต้นการสร้างข้อมูล Followup ","2013-02-08 11:31:01","-","0","0"
"/www/ERP_crm/cronjob/create_follow_news.php","2598","สิ้นสุดการสร้างข้อมูล Followup ","-","2013-02-08 11:31:22","1713","0"
"/www/ERP_crm/cronjob/create_follow_news.php","127","เริ่มต้นการสร้างข้อมูล Followup ","2013-02-08 11:39:01","-","0","0"
"/www/ERP_crm/cronjob/create_follow_news.php","1512","primary_field เริ่มต้นการสร้างข้อมูล Followup ","2013-02-08 11:39:01","-","0","0"
"/www/ERP_crm/cronjob/create_follow_news.php","1550","arr_source chk_exits_follow_cus  TEST TEST TESTเริ่มต้นการสร้างข้อมูล Followup ","2013-02-08 11:39:01","-","0","0"
"/www/ERP_crm/cronjob/create_follow_news.php","2598","สิ้นสุดการสร้างข้อมูล Followup ","-","2013-02-08 11:39:21","1713","0"
"/www/ERP_crm/cronjob/create_follow_news.php","127","เริ่มต้นการสร้างข้อมูล Followup ","2013-02-08 15:09:01","-","0","0"
"/www/ERP_crm/cronjob/create_follow_news.php","1512","primary_field เริ่มต้นการสร้างข้อมูล Followup ","2013-02-08 15:09:01","-","0","0"
"/www/ERP_crm/cronjob/create_follow_news.php","1550","arr_source chk_exits_follow_cus  TEST TEST TESTเริ่มต้นการสร้างข้อมูล Followup ","2013-02-08 15:09:01","-","0","0"
"/www/ERP_crm/cronjob/create_follow_news.php","2598","สิ้นสุดการสร้างข้อมูล Followup ","-","2013-02-08 15:09:22","1713","0"
"/www/ERP_crm/cronjob/create_follow_news.php","127","เริ่มต้นการสร้างข้อมูล Followup ","2013-02-08 15:19:01","-","0","0"
"/www/ERP_crm/cronjob/create_follow_news.php","1512","primary_field เริ่มต้นการสร้างข้อมูล Followup ","2013-02-08 15:19:01","-","0","0"
"/www/ERP_crm/cronjob/create_follow_news.php","1550","arr_source chk_exits_follow_cus  TEST TEST TESTเริ่มต้นการสร้างข้อมูล Followup ","2013-02-08 15:19:01","-","0","0"
"/www/ERP_crm/cronjob/create_follow_news.php","2598","สิ้นสุดการสร้างข้อมูล Followup ","-","2013-02-08 15:19:22","1713","0"
"/www/ERP_crm/cronjob/create_follow_news.php","127","เริ่มต้นการสร้างข้อมูล Followup ","2013-02-08 15:31:01","-","0","0"
"/www/ERP_crm/cronjob/create_follow_news.php","1512","primary_field เริ่มต้นการสร้างข้อมูล Followup ","2013-02-08 15:31:01","-","0","0"
"/www/ERP_crm/cronjob/create_follow_news.php","1550","arr_source chk_exits_follow_cus  TEST TEST TESTเริ่มต้นการสร้างข้อมูล Followup ","2013-02-08 15:31:01","-","0","0"
"/www/ERP_crm/cronjob/create_follow_news.php","2598","สิ้นสุดการสร้างข้อมูล Followup ","-","2013-02-08 15:31:22","1713","0"
"/www/ERP_crm/cronjob/create_follow_news.php","127","เริ่มต้นการสร้างข้อมูล Followup ","2013-02-08 15:39:01","-","0","0"
"/www/ERP_crm/cronjob/create_follow_news.php","1512","primary_field เริ่มต้นการสร้างข้อมูล Followup ","2013-02-08 15:39:01","-","0","0"
"/www/ERP_crm/cronjob/create_follow_news.php","1550","arr_source chk_exits_follow_cus  TEST TEST TESTเริ่มต้นการสร้างข้อมูล Followup ","2013-02-08 15:39:01","-","0","0"
"/www/ERP_crm/cronjob/create_follow_news.php","2598","สิ้นสุดการสร้างข้อมูล Followup ","-","2013-02-08 15:39:24","1713","0"
