"FILE","LINE","TITLE","START_TIME","SUCCESS_TIME","FOLLOW","AllCusLOOP"
"/CRM/create_follow_news.php","1514","สิ้นสุดการสร้างข้อมูล Followup ","-","2012-05-23 09:55:14","0","0"
"/CRM/create_follow_news.php","1514","สิ้นสุดการสร้างข้อมูล Followup ","-","2012-05-23 11:10:08","0","0"
"/CRM/create_follow_news.php","1516","สิ้นสุดการสร้างข้อมูล Followup ","-","2012-05-23 12:58:44","0","0"
