"FILE","LINE","TITLE","START_TIME","SUCCESS_TIME","FOLLOW","AllCusLOOP"
"/www/ERP_crm/cronjob/create_follow_news.php","117","เริ่มต้นการสร้างข้อมูล Followup ","2012-12-10 11:09:01","-","0","0"
"/www/ERP_crm/cronjob/create_follow_news.php","1864","สิ้นสุดการสร้างข้อมูล Followup ","-","2012-12-10 11:09:20","0","0"
"/www/ERP_crm/cronjob/create_follow_news.php","117","เริ่มต้นการสร้างข้อมูล Followup ","2012-12-10 11:19:01","-","0","0"
"/www/ERP_crm/cronjob/create_follow_news.php","1864","สิ้นสุดการสร้างข้อมูล Followup ","-","2012-12-10 11:19:16","0","0"
"/www/ERP_crm/cronjob/create_follow_news.php","117","เริ่มต้นการสร้างข้อมูล Followup ","2012-12-10 11:31:01","-","0","0"
"/www/ERP_crm/cronjob/create_follow_news.php","1864","สิ้นสุดการสร้างข้อมูล Followup ","-","2012-12-10 11:31:15","0","0"
"/www/ERP_crm/cronjob/create_follow_news.php","117","เริ่มต้นการสร้างข้อมูล Followup ","2012-12-10 11:39:01","-","0","0"
"/www/ERP_crm/cronjob/create_follow_news.php","1864","สิ้นสุดการสร้างข้อมูล Followup ","-","2012-12-10 11:39:15","0","0"
"/www/ERP_crm/cronjob/create_follow_news.php","117","เริ่มต้นการสร้างข้อมูล Followup ","2012-12-10 15:09:01","-","0","0"
"/www/ERP_crm/cronjob/create_follow_news.php","1864","สิ้นสุดการสร้างข้อมูล Followup ","-","2012-12-10 15:09:14","0","0"
"/www/ERP_crm/cronjob/create_follow_news.php","117","เริ่มต้นการสร้างข้อมูล Followup ","2012-12-10 15:19:01","-","0","0"
"/www/ERP_crm/cronjob/create_follow_news.php","1864","สิ้นสุดการสร้างข้อมูล Followup ","-","2012-12-10 15:19:15","0","0"
"/www/ERP_crm/cronjob/create_follow_news.php","117","เริ่มต้นการสร้างข้อมูล Followup ","2012-12-10 15:31:01","-","0","0"
"/www/ERP_crm/cronjob/create_follow_news.php","1864","สิ้นสุดการสร้างข้อมูล Followup ","-","2012-12-10 15:31:14","0","0"
"/www/ERP_crm/cronjob/create_follow_news.php","117","เริ่มต้นการสร้างข้อมูล Followup ","2012-12-10 15:39:01","-","0","0"
"/www/ERP_crm/cronjob/create_follow_news.php","1864","สิ้นสุดการสร้างข้อมูล Followup ","-","2012-12-10 15:39:15","0","0"
