"FILE","LINE","TITLE","START_TIME","SUCCESS_TIME","FOLLOW","AllCusLOOP"
"/www/crm/cronjob/create_follow_news.php","115","เริ่มต้นการสร้างข้อมูล Followup ","2012-10-12 11:09:02","-","0","0"
"/www/crm/cronjob/create_follow_news.php","115","เริ่มต้นการสร้างข้อมูล Followup ","2012-10-12 11:19:01","-","0","0"
"/www/crm/cronjob/create_follow_news.php","115","เริ่มต้นการสร้างข้อมูล Followup ","2012-10-12 11:31:01","-","0","0"
"/www/crm/cronjob/create_follow_news.php","115","เริ่มต้นการสร้างข้อมูล Followup ","2012-10-12 11:39:01","-","0","0"
"/www/crm/cronjob/create_follow_news.php","115","เริ่มต้นการสร้างข้อมูล Followup ","2012-10-12 15:09:02","-","0","0"
"/www/crm/cronjob/create_follow_news.php","115","เริ่มต้นการสร้างข้อมูล Followup ","2012-10-12 15:19:01","-","0","0"
"/www/crm/cronjob/create_follow_news.php","115","เริ่มต้นการสร้างข้อมูล Followup ","2012-10-12 15:31:01","-","0","0"
"/www/crm/cronjob/create_follow_news.php","115","เริ่มต้นการสร้างข้อมูล Followup ","2012-10-12 15:39:01","-","0","0"
