"FILE","LINE","TITLE","START_TIME","SUCCESS_TIME","FOLLOW","AllCusLOOP"
"/www/ERP_crm/cronjob/create_follow_news.php","127","เริ่มต้นการสร้างข้อมูล Followup ","2013-05-28 00:00:01","-","0","0"
"/www/ERP_crm/cronjob/create_follow_news.php","1510","primary_field เริ่มต้นการสร้างข้อมูล Followup ","2013-05-28 00:00:01","-","0","0"
"/www/ERP_crm/cronjob/create_follow_news.php","1534","arr_source chk_exits_follow_cus  TEST TEST TESTเริ่มต้นการสร้างข้อมูล Followup ","2013-05-28 00:00:01","-","0","0"
"/www/ERP_crm/cronjob/create_follow_news.php","1510","primary_field เริ่มต้นการสร้างข้อมูล Followup ","2013-05-28 00:00:01","-","0","0"
"/www/ERP_crm/cronjob/create_follow_news.php","1534","arr_source chk_exits_follow_cus  TEST TEST TESTเริ่มต้นการสร้างข้อมูล Followup ","2013-05-28 00:00:01","-","0","0"
"/www/ERP_crm/cronjob/create_follow_news.php","1510","primary_field เริ่มต้นการสร้างข้อมูล Followup ","2013-05-28 00:00:01","-","0","0"
"/www/ERP_crm/cronjob/create_follow_news.php","1534","arr_source chk_exits_follow_cus  TEST TEST TESTเริ่มต้นการสร้างข้อมูล Followup ","2013-05-28 00:00:01","-","0","0"
"/www/ERP_crm/cronjob/create_follow_news.php","1510","primary_field เริ่มต้นการสร้างข้อมูล Followup ","2013-05-28 00:00:01","-","0","0"
"/www/ERP_crm/cronjob/create_follow_news.php","1534","arr_source chk_exits_follow_cus  TEST TEST TESTเริ่มต้นการสร้างข้อมูล Followup ","2013-05-28 00:00:01","-","0","0"
"/www/ERP_crm/cronjob/create_follow_news.php","1510","primary_field เริ่มต้นการสร้างข้อมูล Followup ","2013-05-28 00:00:01","-","0","0"
"/www/ERP_crm/cronjob/create_follow_news.php","1534","arr_source chk_exits_follow_cus  TEST TEST TESTเริ่มต้นการสร้างข้อมูล Followup ","2013-05-28 00:00:01","-","0","0"
"/www/ERP_crm/cronjob/create_follow_news.php","1510","primary_field เริ่มต้นการสร้างข้อมูล Followup ","2013-05-28 00:00:01","-","0","0"
"/www/ERP_crm/cronjob/create_follow_news.php","1534","arr_source chk_exits_follow_cus  TEST TEST TESTเริ่มต้นการสร้างข้อมูล Followup ","2013-05-28 00:00:01","-","0","0"
"/www/ERP_crm/cronjob/create_follow_news.php","1510","primary_field เริ่มต้นการสร้างข้อมูล Followup ","2013-05-28 00:00:01","-","0","0"
"/www/ERP_crm/cronjob/create_follow_news.php","1534","arr_source chk_exits_follow_cus  TEST TEST TESTเริ่มต้นการสร้างข้อมูล Followup ","2013-05-28 00:00:01","-","0","0"
"/www/ERP_crm/cronjob/create_follow_news.php","1510","primary_field เริ่มต้นการสร้างข้อมูล Followup ","2013-05-28 00:00:01","-","0","0"
"/www/ERP_crm/cronjob/create_follow_news.php","1534","arr_source chk_exits_follow_cus  TEST TEST TESTเริ่มต้นการสร้างข้อมูล Followup ","2013-05-28 00:00:01","-","0","0"
"/www/ERP_crm/cronjob/create_follow_news.php","2262","primary_field เริ่มต้นการสร้างข้อมูล Followup ","2013-05-28 00:00:01","-","0","0"
"/www/ERP_crm/cronjob/create_follow_news.php","2286","arr_source chk_exits_follow_cus  TEST TEST TESTเริ่มต้นการสร้างข้อมูล Followup ","2013-05-28 00:00:01","-","0","0"
"/www/ERP_crm/cronjob/create_follow_news.php","2262","primary_field เริ่มต้นการสร้างข้อมูล Followup ","2013-05-28 00:00:01","-","0","0"
"/www/ERP_crm/cronjob/create_follow_news.php","2286","arr_source chk_exits_follow_cus  TEST TEST TESTเริ่มต้นการสร้างข้อมูล Followup ","2013-05-28 00:00:01","-","0","0"
"/www/ERP_crm/cronjob/create_follow_news.php","2691","สิ้นสุดการสร้างข้อมูล Followup ","-","2013-05-28 00:16:30","9869","0"
