"FILE","LINE","TITLE","START_TIME","SUCCESS_TIME","FOLLOW","AllCusLOOP"
"/www/ERP_crm/cronjob/create_follow_news.php","117","เริ่มต้นการสร้างข้อมูล Followup ","2013-01-18 14:12:32","-","0","0"
"/www/ERP_crm/cronjob/create_follow_news.php","117","เริ่มต้นการสร้างข้อมูล Followup ","2013-01-18 15:05:28","-","0","0"
