"FILE","LINE","TITLE","START_TIME","SUCCESS_TIME","FOLLOW","AllCusLOOP"
"/www/ERP_crm/cronjob/create_follow_news.php","117","เริ่มต้นการสร้างข้อมูล Followup ","2012-11-21 11:09:01","-","0","0"
"/www/ERP_crm/cronjob/create_follow_news.php","1311","primary_field TEST TEST TESTเริ่มต้นการสร้างข้อมูล Followup ","2012-11-21 11:09:01","-","0","0"
"/www/ERP_crm/cronjob/create_follow_news.php","1349","arr_source chk_exits_follow_cus  TEST TEST TESTเริ่มต้นการสร้างข้อมูล Followup ","2012-11-21 11:09:01","-","0","0"
"/www/ERP_crm/cronjob/create_follow_news.php","1311","primary_field TEST TEST TESTเริ่มต้นการสร้างข้อมูล Followup ","2012-11-21 11:09:01","-","0","0"
"/www/ERP_crm/cronjob/create_follow_news.php","1349","arr_source chk_exits_follow_cus  TEST TEST TESTเริ่มต้นการสร้างข้อมูล Followup ","2012-11-21 11:09:01","-","0","0"
"/www/ERP_crm/cronjob/create_follow_news.php","1311","primary_field TEST TEST TESTเริ่มต้นการสร้างข้อมูล Followup ","2012-11-21 11:09:01","-","0","0"
"/www/ERP_crm/cronjob/create_follow_news.php","1349","arr_source chk_exits_follow_cus  TEST TEST TESTเริ่มต้นการสร้างข้อมูล Followup ","2012-11-21 11:09:01","-","0","0"
"/www/ERP_crm/cronjob/create_follow_news.php","1838","สิ้นสุดการสร้างข้อมูล Followup ","-","2012-11-21 11:09:18","6","0"
"/www/ERP_crm/cronjob/create_follow_news.php","117","เริ่มต้นการสร้างข้อมูล Followup ","2012-11-21 11:19:01","-","0","0"
"/www/ERP_crm/cronjob/create_follow_news.php","1311","primary_field TEST TEST TESTเริ่มต้นการสร้างข้อมูล Followup ","2012-11-21 11:19:01","-","0","0"
"/www/ERP_crm/cronjob/create_follow_news.php","1349","arr_source chk_exits_follow_cus  TEST TEST TESTเริ่มต้นการสร้างข้อมูล Followup ","2012-11-21 11:19:01","-","0","0"
"/www/ERP_crm/cronjob/create_follow_news.php","1311","primary_field TEST TEST TESTเริ่มต้นการสร้างข้อมูล Followup ","2012-11-21 11:19:01","-","0","0"
"/www/ERP_crm/cronjob/create_follow_news.php","1349","arr_source chk_exits_follow_cus  TEST TEST TESTเริ่มต้นการสร้างข้อมูล Followup ","2012-11-21 11:19:01","-","0","0"
"/www/ERP_crm/cronjob/create_follow_news.php","1311","primary_field TEST TEST TESTเริ่มต้นการสร้างข้อมูล Followup ","2012-11-21 11:19:01","-","0","0"
"/www/ERP_crm/cronjob/create_follow_news.php","1349","arr_source chk_exits_follow_cus  TEST TEST TESTเริ่มต้นการสร้างข้อมูล Followup ","2012-11-21 11:19:01","-","0","0"
"/www/ERP_crm/cronjob/create_follow_news.php","1838","สิ้นสุดการสร้างข้อมูล Followup ","-","2012-11-21 11:19:13","6","0"
"/www/ERP_crm/cronjob/create_follow_news.php","117","เริ่มต้นการสร้างข้อมูล Followup ","2012-11-21 11:31:02","-","0","0"
"/www/ERP_crm/cronjob/create_follow_news.php","1311","primary_field TEST TEST TESTเริ่มต้นการสร้างข้อมูล Followup ","2012-11-21 11:31:02","-","0","0"
"/www/ERP_crm/cronjob/create_follow_news.php","1349","arr_source chk_exits_follow_cus  TEST TEST TESTเริ่มต้นการสร้างข้อมูล Followup ","2012-11-21 11:31:02","-","0","0"
"/www/ERP_crm/cronjob/create_follow_news.php","1311","primary_field TEST TEST TESTเริ่มต้นการสร้างข้อมูล Followup ","2012-11-21 11:31:02","-","0","0"
"/www/ERP_crm/cronjob/create_follow_news.php","1349","arr_source chk_exits_follow_cus  TEST TEST TESTเริ่มต้นการสร้างข้อมูล Followup ","2012-11-21 11:31:02","-","0","0"
"/www/ERP_crm/cronjob/create_follow_news.php","1311","primary_field TEST TEST TESTเริ่มต้นการสร้างข้อมูล Followup ","2012-11-21 11:31:02","-","0","0"
"/www/ERP_crm/cronjob/create_follow_news.php","1349","arr_source chk_exits_follow_cus  TEST TEST TESTเริ่มต้นการสร้างข้อมูล Followup ","2012-11-21 11:31:02","-","0","0"
"/www/ERP_crm/cronjob/create_follow_news.php","1838","สิ้นสุดการสร้างข้อมูล Followup ","-","2012-11-21 11:31:14","6","0"
"/www/ERP_crm/cronjob/create_follow_news.php","117","เริ่มต้นการสร้างข้อมูล Followup ","2012-11-21 11:39:01","-","0","0"
"/www/ERP_crm/cronjob/create_follow_news.php","1311","primary_field TEST TEST TESTเริ่มต้นการสร้างข้อมูล Followup ","2012-11-21 11:39:01","-","0","0"
"/www/ERP_crm/cronjob/create_follow_news.php","1349","arr_source chk_exits_follow_cus  TEST TEST TESTเริ่มต้นการสร้างข้อมูล Followup ","2012-11-21 11:39:01","-","0","0"
"/www/ERP_crm/cronjob/create_follow_news.php","1311","primary_field TEST TEST TESTเริ่มต้นการสร้างข้อมูล Followup ","2012-11-21 11:39:01","-","0","0"
"/www/ERP_crm/cronjob/create_follow_news.php","1349","arr_source chk_exits_follow_cus  TEST TEST TESTเริ่มต้นการสร้างข้อมูล Followup ","2012-11-21 11:39:01","-","0","0"
"/www/ERP_crm/cronjob/create_follow_news.php","1311","primary_field TEST TEST TESTเริ่มต้นการสร้างข้อมูล Followup ","2012-11-21 11:39:01","-","0","0"
"/www/ERP_crm/cronjob/create_follow_news.php","1349","arr_source chk_exits_follow_cus  TEST TEST TESTเริ่มต้นการสร้างข้อมูล Followup ","2012-11-21 11:39:01","-","0","0"
"/www/ERP_crm/cronjob/create_follow_news.php","1838","สิ้นสุดการสร้างข้อมูล Followup ","-","2012-11-21 11:39:14","6","0"
"/www/ERP_crm/cronjob/create_follow_news.php","117","เริ่มต้นการสร้างข้อมูล Followup ","2012-11-21 15:09:01","-","0","0"
"/www/ERP_crm/cronjob/create_follow_news.php","1311","primary_field TEST TEST TESTเริ่มต้นการสร้างข้อมูล Followup ","2012-11-21 15:09:01","-","0","0"
"/www/ERP_crm/cronjob/create_follow_news.php","1349","arr_source chk_exits_follow_cus  TEST TEST TESTเริ่มต้นการสร้างข้อมูล Followup ","2012-11-21 15:09:01","-","0","0"
"/www/ERP_crm/cronjob/create_follow_news.php","1311","primary_field TEST TEST TESTเริ่มต้นการสร้างข้อมูล Followup ","2012-11-21 15:09:01","-","0","0"
"/www/ERP_crm/cronjob/create_follow_news.php","1349","arr_source chk_exits_follow_cus  TEST TEST TESTเริ่มต้นการสร้างข้อมูล Followup ","2012-11-21 15:09:01","-","0","0"
"/www/ERP_crm/cronjob/create_follow_news.php","1311","primary_field TEST TEST TESTเริ่มต้นการสร้างข้อมูล Followup ","2012-11-21 15:09:01","-","0","0"
"/www/ERP_crm/cronjob/create_follow_news.php","1349","arr_source chk_exits_follow_cus  TEST TEST TESTเริ่มต้นการสร้างข้อมูล Followup ","2012-11-21 15:09:01","-","0","0"
"/www/ERP_crm/cronjob/create_follow_news.php","1838","สิ้นสุดการสร้างข้อมูล Followup ","-","2012-11-21 15:09:13","6","0"
"/www/ERP_crm/cronjob/create_follow_news.php","117","เริ่มต้นการสร้างข้อมูล Followup ","2012-11-21 15:19:01","-","0","0"
"/www/ERP_crm/cronjob/create_follow_news.php","1311","primary_field TEST TEST TESTเริ่มต้นการสร้างข้อมูล Followup ","2012-11-21 15:19:01","-","0","0"
"/www/ERP_crm/cronjob/create_follow_news.php","1349","arr_source chk_exits_follow_cus  TEST TEST TESTเริ่มต้นการสร้างข้อมูล Followup ","2012-11-21 15:19:01","-","0","0"
"/www/ERP_crm/cronjob/create_follow_news.php","1311","primary_field TEST TEST TESTเริ่มต้นการสร้างข้อมูล Followup ","2012-11-21 15:19:01","-","0","0"
"/www/ERP_crm/cronjob/create_follow_news.php","1349","arr_source chk_exits_follow_cus  TEST TEST TESTเริ่มต้นการสร้างข้อมูล Followup ","2012-11-21 15:19:01","-","0","0"
"/www/ERP_crm/cronjob/create_follow_news.php","1311","primary_field TEST TEST TESTเริ่มต้นการสร้างข้อมูล Followup ","2012-11-21 15:19:01","-","0","0"
"/www/ERP_crm/cronjob/create_follow_news.php","1349","arr_source chk_exits_follow_cus  TEST TEST TESTเริ่มต้นการสร้างข้อมูล Followup ","2012-11-21 15:19:01","-","0","0"
"/www/ERP_crm/cronjob/create_follow_news.php","1838","สิ้นสุดการสร้างข้อมูล Followup ","-","2012-11-21 15:19:14","6","0"
"/www/ERP_crm/cronjob/create_follow_news.php","117","เริ่มต้นการสร้างข้อมูล Followup ","2012-11-21 15:31:01","-","0","0"
"/www/ERP_crm/cronjob/create_follow_news.php","1311","primary_field TEST TEST TESTเริ่มต้นการสร้างข้อมูล Followup ","2012-11-21 15:31:01","-","0","0"
"/www/ERP_crm/cronjob/create_follow_news.php","1349","arr_source chk_exits_follow_cus  TEST TEST TESTเริ่มต้นการสร้างข้อมูล Followup ","2012-11-21 15:31:01","-","0","0"
"/www/ERP_crm/cronjob/create_follow_news.php","1311","primary_field TEST TEST TESTเริ่มต้นการสร้างข้อมูล Followup ","2012-11-21 15:31:01","-","0","0"
"/www/ERP_crm/cronjob/create_follow_news.php","1349","arr_source chk_exits_follow_cus  TEST TEST TESTเริ่มต้นการสร้างข้อมูล Followup ","2012-11-21 15:31:01","-","0","0"
"/www/ERP_crm/cronjob/create_follow_news.php","1311","primary_field TEST TEST TESTเริ่มต้นการสร้างข้อมูล Followup ","2012-11-21 15:31:01","-","0","0"
"/www/ERP_crm/cronjob/create_follow_news.php","1349","arr_source chk_exits_follow_cus  TEST TEST TESTเริ่มต้นการสร้างข้อมูล Followup ","2012-11-21 15:31:01","-","0","0"
"/www/ERP_crm/cronjob/create_follow_news.php","1838","สิ้นสุดการสร้างข้อมูล Followup ","-","2012-11-21 15:31:14","6","0"
"/www/ERP_crm/cronjob/create_follow_news.php","117","เริ่มต้นการสร้างข้อมูล Followup ","2012-11-21 15:39:01","-","0","0"
"/www/ERP_crm/cronjob/create_follow_news.php","1311","primary_field TEST TEST TESTเริ่มต้นการสร้างข้อมูล Followup ","2012-11-21 15:39:01","-","0","0"
"/www/ERP_crm/cronjob/create_follow_news.php","1349","arr_source chk_exits_follow_cus  TEST TEST TESTเริ่มต้นการสร้างข้อมูล Followup ","2012-11-21 15:39:01","-","0","0"
"/www/ERP_crm/cronjob/create_follow_news.php","1311","primary_field TEST TEST TESTเริ่มต้นการสร้างข้อมูล Followup ","2012-11-21 15:39:01","-","0","0"
"/www/ERP_crm/cronjob/create_follow_news.php","1349","arr_source chk_exits_follow_cus  TEST TEST TESTเริ่มต้นการสร้างข้อมูล Followup ","2012-11-21 15:39:01","-","0","0"
"/www/ERP_crm/cronjob/create_follow_news.php","1311","primary_field TEST TEST TESTเริ่มต้นการสร้างข้อมูล Followup ","2012-11-21 15:39:01","-","0","0"
"/www/ERP_crm/cronjob/create_follow_news.php","1349","arr_source chk_exits_follow_cus  TEST TEST TESTเริ่มต้นการสร้างข้อมูล Followup ","2012-11-21 15:39:01","-","0","0"
"/www/ERP_crm/cronjob/create_follow_news.php","1838","สิ้นสุดการสร้างข้อมูล Followup ","-","2012-11-21 15:39:14","6","0"
