"FILE","LINE","TITLE","START_TIME","SUCCESS_TIME","FOLLOW","AllCusLOOP"
"/www/ERP_crm/cronjob/create_follow_news.php","117","เริ่มต้นการสร้างข้อมูล Followup ","2013-01-02 13:22:43","-","0","0"
"/www/ERP_crm/cronjob/create_follow_news.php","2543","สิ้นสุดการสร้างข้อมูล Followup ","-","2013-01-02 13:51:02","0","0"
"/www/ERP_crm/cronjob/create_follow_news.php","117","เริ่มต้นการสร้างข้อมูล Followup ","2013-01-02 14:26:20","-","0","0"
"/www/ERP_crm/cronjob/create_follow_news.php","117","เริ่มต้นการสร้างข้อมูล Followup ","2013-01-02 15:44:56","-","0","0"
"/www/ERP_crm/cronjob/create_follow_news.php","117","เริ่มต้นการสร้างข้อมูล Followup ","2013-01-02 15:45:57","-","0","0"
"/www/ERP_crm/cronjob/create_follow_news.php","117","เริ่มต้นการสร้างข้อมูล Followup ","2013-01-02 16:09:14","-","0","0"
"/www/ERP_crm/cronjob/create_follow_news.php","117","เริ่มต้นการสร้างข้อมูล Followup ","2013-01-02 16:10:04","-","0","0"
"/www/ERP_crm/cronjob/create_follow_news.php","2584","สิ้นสุดการสร้างข้อมูล Followup ","-","2013-01-02 16:10:18","0","0"
"/www/ERP_crm/cronjob/create_follow_news.php","117","เริ่มต้นการสร้างข้อมูล Followup ","2013-01-02 16:11:14","-","0","0"
"/www/ERP_crm/cronjob/create_follow_news.php","2584","สิ้นสุดการสร้างข้อมูล Followup ","-","2013-01-02 16:11:14","0","0"
"/www/ERP_crm/cronjob/create_follow_news.php","117","เริ่มต้นการสร้างข้อมูล Followup ","2013-01-02 16:12:42","-","0","0"
"/www/ERP_crm/cronjob/create_follow_news.php","2584","สิ้นสุดการสร้างข้อมูล Followup ","-","2013-01-02 16:12:42","0","0"
"/www/ERP_crm/cronjob/create_follow_news.php","117","เริ่มต้นการสร้างข้อมูล Followup ","2013-01-02 16:13:14","-","0","0"
"/www/ERP_crm/cronjob/create_follow_news.php","2584","สิ้นสุดการสร้างข้อมูล Followup ","-","2013-01-02 16:13:14","0","0"
"/www/ERP_crm/cronjob/create_follow_news.php","117","เริ่มต้นการสร้างข้อมูล Followup ","2013-01-02 16:13:47","-","0","0"
"/www/ERP_crm/cronjob/create_follow_news.php","2584","สิ้นสุดการสร้างข้อมูล Followup ","-","2013-01-02 16:13:47","0","0"
"/www/ERP_crm/cronjob/create_follow_news.php","117","เริ่มต้นการสร้างข้อมูล Followup ","2013-01-02 16:20:24","-","0","0"
"/www/ERP_crm/cronjob/create_follow_news.php","2585","สิ้นสุดการสร้างข้อมูล Followup ","-","2013-01-02 16:20:24","0","0"
"/www/ERP_crm/cronjob/create_follow_news.php","117","เริ่มต้นการสร้างข้อมูล Followup ","2013-01-02 16:21:47","-","0","0"
"/www/ERP_crm/cronjob/create_follow_news.php","2585","สิ้นสุดการสร้างข้อมูล Followup ","-","2013-01-02 16:21:48","0","0"
"/www/ERP_crm/cronjob/create_follow_news.php","117","เริ่มต้นการสร้างข้อมูล Followup ","2013-01-02 16:23:01","-","0","0"
"/www/ERP_crm/cronjob/create_follow_news.php","2585","สิ้นสุดการสร้างข้อมูล Followup ","-","2013-01-02 16:23:02","0","0"
"/www/ERP_crm/cronjob/create_follow_news.php","117","เริ่มต้นการสร้างข้อมูล Followup ","2013-01-02 16:27:06","-","0","0"
"/www/ERP_crm/cronjob/create_follow_news.php","2585","สิ้นสุดการสร้างข้อมูล Followup ","-","2013-01-02 16:27:06","0","0"
"/www/ERP_crm/cronjob/create_follow_news.php","117","เริ่มต้นการสร้างข้อมูล Followup ","2013-01-02 16:27:28","-","0","0"
"/www/ERP_crm/cronjob/create_follow_news.php","2585","สิ้นสุดการสร้างข้อมูล Followup ","-","2013-01-02 16:27:29","0","0"
"/www/ERP_crm/cronjob/create_follow_news.php","117","เริ่มต้นการสร้างข้อมูล Followup ","2013-01-02 16:28:38","-","0","0"
"/www/ERP_crm/cronjob/create_follow_news.php","2581","สิ้นสุดการสร้างข้อมูล Followup ","-","2013-01-02 16:28:38","0","0"
"/www/ERP_crm/cronjob/create_follow_news.php","117","เริ่มต้นการสร้างข้อมูล Followup ","2013-01-02 16:28:54","-","0","0"
"/www/ERP_crm/cronjob/create_follow_news.php","2581","สิ้นสุดการสร้างข้อมูล Followup ","-","2013-01-02 16:28:54","0","0"
"/www/ERP_crm/cronjob/create_follow_news.php","117","เริ่มต้นการสร้างข้อมูล Followup ","2013-01-02 16:29:10","-","0","0"
"/www/ERP_crm/cronjob/create_follow_news.php","2581","สิ้นสุดการสร้างข้อมูล Followup ","-","2013-01-02 16:29:10","0","0"
"/www/ERP_crm/cronjob/create_follow_news.php","117","เริ่มต้นการสร้างข้อมูล Followup ","2013-01-02 16:30:34","-","0","0"
"/www/ERP_crm/cronjob/create_follow_news.php","117","เริ่มต้นการสร้างข้อมูล Followup ","2013-01-02 17:27:56","-","0","0"
"/www/ERP_crm/cronjob/create_follow_news.php","2579","สิ้นสุดการสร้างข้อมูล Followup ","-","2013-01-02 17:28:36","0","0"
