"FILE","LINE","TITLE","START_TIME","SUCCESS_TIME","FOLLOW","AllCusLOOP"
"/www/ERP_crm/cronjob/create_follow_news.php","117","เริ่มต้นการสร้างข้อมูล Followup ","2012-12-11 11:09:01","-","0","0"
"/www/ERP_crm/cronjob/create_follow_news.php","1864","สิ้นสุดการสร้างข้อมูล Followup ","-","2012-12-11 11:09:25","0","0"
"/www/ERP_crm/cronjob/create_follow_news.php","117","เริ่มต้นการสร้างข้อมูล Followup ","2012-12-11 11:19:01","-","0","0"
"/www/ERP_crm/cronjob/create_follow_news.php","1864","สิ้นสุดการสร้างข้อมูล Followup ","-","2012-12-11 11:19:15","0","0"
"/www/ERP_crm/cronjob/create_follow_news.php","117","เริ่มต้นการสร้างข้อมูล Followup ","2012-12-11 11:31:01","-","0","0"
"/www/ERP_crm/cronjob/create_follow_news.php","1864","สิ้นสุดการสร้างข้อมูล Followup ","-","2012-12-11 11:31:15","0","0"
"/www/ERP_crm/cronjob/create_follow_news.php","117","เริ่มต้นการสร้างข้อมูล Followup ","2012-12-11 11:39:02","-","0","0"
"/www/ERP_crm/cronjob/create_follow_news.php","1864","สิ้นสุดการสร้างข้อมูล Followup ","-","2012-12-11 11:39:15","0","0"
"/www/ERP_crm/cronjob/create_follow_news.php","117","เริ่มต้นการสร้างข้อมูล Followup ","2012-12-11 15:09:01","-","0","0"
"/www/ERP_crm/cronjob/create_follow_news.php","1864","สิ้นสุดการสร้างข้อมูล Followup ","-","2012-12-11 15:09:15","0","0"
"/www/ERP_crm/cronjob/create_follow_news.php","117","เริ่มต้นการสร้างข้อมูล Followup ","2012-12-11 15:19:01","-","0","0"
"/www/ERP_crm/cronjob/create_follow_news.php","1864","สิ้นสุดการสร้างข้อมูล Followup ","-","2012-12-11 15:19:15","0","0"
"/www/ERP_crm/cronjob/create_follow_news.php","117","เริ่มต้นการสร้างข้อมูล Followup ","2012-12-11 15:31:01","-","0","0"
"/www/ERP_crm/cronjob/create_follow_news.php","1864","สิ้นสุดการสร้างข้อมูล Followup ","-","2012-12-11 15:31:15","0","0"
"/www/ERP_crm/cronjob/create_follow_news.php","117","เริ่มต้นการสร้างข้อมูล Followup ","2012-12-11 15:39:01","-","0","0"
"/www/ERP_crm/cronjob/create_follow_news.php","1864","สิ้นสุดการสร้างข้อมูล Followup ","-","2012-12-11 15:39:15","0","0"
