"FILE","LINE","TITLE","START_TIME","SUCCESS_TIME","FOLLOW","AllCusLOOP"
"/www/ERP_crm/cronjob/create_follow_news.php","127","เริ่มต้นการสร้างข้อมูล Followup ","2013-04-10 08:27:30","-","0","0"
"/www/ERP_crm/cronjob/create_follow_news.php","127","เริ่มต้นการสร้างข้อมูล Followup ","2013-04-10 08:55:54","-","0","0"
"/www/ERP_crm/cronjob/create_follow_news.php","127","เริ่มต้นการสร้างข้อมูล Followup ","2013-04-10 09:08:32","-","0","0"
"/www/ERP_crm/cronjob/create_follow_news.php","127","เริ่มต้นการสร้างข้อมูล Followup ","2013-04-10 09:12:39","-","0","0"
"/www/ERP_crm/cronjob/create_follow_news.php","127","เริ่มต้นการสร้างข้อมูล Followup ","2013-04-10 09:14:37","-","0","0"
"/www/ERP_crm/cronjob/create_follow_news.php","127","เริ่มต้นการสร้างข้อมูล Followup ","2013-04-10 09:21:20","-","0","0"
"/www/ERP_crm/cronjob/create_follow_news.php","1518","primary_field เริ่มต้นการสร้างข้อมูล Followup ","2013-04-10 09:21:20","-","0","0"
"/www/ERP_crm/cronjob/create_follow_news.php","1557","arr_source chk_exits_follow_cus  TEST TEST TESTเริ่มต้นการสร้างข้อมูล Followup ","2013-04-10 09:21:20","-","0","0"
"/www/ERP_crm/cronjob/create_follow_news.php","1518","primary_field เริ่มต้นการสร้างข้อมูล Followup ","2013-04-10 09:21:20","-","0","0"
"/www/ERP_crm/cronjob/create_follow_news.php","1557","arr_source chk_exits_follow_cus  TEST TEST TESTเริ่มต้นการสร้างข้อมูล Followup ","2013-04-10 09:21:20","-","0","0"
"/www/ERP_crm/cronjob/create_follow_news.php","1518","primary_field เริ่มต้นการสร้างข้อมูล Followup ","2013-04-10 09:21:20","-","0","0"
"/www/ERP_crm/cronjob/create_follow_news.php","1557","arr_source chk_exits_follow_cus  TEST TEST TESTเริ่มต้นการสร้างข้อมูล Followup ","2013-04-10 09:21:20","-","0","0"
"/www/ERP_crm/cronjob/create_follow_news.php","1518","primary_field เริ่มต้นการสร้างข้อมูล Followup ","2013-04-10 09:21:20","-","0","0"
"/www/ERP_crm/cronjob/create_follow_news.php","1557","arr_source chk_exits_follow_cus  TEST TEST TESTเริ่มต้นการสร้างข้อมูล Followup ","2013-04-10 09:21:20","-","0","0"
"/www/ERP_crm/cronjob/create_follow_news.php","127","เริ่มต้นการสร้างข้อมูล Followup ","2013-04-10 09:24:31","-","0","0"
"/www/ERP_crm/cronjob/create_follow_news.php","1518","primary_field เริ่มต้นการสร้างข้อมูล Followup ","2013-04-10 09:24:31","-","0","0"
"/www/ERP_crm/cronjob/create_follow_news.php","1557","arr_source chk_exits_follow_cus  TEST TEST TESTเริ่มต้นการสร้างข้อมูล Followup ","2013-04-10 09:24:31","-","0","0"
"/www/ERP_crm/cronjob/create_follow_news.php","1518","primary_field เริ่มต้นการสร้างข้อมูล Followup ","2013-04-10 09:24:31","-","0","0"
"/www/ERP_crm/cronjob/create_follow_news.php","1557","arr_source chk_exits_follow_cus  TEST TEST TESTเริ่มต้นการสร้างข้อมูล Followup ","2013-04-10 09:24:31","-","0","0"
"/www/ERP_crm/cronjob/create_follow_news.php","1518","primary_field เริ่มต้นการสร้างข้อมูล Followup ","2013-04-10 09:24:31","-","0","0"
"/www/ERP_crm/cronjob/create_follow_news.php","1557","arr_source chk_exits_follow_cus  TEST TEST TESTเริ่มต้นการสร้างข้อมูล Followup ","2013-04-10 09:24:31","-","0","0"
"/www/ERP_crm/cronjob/create_follow_news.php","1518","primary_field เริ่มต้นการสร้างข้อมูล Followup ","2013-04-10 09:21:20","-","0","0"
"/www/ERP_crm/cronjob/create_follow_news.php","1557","arr_source chk_exits_follow_cus  TEST TEST TESTเริ่มต้นการสร้างข้อมูล Followup ","2013-04-10 09:21:20","-","0","0"
"/www/ERP_crm/cronjob/create_follow_news.php","1518","primary_field เริ่มต้นการสร้างข้อมูล Followup ","2013-04-10 09:21:20","-","0","0"
"/www/ERP_crm/cronjob/create_follow_news.php","1557","arr_source chk_exits_follow_cus  TEST TEST TESTเริ่มต้นการสร้างข้อมูล Followup ","2013-04-10 09:21:20","-","0","0"
"/www/ERP_crm/cronjob/create_follow_news.php","1518","primary_field เริ่มต้นการสร้างข้อมูล Followup ","2013-04-10 09:24:31","-","0","0"
"/www/ERP_crm/cronjob/create_follow_news.php","1557","arr_source chk_exits_follow_cus  TEST TEST TESTเริ่มต้นการสร้างข้อมูล Followup ","2013-04-10 09:24:31","-","0","0"
"/www/ERP_crm/cronjob/create_follow_news.php","1518","primary_field เริ่มต้นการสร้างข้อมูล Followup ","2013-04-10 09:24:31","-","0","0"
"/www/ERP_crm/cronjob/create_follow_news.php","1557","arr_source chk_exits_follow_cus  TEST TEST TESTเริ่มต้นการสร้างข้อมูล Followup ","2013-04-10 09:24:31","-","0","0"
"/www/ERP_crm/cronjob/create_follow_news.php","1518","primary_field เริ่มต้นการสร้างข้อมูล Followup ","2013-04-10 09:24:31","-","0","0"
"/www/ERP_crm/cronjob/create_follow_news.php","1557","arr_source chk_exits_follow_cus  TEST TEST TESTเริ่มต้นการสร้างข้อมูล Followup ","2013-04-10 09:24:31","-","0","0"
"/www/ERP_crm/cronjob/create_follow_news.php","1518","primary_field เริ่มต้นการสร้างข้อมูล Followup ","2013-04-10 09:21:20","-","0","0"
"/www/ERP_crm/cronjob/create_follow_news.php","1557","arr_source chk_exits_follow_cus  TEST TEST TESTเริ่มต้นการสร้างข้อมูล Followup ","2013-04-10 09:21:20","-","0","0"
"/www/ERP_crm/cronjob/create_follow_news.php","1518","primary_field เริ่มต้นการสร้างข้อมูล Followup ","2013-04-10 09:21:20","-","0","0"
"/www/ERP_crm/cronjob/create_follow_news.php","1557","arr_source chk_exits_follow_cus  TEST TEST TESTเริ่มต้นการสร้างข้อมูล Followup ","2013-04-10 09:21:20","-","0","0"
"/www/ERP_crm/cronjob/create_follow_news.php","1518","primary_field เริ่มต้นการสร้างข้อมูล Followup ","2013-04-10 09:24:31","-","0","0"
"/www/ERP_crm/cronjob/create_follow_news.php","1557","arr_source chk_exits_follow_cus  TEST TEST TESTเริ่มต้นการสร้างข้อมูล Followup ","2013-04-10 09:24:31","-","0","0"
"/www/ERP_crm/cronjob/create_follow_news.php","1518","primary_field เริ่มต้นการสร้างข้อมูล Followup ","2013-04-10 09:24:31","-","0","0"
"/www/ERP_crm/cronjob/create_follow_news.php","1557","arr_source chk_exits_follow_cus  TEST TEST TESTเริ่มต้นการสร้างข้อมูล Followup ","2013-04-10 09:24:31","-","0","0"
"/www/ERP_crm/cronjob/create_follow_news.php","2278","primary_field เริ่มต้นการสร้างข้อมูล Followup ","2013-04-10 09:21:20","-","0","0"
"/www/ERP_crm/cronjob/create_follow_news.php","2306","arr_source chk_exits_follow_cus  TEST TEST TESTเริ่มต้นการสร้างข้อมูล Followup ","2013-04-10 09:21:20","-","0","0"
"/www/ERP_crm/cronjob/create_follow_news.php","2278","primary_field เริ่มต้นการสร้างข้อมูล Followup ","2013-04-10 09:24:31","-","0","0"
"/www/ERP_crm/cronjob/create_follow_news.php","2306","arr_source chk_exits_follow_cus  TEST TEST TESTเริ่มต้นการสร้างข้อมูล Followup ","2013-04-10 09:24:31","-","0","0"
"/www/ERP_crm/cronjob/create_follow_news.php","2278","primary_field เริ่มต้นการสร้างข้อมูล Followup ","2013-04-10 09:21:20","-","0","0"
"/www/ERP_crm/cronjob/create_follow_news.php","2306","arr_source chk_exits_follow_cus  TEST TEST TESTเริ่มต้นการสร้างข้อมูล Followup ","2013-04-10 09:21:20","-","0","0"
"/www/ERP_crm/cronjob/create_follow_news.php","2278","primary_field เริ่มต้นการสร้างข้อมูล Followup ","2013-04-10 09:24:31","-","0","0"
"/www/ERP_crm/cronjob/create_follow_news.php","2306","arr_source chk_exits_follow_cus  TEST TEST TESTเริ่มต้นการสร้างข้อมูล Followup ","2013-04-10 09:24:31","-","0","0"
"/www/ERP_crm/cronjob/create_follow_news.php","2713","สิ้นสุดการสร้างข้อมูล Followup ","-","2013-04-10 09:37:20","8491","0"
"/www/ERP_crm/cronjob/create_follow_news.php","2713","สิ้นสุดการสร้างข้อมูล Followup ","-","2013-04-10 09:38:06","8491","0"
"/www/ERP_crm/cronjob/create_follow_news.php","127","เริ่มต้นการสร้างข้อมูล Followup ","2013-04-10 13:18:02","-","0","0"
"/www/ERP_crm/cronjob/create_follow_news.php","1518","primary_field เริ่มต้นการสร้างข้อมูล Followup ","2013-04-10 13:18:02","-","0","0"
"/www/ERP_crm/cronjob/create_follow_news.php","1557","arr_source chk_exits_follow_cus  TEST TEST TESTเริ่มต้นการสร้างข้อมูล Followup ","2013-04-10 13:18:02","-","0","0"
"/www/ERP_crm/cronjob/create_follow_news.php","1518","primary_field เริ่มต้นการสร้างข้อมูล Followup ","2013-04-10 13:18:02","-","0","0"
"/www/ERP_crm/cronjob/create_follow_news.php","1557","arr_source chk_exits_follow_cus  TEST TEST TESTเริ่มต้นการสร้างข้อมูล Followup ","2013-04-10 13:18:02","-","0","0"
"/www/ERP_crm/cronjob/create_follow_news.php","1518","primary_field เริ่มต้นการสร้างข้อมูล Followup ","2013-04-10 13:18:02","-","0","0"
"/www/ERP_crm/cronjob/create_follow_news.php","1557","arr_source chk_exits_follow_cus  TEST TEST TESTเริ่มต้นการสร้างข้อมูล Followup ","2013-04-10 13:18:02","-","0","0"
"/www/ERP_crm/cronjob/create_follow_news.php","1518","primary_field เริ่มต้นการสร้างข้อมูล Followup ","2013-04-10 13:18:02","-","0","0"
"/www/ERP_crm/cronjob/create_follow_news.php","1557","arr_source chk_exits_follow_cus  TEST TEST TESTเริ่มต้นการสร้างข้อมูล Followup ","2013-04-10 13:18:02","-","0","0"
"/www/ERP_crm/cronjob/create_follow_news.php","1518","primary_field เริ่มต้นการสร้างข้อมูล Followup ","2013-04-10 13:18:02","-","0","0"
"/www/ERP_crm/cronjob/create_follow_news.php","1557","arr_source chk_exits_follow_cus  TEST TEST TESTเริ่มต้นการสร้างข้อมูล Followup ","2013-04-10 13:18:02","-","0","0"
"/www/ERP_crm/cronjob/create_follow_news.php","1518","primary_field เริ่มต้นการสร้างข้อมูล Followup ","2013-04-10 13:18:02","-","0","0"
"/www/ERP_crm/cronjob/create_follow_news.php","1557","arr_source chk_exits_follow_cus  TEST TEST TESTเริ่มต้นการสร้างข้อมูล Followup ","2013-04-10 13:18:02","-","0","0"
"/www/ERP_crm/cronjob/create_follow_news.php","1518","primary_field เริ่มต้นการสร้างข้อมูล Followup ","2013-04-10 13:18:02","-","0","0"
"/www/ERP_crm/cronjob/create_follow_news.php","1557","arr_source chk_exits_follow_cus  TEST TEST TESTเริ่มต้นการสร้างข้อมูล Followup ","2013-04-10 13:18:02","-","0","0"
"/www/ERP_crm/cronjob/create_follow_news.php","1518","primary_field เริ่มต้นการสร้างข้อมูล Followup ","2013-04-10 13:18:02","-","0","0"
"/www/ERP_crm/cronjob/create_follow_news.php","1557","arr_source chk_exits_follow_cus  TEST TEST TESTเริ่มต้นการสร้างข้อมูล Followup ","2013-04-10 13:18:02","-","0","0"
"/www/ERP_crm/cronjob/create_follow_news.php","2278","primary_field เริ่มต้นการสร้างข้อมูล Followup ","2013-04-10 13:18:02","-","0","0"
"/www/ERP_crm/cronjob/create_follow_news.php","2306","arr_source chk_exits_follow_cus  TEST TEST TESTเริ่มต้นการสร้างข้อมูล Followup ","2013-04-10 13:18:02","-","0","0"
"/www/ERP_crm/cronjob/create_follow_news.php","2278","primary_field เริ่มต้นการสร้างข้อมูล Followup ","2013-04-10 13:18:02","-","0","0"
"/www/ERP_crm/cronjob/create_follow_news.php","2306","arr_source chk_exits_follow_cus  TEST TEST TESTเริ่มต้นการสร้างข้อมูล Followup ","2013-04-10 13:18:02","-","0","0"
"/www/ERP_crm/cronjob/create_follow_news.php","2713","สิ้นสุดการสร้างข้อมูล Followup ","-","2013-04-10 13:27:36","8491","0"
"/www/ERP_crm/cronjob/create_follow_news.php","127","เริ่มต้นการสร้างข้อมูล Followup ","2013-04-10 14:10:05","-","0","0"
"/www/ERP_crm/cronjob/create_follow_news.php","1518","primary_field เริ่มต้นการสร้างข้อมูล Followup ","2013-04-10 14:10:05","-","0","0"
"/www/ERP_crm/cronjob/create_follow_news.php","1557","arr_source chk_exits_follow_cus  TEST TEST TESTเริ่มต้นการสร้างข้อมูล Followup ","2013-04-10 14:10:05","-","0","0"
"/www/ERP_crm/cronjob/create_follow_news.php","1518","primary_field เริ่มต้นการสร้างข้อมูล Followup ","2013-04-10 14:10:05","-","0","0"
"/www/ERP_crm/cronjob/create_follow_news.php","1557","arr_source chk_exits_follow_cus  TEST TEST TESTเริ่มต้นการสร้างข้อมูล Followup ","2013-04-10 14:10:05","-","0","0"
"/www/ERP_crm/cronjob/create_follow_news.php","1518","primary_field เริ่มต้นการสร้างข้อมูล Followup ","2013-04-10 14:10:05","-","0","0"
"/www/ERP_crm/cronjob/create_follow_news.php","1557","arr_source chk_exits_follow_cus  TEST TEST TESTเริ่มต้นการสร้างข้อมูล Followup ","2013-04-10 14:10:05","-","0","0"
"/www/ERP_crm/cronjob/create_follow_news.php","1518","primary_field เริ่มต้นการสร้างข้อมูล Followup ","2013-04-10 14:10:05","-","0","0"
"/www/ERP_crm/cronjob/create_follow_news.php","1557","arr_source chk_exits_follow_cus  TEST TEST TESTเริ่มต้นการสร้างข้อมูล Followup ","2013-04-10 14:10:05","-","0","0"
"/www/ERP_crm/cronjob/create_follow_news.php","1518","primary_field เริ่มต้นการสร้างข้อมูล Followup ","2013-04-10 14:10:05","-","0","0"
"/www/ERP_crm/cronjob/create_follow_news.php","1557","arr_source chk_exits_follow_cus  TEST TEST TESTเริ่มต้นการสร้างข้อมูล Followup ","2013-04-10 14:10:05","-","0","0"
"/www/ERP_crm/cronjob/create_follow_news.php","1518","primary_field เริ่มต้นการสร้างข้อมูล Followup ","2013-04-10 14:10:05","-","0","0"
"/www/ERP_crm/cronjob/create_follow_news.php","1557","arr_source chk_exits_follow_cus  TEST TEST TESTเริ่มต้นการสร้างข้อมูล Followup ","2013-04-10 14:10:05","-","0","0"
"/www/ERP_crm/cronjob/create_follow_news.php","1518","primary_field เริ่มต้นการสร้างข้อมูล Followup ","2013-04-10 14:10:05","-","0","0"
"/www/ERP_crm/cronjob/create_follow_news.php","1557","arr_source chk_exits_follow_cus  TEST TEST TESTเริ่มต้นการสร้างข้อมูล Followup ","2013-04-10 14:10:05","-","0","0"
"/www/ERP_crm/cronjob/create_follow_news.php","1518","primary_field เริ่มต้นการสร้างข้อมูล Followup ","2013-04-10 14:10:05","-","0","0"
"/www/ERP_crm/cronjob/create_follow_news.php","1557","arr_source chk_exits_follow_cus  TEST TEST TESTเริ่มต้นการสร้างข้อมูล Followup ","2013-04-10 14:10:05","-","0","0"
"/www/ERP_crm/cronjob/create_follow_news.php","2278","primary_field เริ่มต้นการสร้างข้อมูล Followup ","2013-04-10 14:10:05","-","0","0"
"/www/ERP_crm/cronjob/create_follow_news.php","2306","arr_source chk_exits_follow_cus  TEST TEST TESTเริ่มต้นการสร้างข้อมูล Followup ","2013-04-10 14:10:05","-","0","0"
"/www/ERP_crm/cronjob/create_follow_news.php","2278","primary_field เริ่มต้นการสร้างข้อมูล Followup ","2013-04-10 14:10:05","-","0","0"
"/www/ERP_crm/cronjob/create_follow_news.php","2306","arr_source chk_exits_follow_cus  TEST TEST TESTเริ่มต้นการสร้างข้อมูล Followup ","2013-04-10 14:10:05","-","0","0"
"/www/ERP_crm/cronjob/create_follow_news.php","2713","สิ้นสุดการสร้างข้อมูล Followup ","-","2013-04-10 14:18:47","8491","0"
"/www/ERP_crm/cronjob/create_follow_news.php","127","เริ่มต้นการสร้างข้อมูล Followup ","2013-04-10 14:21:39","-","0","0"
"/www/ERP_crm/cronjob/create_follow_news.php","1518","primary_field เริ่มต้นการสร้างข้อมูล Followup ","2013-04-10 14:21:39","-","0","0"
"/www/ERP_crm/cronjob/create_follow_news.php","1557","arr_source chk_exits_follow_cus  TEST TEST TESTเริ่มต้นการสร้างข้อมูล Followup ","2013-04-10 14:21:39","-","0","0"
"/www/ERP_crm/cronjob/create_follow_news.php","1518","primary_field เริ่มต้นการสร้างข้อมูล Followup ","2013-04-10 14:21:39","-","0","0"
"/www/ERP_crm/cronjob/create_follow_news.php","1557","arr_source chk_exits_follow_cus  TEST TEST TESTเริ่มต้นการสร้างข้อมูล Followup ","2013-04-10 14:21:39","-","0","0"
"/www/ERP_crm/cronjob/create_follow_news.php","1518","primary_field เริ่มต้นการสร้างข้อมูล Followup ","2013-04-10 14:21:39","-","0","0"
"/www/ERP_crm/cronjob/create_follow_news.php","1557","arr_source chk_exits_follow_cus  TEST TEST TESTเริ่มต้นการสร้างข้อมูล Followup ","2013-04-10 14:21:39","-","0","0"
"/www/ERP_crm/cronjob/create_follow_news.php","1518","primary_field เริ่มต้นการสร้างข้อมูล Followup ","2013-04-10 14:21:39","-","0","0"
"/www/ERP_crm/cronjob/create_follow_news.php","1557","arr_source chk_exits_follow_cus  TEST TEST TESTเริ่มต้นการสร้างข้อมูล Followup ","2013-04-10 14:21:39","-","0","0"
"/www/ERP_crm/cronjob/create_follow_news.php","1518","primary_field เริ่มต้นการสร้างข้อมูล Followup ","2013-04-10 14:21:39","-","0","0"
"/www/ERP_crm/cronjob/create_follow_news.php","1557","arr_source chk_exits_follow_cus  TEST TEST TESTเริ่มต้นการสร้างข้อมูล Followup ","2013-04-10 14:21:39","-","0","0"
"/www/ERP_crm/cronjob/create_follow_news.php","1518","primary_field เริ่มต้นการสร้างข้อมูล Followup ","2013-04-10 14:21:39","-","0","0"
"/www/ERP_crm/cronjob/create_follow_news.php","1557","arr_source chk_exits_follow_cus  TEST TEST TESTเริ่มต้นการสร้างข้อมูล Followup ","2013-04-10 14:21:39","-","0","0"
"/www/ERP_crm/cronjob/create_follow_news.php","1518","primary_field เริ่มต้นการสร้างข้อมูล Followup ","2013-04-10 14:21:39","-","0","0"
"/www/ERP_crm/cronjob/create_follow_news.php","1557","arr_source chk_exits_follow_cus  TEST TEST TESTเริ่มต้นการสร้างข้อมูล Followup ","2013-04-10 14:21:39","-","0","0"
"/www/ERP_crm/cronjob/create_follow_news.php","1518","primary_field เริ่มต้นการสร้างข้อมูล Followup ","2013-04-10 14:21:39","-","0","0"
"/www/ERP_crm/cronjob/create_follow_news.php","1557","arr_source chk_exits_follow_cus  TEST TEST TESTเริ่มต้นการสร้างข้อมูล Followup ","2013-04-10 14:21:39","-","0","0"
"/www/ERP_crm/cronjob/create_follow_news.php","2278","primary_field เริ่มต้นการสร้างข้อมูล Followup ","2013-04-10 14:21:39","-","0","0"
"/www/ERP_crm/cronjob/create_follow_news.php","2306","arr_source chk_exits_follow_cus  TEST TEST TESTเริ่มต้นการสร้างข้อมูล Followup ","2013-04-10 14:21:39","-","0","0"
"/www/ERP_crm/cronjob/create_follow_news.php","2278","primary_field เริ่มต้นการสร้างข้อมูล Followup ","2013-04-10 14:21:39","-","0","0"
"/www/ERP_crm/cronjob/create_follow_news.php","2306","arr_source chk_exits_follow_cus  TEST TEST TESTเริ่มต้นการสร้างข้อมูล Followup ","2013-04-10 14:21:39","-","0","0"
"/www/ERP_crm/cronjob/create_follow_news.php","2713","สิ้นสุดการสร้างข้อมูล Followup ","-","2013-04-10 14:30:27","8491","0"
"/www/ERP_crm/cronjob/create_follow_news.php","127","เริ่มต้นการสร้างข้อมูล Followup ","2013-04-10 14:39:30","-","0","0"
"/www/ERP_crm/cronjob/create_follow_news.php","1518","primary_field เริ่มต้นการสร้างข้อมูล Followup ","2013-04-10 14:39:30","-","0","0"
"/www/ERP_crm/cronjob/create_follow_news.php","1557","arr_source chk_exits_follow_cus  TEST TEST TESTเริ่มต้นการสร้างข้อมูล Followup ","2013-04-10 14:39:30","-","0","0"
"/www/ERP_crm/cronjob/create_follow_news.php","1518","primary_field เริ่มต้นการสร้างข้อมูล Followup ","2013-04-10 14:39:30","-","0","0"
"/www/ERP_crm/cronjob/create_follow_news.php","1557","arr_source chk_exits_follow_cus  TEST TEST TESTเริ่มต้นการสร้างข้อมูล Followup ","2013-04-10 14:39:30","-","0","0"
"/www/ERP_crm/cronjob/create_follow_news.php","1518","primary_field เริ่มต้นการสร้างข้อมูล Followup ","2013-04-10 14:39:30","-","0","0"
"/www/ERP_crm/cronjob/create_follow_news.php","1557","arr_source chk_exits_follow_cus  TEST TEST TESTเริ่มต้นการสร้างข้อมูล Followup ","2013-04-10 14:39:30","-","0","0"
"/www/ERP_crm/cronjob/create_follow_news.php","1518","primary_field เริ่มต้นการสร้างข้อมูล Followup ","2013-04-10 14:39:30","-","0","0"
"/www/ERP_crm/cronjob/create_follow_news.php","1557","arr_source chk_exits_follow_cus  TEST TEST TESTเริ่มต้นการสร้างข้อมูล Followup ","2013-04-10 14:39:30","-","0","0"
"/www/ERP_crm/cronjob/create_follow_news.php","1518","primary_field เริ่มต้นการสร้างข้อมูล Followup ","2013-04-10 14:39:30","-","0","0"
"/www/ERP_crm/cronjob/create_follow_news.php","1557","arr_source chk_exits_follow_cus  TEST TEST TESTเริ่มต้นการสร้างข้อมูล Followup ","2013-04-10 14:39:30","-","0","0"
"/www/ERP_crm/cronjob/create_follow_news.php","1518","primary_field เริ่มต้นการสร้างข้อมูล Followup ","2013-04-10 14:39:30","-","0","0"
"/www/ERP_crm/cronjob/create_follow_news.php","1557","arr_source chk_exits_follow_cus  TEST TEST TESTเริ่มต้นการสร้างข้อมูล Followup ","2013-04-10 14:39:30","-","0","0"
"/www/ERP_crm/cronjob/create_follow_news.php","1518","primary_field เริ่มต้นการสร้างข้อมูล Followup ","2013-04-10 14:39:30","-","0","0"
"/www/ERP_crm/cronjob/create_follow_news.php","1557","arr_source chk_exits_follow_cus  TEST TEST TESTเริ่มต้นการสร้างข้อมูล Followup ","2013-04-10 14:39:30","-","0","0"
"/www/ERP_crm/cronjob/create_follow_news.php","1518","primary_field เริ่มต้นการสร้างข้อมูล Followup ","2013-04-10 14:39:30","-","0","0"
"/www/ERP_crm/cronjob/create_follow_news.php","1557","arr_source chk_exits_follow_cus  TEST TEST TESTเริ่มต้นการสร้างข้อมูล Followup ","2013-04-10 14:39:30","-","0","0"
"/www/ERP_crm/cronjob/create_follow_news.php","2278","primary_field เริ่มต้นการสร้างข้อมูล Followup ","2013-04-10 14:39:30","-","0","0"
"/www/ERP_crm/cronjob/create_follow_news.php","2306","arr_source chk_exits_follow_cus  TEST TEST TESTเริ่มต้นการสร้างข้อมูล Followup ","2013-04-10 14:39:30","-","0","0"
"/www/ERP_crm/cronjob/create_follow_news.php","2278","primary_field เริ่มต้นการสร้างข้อมูล Followup ","2013-04-10 14:39:30","-","0","0"
"/www/ERP_crm/cronjob/create_follow_news.php","2306","arr_source chk_exits_follow_cus  TEST TEST TESTเริ่มต้นการสร้างข้อมูล Followup ","2013-04-10 14:39:30","-","0","0"
"/www/ERP_crm/cronjob/create_follow_news.php","2713","สิ้นสุดการสร้างข้อมูล Followup ","-","2013-04-10 14:48:20","8491","0"
"/www/ERP_crm/cronjob/create_follow_news.php","127","เริ่มต้นการสร้างข้อมูล Followup ","2013-04-10 14:50:12","-","0","0"
"/www/ERP_crm/cronjob/create_follow_news.php","1518","primary_field เริ่มต้นการสร้างข้อมูล Followup ","2013-04-10 14:50:12","-","0","0"
"/www/ERP_crm/cronjob/create_follow_news.php","1557","arr_source chk_exits_follow_cus  TEST TEST TESTเริ่มต้นการสร้างข้อมูล Followup ","2013-04-10 14:50:12","-","0","0"
"/www/ERP_crm/cronjob/create_follow_news.php","1518","primary_field เริ่มต้นการสร้างข้อมูล Followup ","2013-04-10 14:50:12","-","0","0"
"/www/ERP_crm/cronjob/create_follow_news.php","1557","arr_source chk_exits_follow_cus  TEST TEST TESTเริ่มต้นการสร้างข้อมูล Followup ","2013-04-10 14:50:12","-","0","0"
"/www/ERP_crm/cronjob/create_follow_news.php","1518","primary_field เริ่มต้นการสร้างข้อมูล Followup ","2013-04-10 14:50:12","-","0","0"
"/www/ERP_crm/cronjob/create_follow_news.php","1557","arr_source chk_exits_follow_cus  TEST TEST TESTเริ่มต้นการสร้างข้อมูล Followup ","2013-04-10 14:50:12","-","0","0"
"/www/ERP_crm/cronjob/create_follow_news.php","1518","primary_field เริ่มต้นการสร้างข้อมูล Followup ","2013-04-10 14:50:12","-","0","0"
"/www/ERP_crm/cronjob/create_follow_news.php","1557","arr_source chk_exits_follow_cus  TEST TEST TESTเริ่มต้นการสร้างข้อมูล Followup ","2013-04-10 14:50:12","-","0","0"
"/www/ERP_crm/cronjob/create_follow_news.php","1518","primary_field เริ่มต้นการสร้างข้อมูล Followup ","2013-04-10 14:50:12","-","0","0"
"/www/ERP_crm/cronjob/create_follow_news.php","1557","arr_source chk_exits_follow_cus  TEST TEST TESTเริ่มต้นการสร้างข้อมูล Followup ","2013-04-10 14:50:12","-","0","0"
"/www/ERP_crm/cronjob/create_follow_news.php","1518","primary_field เริ่มต้นการสร้างข้อมูล Followup ","2013-04-10 14:50:12","-","0","0"
"/www/ERP_crm/cronjob/create_follow_news.php","1557","arr_source chk_exits_follow_cus  TEST TEST TESTเริ่มต้นการสร้างข้อมูล Followup ","2013-04-10 14:50:12","-","0","0"
"/www/ERP_crm/cronjob/create_follow_news.php","1518","primary_field เริ่มต้นการสร้างข้อมูล Followup ","2013-04-10 14:50:12","-","0","0"
"/www/ERP_crm/cronjob/create_follow_news.php","1557","arr_source chk_exits_follow_cus  TEST TEST TESTเริ่มต้นการสร้างข้อมูล Followup ","2013-04-10 14:50:12","-","0","0"
"/www/ERP_crm/cronjob/create_follow_news.php","1518","primary_field เริ่มต้นการสร้างข้อมูล Followup ","2013-04-10 14:50:12","-","0","0"
"/www/ERP_crm/cronjob/create_follow_news.php","1557","arr_source chk_exits_follow_cus  TEST TEST TESTเริ่มต้นการสร้างข้อมูล Followup ","2013-04-10 14:50:12","-","0","0"
"/www/ERP_crm/cronjob/create_follow_news.php","2278","primary_field เริ่มต้นการสร้างข้อมูล Followup ","2013-04-10 14:50:12","-","0","0"
"/www/ERP_crm/cronjob/create_follow_news.php","2306","arr_source chk_exits_follow_cus  TEST TEST TESTเริ่มต้นการสร้างข้อมูล Followup ","2013-04-10 14:50:12","-","0","0"
"/www/ERP_crm/cronjob/create_follow_news.php","2278","primary_field เริ่มต้นการสร้างข้อมูล Followup ","2013-04-10 14:50:12","-","0","0"
"/www/ERP_crm/cronjob/create_follow_news.php","2306","arr_source chk_exits_follow_cus  TEST TEST TESTเริ่มต้นการสร้างข้อมูล Followup ","2013-04-10 14:50:12","-","0","0"
"/www/ERP_crm/cronjob/create_follow_news.php","2713","สิ้นสุดการสร้างข้อมูล Followup ","-","2013-04-10 14:58:49","8491","0"
