"FILE","LINE","TITLE","START_TIME","SUCCESS_TIME","FOLLOW","AllCusLOOP"
"/www/ERP_crm/cronjob/create_follow_news.php","127","เริ่มต้นการสร้างข้อมูล Followup ","2013-08-14 00:00:01","-","0","0"
"/www/ERP_crm/cronjob/create_follow_news.php","1525","primary_field เริ่มต้นการสร้างข้อมูล Followup ","2013-08-14 00:00:01","-","0","0"
"/www/ERP_crm/cronjob/create_follow_news.php","1549","arr_source chk_exits_follow_cus  TEST TEST TESTเริ่มต้นการสร้างข้อมูล Followup ","2013-08-14 00:00:01","-","0","0"
"/www/ERP_crm/cronjob/create_follow_news.php","1525","primary_field เริ่มต้นการสร้างข้อมูล Followup ","2013-08-14 00:00:01","-","0","0"
"/www/ERP_crm/cronjob/create_follow_news.php","1549","arr_source chk_exits_follow_cus  TEST TEST TESTเริ่มต้นการสร้างข้อมูล Followup ","2013-08-14 00:00:01","-","0","0"
"/www/ERP_crm/cronjob/create_follow_news.php","1525","primary_field เริ่มต้นการสร้างข้อมูล Followup ","2013-08-14 00:00:01","-","0","0"
"/www/ERP_crm/cronjob/create_follow_news.php","1549","arr_source chk_exits_follow_cus  TEST TEST TESTเริ่มต้นการสร้างข้อมูล Followup ","2013-08-14 00:00:01","-","0","0"
"/www/ERP_crm/cronjob/create_follow_news.php","1525","primary_field เริ่มต้นการสร้างข้อมูล Followup ","2013-08-14 00:00:01","-","0","0"
"/www/ERP_crm/cronjob/create_follow_news.php","1549","arr_source chk_exits_follow_cus  TEST TEST TESTเริ่มต้นการสร้างข้อมูล Followup ","2013-08-14 00:00:01","-","0","0"
"/www/ERP_crm/cronjob/create_follow_news.php","1525","primary_field เริ่มต้นการสร้างข้อมูล Followup ","2013-08-14 00:00:01","-","0","0"
"/www/ERP_crm/cronjob/create_follow_news.php","1549","arr_source chk_exits_follow_cus  TEST TEST TESTเริ่มต้นการสร้างข้อมูล Followup ","2013-08-14 00:00:01","-","0","0"
"/www/ERP_crm/cronjob/create_follow_news.php","1525","primary_field เริ่มต้นการสร้างข้อมูล Followup ","2013-08-14 00:00:01","-","0","0"
"/www/ERP_crm/cronjob/create_follow_news.php","1549","arr_source chk_exits_follow_cus  TEST TEST TESTเริ่มต้นการสร้างข้อมูล Followup ","2013-08-14 00:00:01","-","0","0"
"/www/ERP_crm/cronjob/create_follow_news.php","1525","primary_field เริ่มต้นการสร้างข้อมูล Followup ","2013-08-14 00:00:01","-","0","0"
"/www/ERP_crm/cronjob/create_follow_news.php","1549","arr_source chk_exits_follow_cus  TEST TEST TESTเริ่มต้นการสร้างข้อมูล Followup ","2013-08-14 00:00:01","-","0","0"
"/www/ERP_crm/cronjob/create_follow_news.php","1525","primary_field เริ่มต้นการสร้างข้อมูล Followup ","2013-08-14 00:00:01","-","0","0"
"/www/ERP_crm/cronjob/create_follow_news.php","1549","arr_source chk_exits_follow_cus  TEST TEST TESTเริ่มต้นการสร้างข้อมูล Followup ","2013-08-14 00:00:01","-","0","0"
"/www/ERP_crm/cronjob/create_follow_news.php","2305","primary_field เริ่มต้นการสร้างข้อมูล Followup ","2013-08-14 00:00:01","-","0","0"
"/www/ERP_crm/cronjob/create_follow_news.php","2329","arr_source chk_exits_follow_cus  TEST TEST TESTเริ่มต้นการสร้างข้อมูล Followup ","2013-08-14 00:00:01","-","0","0"
"/www/ERP_crm/cronjob/create_follow_news.php","2305","primary_field เริ่มต้นการสร้างข้อมูล Followup ","2013-08-14 00:00:01","-","0","0"
"/www/ERP_crm/cronjob/create_follow_news.php","2329","arr_source chk_exits_follow_cus  TEST TEST TESTเริ่มต้นการสร้างข้อมูล Followup ","2013-08-14 00:00:01","-","0","0"
"/www/ERP_crm/cronjob/create_follow_news.php","2748","สิ้นสุดการสร้างข้อมูล Followup ","-","2013-08-14 00:18:44","12305","0"
"/www/ERP_crm/cronjob/create_follow_news.php","127","เริ่มต้นการสร้างข้อมูล Followup ","2013-08-14 17:13:15","-","0","0"
"/www/ERP_crm/cronjob/create_follow_news.php","2748","สิ้นสุดการสร้างข้อมูล Followup ","-","2013-08-14 17:16:26","0","0"
