"FILE","LINE","TITLE","START_TIME","SUCCESS_TIME","FOLLOW","AllCusLOOP"
"/CRM/create_follow_news.php","128","เริ่มต้นการสร้างข้อมูล Followup ","2012-04-23 09:19:40","-","0","0"
"/CRM/create_follow_news.php","128","เริ่มต้นการสร้างข้อมูล Followup ","2012-04-23 09:46:29","-","0","0"
"/CRM/create_follow_news.php","128","เริ่มต้นการสร้างข้อมูล Followup ","2012-04-23 09:50:47","-","0","0"
"/CRM/create_follow_news.php","128","เริ่มต้นการสร้างข้อมูล Followup ","2012-04-23 09:51:02","-","0","0"
"/CRM/create_follow_news.php","128","เริ่มต้นการสร้างข้อมูล Followup ","2012-04-23 09:59:19","-","0","0"
"/CRM/create_follow_news.php","128","เริ่มต้นการสร้างข้อมูล Followup ","2012-04-23 09:59:55","-","0","0"
"/CRM/create_follow_news.php","128","เริ่มต้นการสร้างข้อมูล Followup ","2012-04-23 10:05:46","-","0","0"
"/CRM/create_follow_news.php","129","เริ่มต้นการสร้างข้อมูล Followup ","2012-04-23 10:07:50","-","0","0"
"/CRM/create_follow_news.php","129","เริ่มต้นการสร้างข้อมูล Followup ","2012-04-23 10:08:10","-","0","0"
"/CRM/create_follow_news.php","129","เริ่มต้นการสร้างข้อมูล Followup ","2012-04-23 10:08:33","-","0","0"
"/CRM/create_follow_news.php","129","เริ่มต้นการสร้างข้อมูล Followup ","2012-04-23 10:11:58","-","0","0"
"/CRM/create_follow_news.php","129","เริ่มต้นการสร้างข้อมูล Followup ","2012-04-23 10:12:04","-","0","0"
"/CRM/create_follow_news.php","129","เริ่มต้นการสร้างข้อมูล Followup ","2012-04-23 10:16:32","-","0","0"
"/CRM/create_follow_news.php","129","เริ่มต้นการสร้างข้อมูล Followup ","2012-04-23 10:17:28","-","0","0"
"/CRM/create_follow_news.php","129","เริ่มต้นการสร้างข้อมูล Followup ","2012-04-23 10:51:13","-","0","0"
"/CRM/create_follow_news.php","129","เริ่มต้นการสร้างข้อมูล Followup ","2012-04-23 10:56:02","-","0","0"
"/CRM/create_follow_news.php","129","เริ่มต้นการสร้างข้อมูล Followup ","2012-04-23 10:56:21","-","0","0"
"/CRM/create_follow_news.php","129","เริ่มต้นการสร้างข้อมูล Followup ","2012-04-23 14:34:30","-","0","0"
"/CRM/create_follow_news.php","129","เริ่มต้นการสร้างข้อมูล Followup ","2012-04-23 14:48:00","-","0","0"
"/CRM/create_follow_news.php","129","เริ่มต้นการสร้างข้อมูล Followup ","2012-04-23 14:48:36","-","0","0"
"/CRM/create_follow_news.php","129","เริ่มต้นการสร้างข้อมูล Followup ","2012-04-23 14:48:38","-","0","0"
"/CRM/create_follow_news.php","129","เริ่มต้นการสร้างข้อมูล Followup ","2012-04-23 14:48:58","-","0","0"
"/CRM/create_follow_news.php","129","เริ่มต้นการสร้างข้อมูล Followup ","2012-04-23 14:49:13","-","0","0"
"/CRM/create_follow_news.php","129","เริ่มต้นการสร้างข้อมูล Followup ","2012-04-23 14:49:14","-","0","0"
"/CRM/create_follow_news.php","129","เริ่มต้นการสร้างข้อมูล Followup ","2012-04-23 14:49:29","-","0","0"
"/CRM/create_follow_news.php","129","เริ่มต้นการสร้างข้อมูล Followup ","2012-04-23 16:53:06","-","0","0"
"/CRM/create_follow_news.php","129","เริ่มต้นการสร้างข้อมูล Followup ","2012-04-23 17:05:10","-","0","0"
"/CRM/create_follow_news.php","129","เริ่มต้นการสร้างข้อมูล Followup ","2012-04-23 17:05:41","-","0","0"
"/CRM/create_follow_news.php","129","เริ่มต้นการสร้างข้อมูล Followup ","2012-04-23 17:05:54","-","0","0"
"/CRM/create_follow_news.php","129","เริ่มต้นการสร้างข้อมูล Followup ","2012-04-23 17:06:18","-","0","0"
"/CRM/create_follow_news.php","129","เริ่มต้นการสร้างข้อมูล Followup ","2012-04-23 17:06:55","-","0","0"
"/CRM/create_follow_news.php","129","เริ่มต้นการสร้างข้อมูล Followup ","2012-04-23 17:07:22","-","0","0"
"/CRM/create_follow_news.php","129","เริ่มต้นการสร้างข้อมูล Followup ","2012-04-23 17:07:35","-","0","0"
"/CRM/create_follow_news.php","129","เริ่มต้นการสร้างข้อมูล Followup ","2012-04-23 17:10:48","-","0","0"
"/CRM/create_follow_news.php","129","เริ่มต้นการสร้างข้อมูล Followup ","2012-04-23 17:13:54","-","0","0"
"/CRM/create_follow_news.php","129","เริ่มต้นการสร้างข้อมูล Followup ","2012-04-23 17:15:45","-","0","0"
"/CRM/create_follow_news.php","129","เริ่มต้นการสร้างข้อมูล Followup ","2012-04-23 17:37:15","-","0","0"
"/CRM/create_follow_news.php","129","เริ่มต้นการสร้างข้อมูล Followup ","2012-04-23 17:40:57","-","0","0"
